%!PS-Adobe-3.0 EPSF-3.0
%%Creator: (MATLAB, The Mathworks, Inc. Version 9.3.0.713579 \(R2017b\). Operating System: Mac OS X)
%%Title: ./point_kinetics.eps
%%CreationDate: 2018-06-03T13:47:31
%%Pages: (atend)
%%BoundingBox:    42    14   516   403
%%LanguageLevel: 3
%%EndComments
%%BeginProlog
%%BeginResource: procset (Apache XML Graphics Std ProcSet) 1.2 0
%%Version: 1.2 0
%%Copyright: (Copyright 2001-2003,2010 The Apache Software Foundation. License terms: http://www.apache.org/licenses/LICENSE-2.0)
/bd{bind def}bind def
/ld{load def}bd
/GR/grestore ld
/GS/gsave ld
/RM/rmoveto ld
/C/curveto ld
/t/show ld
/L/lineto ld
/ML/setmiterlimit ld
/CT/concat ld
/f/fill ld
/N/newpath ld
/S/stroke ld
/CC/setcmykcolor ld
/A/ashow ld
/cp/closepath ld
/RC/setrgbcolor ld
/LJ/setlinejoin ld
/GC/setgray ld
/LW/setlinewidth ld
/M/moveto ld
/re {4 2 roll M
1 index 0 rlineto
0 exch rlineto
neg 0 rlineto
cp } bd
/_ctm matrix def
/_tm matrix def
/BT { _ctm currentmatrix pop matrix _tm copy pop 0 0 moveto } bd
/ET { _ctm setmatrix } bd
/iTm { _ctm setmatrix _tm concat } bd
/Tm { _tm astore pop iTm 0 0 moveto } bd
/ux 0.0 def
/uy 0.0 def
/F {
  /Tp exch def
  /Tf exch def
  Tf findfont Tp scalefont setfont
  /cf Tf def  /cs Tp def
} bd
/ULS {currentpoint /uy exch def /ux exch def} bd
/ULE {
  /Tcx currentpoint pop def
  gsave
  newpath
  cf findfont cs scalefont dup
  /FontMatrix get 0 get /Ts exch def /FontInfo get dup
  /UnderlinePosition get Ts mul /To exch def
  /UnderlineThickness get Ts mul /Tt exch def
  ux uy To add moveto  Tcx uy To add lineto
  Tt setlinewidth stroke
  grestore
} bd
/OLE {
  /Tcx currentpoint pop def
  gsave
  newpath
  cf findfont cs scalefont dup
  /FontMatrix get 0 get /Ts exch def /FontInfo get dup
  /UnderlinePosition get Ts mul /To exch def
  /UnderlineThickness get Ts mul /Tt exch def
  ux uy To add cs add moveto Tcx uy To add cs add lineto
  Tt setlinewidth stroke
  grestore
} bd
/SOE {
  /Tcx currentpoint pop def
  gsave
  newpath
  cf findfont cs scalefont dup
  /FontMatrix get 0 get /Ts exch def /FontInfo get dup
  /UnderlinePosition get Ts mul /To exch def
  /UnderlineThickness get Ts mul /Tt exch def
  ux uy To add cs 10 mul 26 idiv add moveto Tcx uy To add cs 10 mul 26 idiv add lineto
  Tt setlinewidth stroke
  grestore
} bd
/QT {
/Y22 exch store
/X22 exch store
/Y21 exch store
/X21 exch store
currentpoint
/Y21 load 2 mul add 3 div exch
/X21 load 2 mul add 3 div exch
/X21 load 2 mul /X22 load add 3 div
/Y21 load 2 mul /Y22 load add 3 div
/X22 load /Y22 load curveto
} bd
/SSPD {
dup length /d exch dict def
{
/v exch def
/k exch def
currentpagedevice k known {
/cpdv currentpagedevice k get def
v cpdv ne {
/upd false def
/nullv v type /nulltype eq def
/nullcpdv cpdv type /nulltype eq def
nullv nullcpdv or
{
/upd true def
} {
/sametype v type cpdv type eq def
sametype {
v type /arraytype eq {
/vlen v length def
/cpdvlen cpdv length def
vlen cpdvlen eq {
0 1 vlen 1 sub {
/i exch def
/obj v i get def
/cpdobj cpdv i get def
obj cpdobj ne {
/upd true def
exit
} if
} for
} {
/upd true def
} ifelse
} {
v type /dicttype eq {
v {
/dv exch def
/dk exch def
/cpddv cpdv dk get def
dv cpddv ne {
/upd true def
exit
} if
} forall
} {
/upd true def
} ifelse
} ifelse
} if
} ifelse
upd true eq {
d k v put
} if
} if
} if
} forall
d length 0 gt {
d setpagedevice
} if
} bd
/RE { % /NewFontName [NewEncodingArray] /FontName RE -
  findfont dup length dict begin
  {
    1 index /FID ne
    {def} {pop pop} ifelse
  } forall
  /Encoding exch def
  /FontName 1 index def
  currentdict definefont pop
  end
} bind def
%%EndResource
%%BeginResource: procset (Apache XML Graphics EPS ProcSet) 1.0 0
%%Version: 1.0 0
%%Copyright: (Copyright 2002-2003 The Apache Software Foundation. License terms: http://www.apache.org/licenses/LICENSE-2.0)
/BeginEPSF { %def
/b4_Inc_state save def         % Save state for cleanup
/dict_count countdictstack def % Count objects on dict stack
/op_count count 1 sub def      % Count objects on operand stack
userdict begin                 % Push userdict on dict stack
/showpage { } def              % Redefine showpage, { } = null proc
0 setgray 0 setlinecap         % Prepare graphics state
1 setlinewidth 0 setlinejoin
10 setmiterlimit [ ] 0 setdash newpath
/languagelevel where           % If level not equal to 1 then
{pop languagelevel             % set strokeadjust and
1 ne                           % overprint to their defaults.
{false setstrokeadjust false setoverprint
} if
} if
} bd
/EndEPSF { %def
count op_count sub {pop} repeat            % Clean up stacks
countdictstack dict_count sub {end} repeat
b4_Inc_state restore
} bd
%%EndResource
%FOPBeginFontDict
%%IncludeResource: font Courier-Oblique
%%IncludeResource: font Courier-BoldOblique
%%IncludeResource: font Courier-Bold
%%IncludeResource: font ZapfDingbats
%%IncludeResource: font Symbol
%%IncludeResource: font Helvetica
%%IncludeResource: font Helvetica-Oblique
%%IncludeResource: font Helvetica-Bold
%%IncludeResource: font Helvetica-BoldOblique
%%IncludeResource: font Times-Roman
%%IncludeResource: font Times-Italic
%%IncludeResource: font Times-Bold
%%IncludeResource: font Times-BoldItalic
%%IncludeResource: font Courier
%FOPEndFontDict
%%BeginResource: encoding WinAnsiEncoding
/WinAnsiEncoding [
/.notdef /.notdef /.notdef /.notdef /.notdef
/.notdef /.notdef /.notdef /.notdef /.notdef
/.notdef /.notdef /.notdef /.notdef /.notdef
/.notdef /.notdef /.notdef /.notdef /.notdef
/.notdef /.notdef /.notdef /.notdef /.notdef
/.notdef /.notdef /.notdef /.notdef /.notdef
/.notdef /.notdef /space /exclam /quotedbl
/numbersign /dollar /percent /ampersand /quotesingle
/parenleft /parenright /asterisk /plus /comma
/hyphen /period /slash /zero /one
/two /three /four /five /six
/seven /eight /nine /colon /semicolon
/less /equal /greater /question /at
/A /B /C /D /E
/F /G /H /I /J
/K /L /M /N /O
/P /Q /R /S /T
/U /V /W /X /Y
/Z /bracketleft /backslash /bracketright /asciicircum
/underscore /quoteleft /a /b /c
/d /e /f /g /h
/i /j /k /l /m
/n /o /p /q /r
/s /t /u /v /w
/x /y /z /braceleft /bar
/braceright /asciitilde /bullet /Euro /bullet
/quotesinglbase /florin /quotedblbase /ellipsis /dagger
/daggerdbl /circumflex /perthousand /Scaron /guilsinglleft
/OE /bullet /Zcaron /bullet /bullet
/quoteleft /quoteright /quotedblleft /quotedblright /bullet
/endash /emdash /asciitilde /trademark /scaron
/guilsinglright /oe /bullet /zcaron /Ydieresis
/space /exclamdown /cent /sterling /currency
/yen /brokenbar /section /dieresis /copyright
/ordfeminine /guillemotleft /logicalnot /sfthyphen /registered
/macron /degree /plusminus /twosuperior /threesuperior
/acute /mu /paragraph /middot /cedilla
/onesuperior /ordmasculine /guillemotright /onequarter /onehalf
/threequarters /questiondown /Agrave /Aacute /Acircumflex
/Atilde /Adieresis /Aring /AE /Ccedilla
/Egrave /Eacute /Ecircumflex /Edieresis /Igrave
/Iacute /Icircumflex /Idieresis /Eth /Ntilde
/Ograve /Oacute /Ocircumflex /Otilde /Odieresis
/multiply /Oslash /Ugrave /Uacute /Ucircumflex
/Udieresis /Yacute /Thorn /germandbls /agrave
/aacute /acircumflex /atilde /adieresis /aring
/ae /ccedilla /egrave /eacute /ecircumflex
/edieresis /igrave /iacute /icircumflex /idieresis
/eth /ntilde /ograve /oacute /ocircumflex
/otilde /odieresis /divide /oslash /ugrave
/uacute /ucircumflex /udieresis /yacute /thorn
/ydieresis
] def
%%EndResource
%FOPBeginFontReencode
/Courier-Oblique findfont
dup length dict begin
  {1 index /FID ne {def} {pop pop} ifelse} forall
  /Encoding WinAnsiEncoding def
  currentdict
end
/Courier-Oblique exch definefont pop
/Courier-BoldOblique findfont
dup length dict begin
  {1 index /FID ne {def} {pop pop} ifelse} forall
  /Encoding WinAnsiEncoding def
  currentdict
end
/Courier-BoldOblique exch definefont pop
/Courier-Bold findfont
dup length dict begin
  {1 index /FID ne {def} {pop pop} ifelse} forall
  /Encoding WinAnsiEncoding def
  currentdict
end
/Courier-Bold exch definefont pop
/Helvetica findfont
dup length dict begin
  {1 index /FID ne {def} {pop pop} ifelse} forall
  /Encoding WinAnsiEncoding def
  currentdict
end
/Helvetica exch definefont pop
/Helvetica-Oblique findfont
dup length dict begin
  {1 index /FID ne {def} {pop pop} ifelse} forall
  /Encoding WinAnsiEncoding def
  currentdict
end
/Helvetica-Oblique exch definefont pop
/Helvetica-Bold findfont
dup length dict begin
  {1 index /FID ne {def} {pop pop} ifelse} forall
  /Encoding WinAnsiEncoding def
  currentdict
end
/Helvetica-Bold exch definefont pop
/Helvetica-BoldOblique findfont
dup length dict begin
  {1 index /FID ne {def} {pop pop} ifelse} forall
  /Encoding WinAnsiEncoding def
  currentdict
end
/Helvetica-BoldOblique exch definefont pop
/Times-Roman findfont
dup length dict begin
  {1 index /FID ne {def} {pop pop} ifelse} forall
  /Encoding WinAnsiEncoding def
  currentdict
end
/Times-Roman exch definefont pop
/Times-Italic findfont
dup length dict begin
  {1 index /FID ne {def} {pop pop} ifelse} forall
  /Encoding WinAnsiEncoding def
  currentdict
end
/Times-Italic exch definefont pop
/Times-Bold findfont
dup length dict begin
  {1 index /FID ne {def} {pop pop} ifelse} forall
  /Encoding WinAnsiEncoding def
  currentdict
end
/Times-Bold exch definefont pop
/Times-BoldItalic findfont
dup length dict begin
  {1 index /FID ne {def} {pop pop} ifelse} forall
  /Encoding WinAnsiEncoding def
  currentdict
end
/Times-BoldItalic exch definefont pop
/Courier findfont
dup length dict begin
  {1 index /FID ne {def} {pop pop} ifelse} forall
  /Encoding WinAnsiEncoding def
  currentdict
end
/Courier exch definefont pop
%FOPEndFontReencode
%%EndProlog
%%Page: 1 1
%%PageBoundingBox: 0 0 560 420
%%BeginPageSetup
[1 0 0 -1 0 420] CT
%%EndPageSetup
GS
1 GC
N
0 0 560 420 re
f
GR
GS
1 GC
N
0 0 560 420 re
f
GR
GS
1 GC
N
73 374 M
507 374 L
507 31 L
73 31 L
cp
f
GR
GS
0.873 GC
1 LJ
0.5 LW
N
73 374 M
73 31 L
S
GR
GS
0.873 GC
1 LJ
0.5 LW
N
145.333 374 M
145.333 31 L
S
GR
GS
0.873 GC
1 LJ
0.5 LW
N
217.667 374 M
217.667 31 L
S
GR
GS
0.873 GC
1 LJ
0.5 LW
N
290 374 M
290 31 L
S
GR
GS
0.873 GC
1 LJ
0.5 LW
N
362.333 374 M
362.333 31 L
S
GR
GS
0.873 GC
1 LJ
0.5 LW
N
434.667 374 M
434.667 31 L
S
GR
GS
0.873 GC
1 LJ
0.5 LW
N
507 374 M
507 31 L
S
GR
GS
0.873 GC
1 LJ
0.5 LW
N
507 374 M
73 374 L
S
GR
GS
0.873 GC
1 LJ
0.5 LW
N
507 325 M
73 325 L
S
GR
GS
0.873 GC
1 LJ
0.5 LW
N
507 276 M
73 276 L
S
GR
GS
0.873 GC
1 LJ
0.5 LW
N
507 227 M
73 227 L
S
GR
GS
0.873 GC
1 LJ
0.5 LW
N
507 178 M
73 178 L
S
GR
GS
0.873 GC
1 LJ
0.5 LW
N
507 129 M
73 129 L
S
GR
GS
0.873 GC
1 LJ
0.5 LW
N
507 80 M
73 80 L
S
GR
GS
0.873 GC
1 LJ
0.5 LW
N
507 31 M
73 31 L
S
GR
GS
0.149 GC
2 setlinecap
1 LJ
0.5 LW
N
73 374 M
507 374 L
S
GR
GS
0.149 GC
2 setlinecap
1 LJ
0.5 LW
N
73 374 M
73 369.66 L
S
GR
GS
0.149 GC
2 setlinecap
1 LJ
0.5 LW
N
145.333 374 M
145.333 369.66 L
S
GR
GS
0.149 GC
2 setlinecap
1 LJ
0.5 LW
N
217.667 374 M
217.667 369.66 L
S
GR
GS
0.149 GC
2 setlinecap
1 LJ
0.5 LW
N
290 374 M
290 369.66 L
S
GR
GS
0.149 GC
2 setlinecap
1 LJ
0.5 LW
N
362.333 374 M
362.333 369.66 L
S
GR
GS
0.149 GC
2 setlinecap
1 LJ
0.5 LW
N
434.667 374 M
434.667 369.66 L
S
GR
GS
0.149 GC
2 setlinecap
1 LJ
0.5 LW
N
507 374 M
507 369.66 L
S
GR
GS
[1 0 0 1 73 378] CT
0.149 GC
/Helvetica 10 F
GS
[1 0 0 1 0 0] CT
-3 10 moveto 
1 -1 scale
(0) t 
GR
GR
GS
[1 0 0 1 145.33333 378] CT
0.149 GC
/Helvetica 10 F
GS
[1 0 0 1 0 0] CT
-6 10 moveto 
1 -1 scale
(20) t 
GR
GR
GS
[1 0 0 1 217.66667 378] CT
0.149 GC
/Helvetica 10 F
GS
[1 0 0 1 0 0] CT
-6 10 moveto 
1 -1 scale
(40) t 
GR
GR
GS
[1 0 0 1 290 378] CT
0.149 GC
/Helvetica 10 F
GS
[1 0 0 1 0 0] CT
-6 10 moveto 
1 -1 scale
(60) t 
GR
GR
GS
[1 0 0 1 362.33334 378] CT
0.149 GC
/Helvetica 10 F
GS
[1 0 0 1 0 0] CT
-6 10 moveto 
1 -1 scale
(80) t 
GR
GR
GS
[1 0 0 1 434.66666 378] CT
0.149 GC
/Helvetica 10 F
GS
[1 0 0 1 0 0] CT
-8.5 10 moveto 
1 -1 scale
(100) t 
GR
GR
GS
[1 0 0 1 507 378] CT
0.149 GC
/Helvetica 10 F
GS
[1 0 0 1 0 0] CT
-8.5 10 moveto 
1 -1 scale
(120) t 
GR
GR
GS
[1 0 0 1 290.00021 392] CT
0.149 GC
/Helvetica 11 F
GS
[1 0 0 1 0 0] CT
-26 11 moveto 
1 -1 scale
(Tiempo \(s\)) t 
GR
GR
GS
0.149 GC
2 setlinecap
1 LJ
0.5 LW
N
73 374 M
73 31 L
S
GR
GS
0.149 GC
2 setlinecap
1 LJ
0.5 LW
N
73 374 M
77.34 374 L
S
GR
GS
0.149 GC
2 setlinecap
1 LJ
0.5 LW
N
73 325 M
77.34 325 L
S
GR
GS
0.149 GC
2 setlinecap
1 LJ
0.5 LW
N
73 276 M
77.34 276 L
S
GR
GS
0.149 GC
2 setlinecap
1 LJ
0.5 LW
N
73 227 M
77.34 227 L
S
GR
GS
0.149 GC
2 setlinecap
1 LJ
0.5 LW
N
73 178 M
77.34 178 L
S
GR
GS
0.149 GC
2 setlinecap
1 LJ
0.5 LW
N
73 129 M
77.34 129 L
S
GR
GS
0.149 GC
2 setlinecap
1 LJ
0.5 LW
N
73 80 M
77.34 80 L
S
GR
GS
0.149 GC
2 setlinecap
1 LJ
0.5 LW
N
73 31 M
77.34 31 L
S
GR
GS
[1 0 0 1 69 374] CT
0.149 GC
/Helvetica 10 F
GS
[1 0 0 1 0 0] CT
-6 3.5 moveto 
1 -1 scale
(0) t 
GR
GR
GS
[1 0 0 1 69 325] CT
0.149 GC
/Helvetica 10 F
GS
[1 0 0 1 0 0] CT
-6 3.5 moveto 
1 -1 scale
(2) t 
GR
GR
GS
[1 0 0 1 69 276] CT
0.149 GC
/Helvetica 10 F
GS
[1 0 0 1 0 0] CT
-6 3.5 moveto 
1 -1 scale
(4) t 
GR
GR
GS
[1 0 0 1 69 227] CT
0.149 GC
/Helvetica 10 F
GS
[1 0 0 1 0 0] CT
-6 3.5 moveto 
1 -1 scale
(6) t 
GR
GR
GS
[1 0 0 1 69 178] CT
0.149 GC
/Helvetica 10 F
GS
[1 0 0 1 0 0] CT
-6 3.5 moveto 
1 -1 scale
(8) t 
GR
GR
GS
[1 0 0 1 69 129] CT
0.149 GC
/Helvetica 10 F
GS
[1 0 0 1 0 0] CT
-12 3.5 moveto 
1 -1 scale
(10) t 
GR
GR
GS
[1 0 0 1 69 80] CT
0.149 GC
/Helvetica 10 F
GS
[1 0 0 1 0 0] CT
-12 3.5 moveto 
1 -1 scale
(12) t 
GR
GR
GS
[1 0 0 1 69 31] CT
0.149 GC
/Helvetica 10 F
GS
[1 0 0 1 0 0] CT
-12 3.5 moveto 
1 -1 scale
(14) t 
GR
GR
GS
[0 -1 1 0 54 202.49983] CT
0.149 GC
/Helvetica 11 F
GS
[1 0 0 1 0 0] CT
-36 -3 moveto 
1 -1 scale
(Potencia \(MW\)) t 
GR
GR
GS
[1 0 0 1 73 28] CT
0.149 GC
N
1.469 -0.281 M
1.469 -0.359 1.516 -0.438 QT
3.594 -2.5 L
1.516 -4.578 L
1.469 -4.625 1.469 -4.719 QT
1.469 -4.781 1.531 -4.844 QT
1.594 -4.906 1.672 -4.906 QT
1.734 -4.906 1.828 -4.844 QT
3.891 -2.781 L
5.953 -4.844 L
6.031 -4.906 6.094 -4.906 QT
6.188 -4.906 6.242 -4.852 QT
6.297 -4.797 6.297 -4.719 QT
6.297 -4.625 6.25 -4.578 QT
4.172 -2.5 L
6.25 -0.438 L
6.297 -0.359 6.297 -0.281 QT
6.297 -0.203 6.242 -0.148 QT
6.188 -0.094 6.094 -0.094 QT
6.031 -0.094 5.953 -0.156 QT
3.891 -2.219 L
1.828 -0.156 L
1.75 -0.094 1.672 -0.094 QT
1.594 -0.094 1.531 -0.156 QT
1.469 -0.219 1.469 -0.281 QT
cp
f
GR
GS
[1 0 0 1 81 28] CT
0.149 GC
/Helvetica 10 F
GS
[1 0 0 1 0 0] CT
0 0 moveto 
1 -1 scale
(10) t 
GR
GR
GS
[1 0 0 1 93 23] CT
0.149 GC
/Helvetica 8 F
GS
[1 0 0 1 0 0] CT
0 0 moveto 
1 -1 scale
(4) t 
GR
GR
GS
0 0.447 0.741 RC
1 LJ
3 LW
N
73 366.65 M
73.566 366.593 L
73.566 366.593 L
74.316 366.507 L
74.317 366.507 L
75.067 366.414 L
75.068 366.414 L
75.817 366.314 L
75.818 366.314 L
76.568 366.207 L
76.569 366.207 L
77.319 366.092 L
77.319 366.092 L
78.069 365.971 L
78.07 365.971 L
78.82 365.842 L
78.821 365.841 L
79.571 365.705 L
79.571 365.704 L
80.321 365.559 L
80.322 365.559 L
81.072 365.406 L
81.073 365.405 L
81.823 365.243 L
81.824 365.243 L
82.573 365.071 L
82.574 365.07 L
83.324 364.888 L
83.325 364.888 L
84.075 364.695 L
84.076 364.695 L
84.826 364.491 L
84.826 364.491 L
85.576 364.275 L
85.577 364.275 L
86.327 364.046 L
86.328 364.046 L
87.077 363.804 L
87.078 363.804 L
87.827 363.609 L
87.829 363.608 L
88.576 363.49 L
88.581 363.489 L
89.326 363.374 L
89.332 363.373 L
90.08 363.261 L
90.087 363.26 L
90.825 363.152 L
90.833 363.151 L
91.58 363.042 L
91.59 363.041 L
92.327 362.935 L
92.338 362.934 L
93.074 362.829 L
93.087 362.828 L
93.829 362.723 L
93.844 362.721 L
94.569 362.62 L
94.586 362.618 L
95.334 362.514 L
95.351 362.511 L
96.085 362.41 L
96.103 362.407 L
96.818 362.308 L
96.837 362.306 L
97.57 362.205 L
97.59 362.202 L
98.32 362.102 L
98.341 362.099 L
99.087 361.997 L
99.109 361.994 L
99.825 361.896 L
99.849 361.893 L
100.581 361.792 L
100.602 361.79 L
101.316 361.692 L
101.342 361.688 L
102.087 361.587 L
102.107 361.584 L
102.84 361.484 L
102.86 361.481 L
103.58 361.383 L
103.6 361.38 L
104.337 361.28 L
104.361 361.276 L
105.093 361.176 L
105.112 361.174 L
105.835 361.075 L
105.855 361.072 L
106.592 360.971 L
106.617 360.968 L
107.332 360.87 L
107.357 360.867 L
108.075 360.768 L
108.102 360.764 L
108.834 360.664 L
108.862 360.66 L
109.572 360.563 L
109.599 360.559 L
110.335 360.458 L
110.354 360.455 L
111.09 360.354 L
111.117 360.35 L
111.834 360.251 L
111.859 360.247 L
112.6 360.145 L
112.624 360.141 L
113.338 360.042 L
113.36 360.039 L
114.094 359.937 L
114.117 359.934 L
114.85 359.832 L
114.874 359.829 L
115.585 359.73 L
115.605 359.727 L
116.343 359.624 L
116.369 359.62 L
117.1 359.518 L
117.122 359.515 L
117.833 359.415 L
117.858 359.411 L
118.584 359.309 L
118.609 359.305 L
119.344 359.201 L
119.364 359.199 L
120.099 359.095 L
120.125 359.091 L
120.841 358.989 L
120.861 358.986 L
121.587 358.883 L
121.614 358.879 L
122.345 358.774 L
122.369 358.771 L
123.099 358.666 L
123.122 358.663 L
123.86 358.557 L
123.882 358.554 L
124.611 358.449 L
124.635 358.445 L
125.351 358.341 L
125.374 358.338 L
126.108 358.231 L
126.132 358.228 L
126.847 358.124 L
126.868 358.121 L
127.591 358.015 L
127.617 358.011 L
128.358 357.902 L
128.377 357.899 L
129.107 357.792 L
129.128 357.789 L
129.86 357.681 L
129.886 357.677 L
130.602 357.57 L
130.621 357.568 L
131.346 357.46 L
131.372 357.456 L
132.112 357.345 L
132.132 357.342 L
132.865 357.232 L
132.891 357.228 L
133.613 357.119 L
133.633 357.116 L
134.355 357.007 L
134.383 357.002 L
135.112 356.892 L
135.133 356.888 L
135.867 356.776 L
135.892 356.773 L
136.603 356.664 L
136.623 356.661 L
137.355 356.548 L
137.382 356.544 L
138.123 356.429 L
138.15 356.425 L
138.872 356.313 L
138.891 356.31 L
139.614 356.198 L
139.641 356.193 L
140.366 356.08 L
140.385 356.077 L
141.103 355.964 L
141.129 355.96 L
141.856 355.845 L
141.877 355.842 L
142.618 355.724 L
142.646 355.72 L
143.36 355.606 L
143.383 355.602 L
144.11 355.486 L
144.135 355.482 L
144.874 355.363 L
144.894 355.36 L
145.62 355.243 L
145.646 355.239 L
146.38 355.12 L
146.403 355.116 L
147.109 355.001 L
147.135 354.996 L
147.878 354.875 L
147.899 354.871 L
148.626 354.752 L
148.652 354.748 L
149.369 354.629 L
149.388 354.626 L
150.124 354.504 L
150.145 354.5 L
150.861 354.381 L
150.885 354.377 L
151.613 354.255 L
151.636 354.251 L
152.374 354.126 L
152.4 354.122 L
153.127 353.999 L
153.148 353.996 L
153.887 353.87 L
153.911 353.866 L
154.636 353.742 L
154.658 353.738 L
155.371 353.616 L
155.397 353.611 L
156.131 353.484 L
156.152 353.481 L
156.883 353.354 L
156.907 353.35 L
157.623 353.225 L
157.647 353.221 L
158.376 353.093 L
158.397 353.089 L
159.139 352.959 L
159.166 352.954 L
159.875 352.829 L
159.897 352.825 L
160.637 352.693 L
160.657 352.69 L
161.39 352.559 L
161.414 352.554 L
162.142 352.423 L
162.168 352.419 L
162.895 352.287 L
162.916 352.284 L
163.631 352.154 L
163.656 352.149 L
164.392 352.015 L
164.413 352.011 L
165.124 351.881 L
165.151 351.876 L
165.895 351.739 L
165.914 351.735 L
166.646 351.6 L
166.675 351.595 L
167.398 351.46 L
167.42 351.456 L
168.129 351.323 L
168.154 351.318 L
168.888 351.18 L
168.912 351.176 L
169.649 351.036 L
169.672 351.032 L
170.383 350.897 L
170.404 350.893 L
171.136 350.753 L
171.161 350.748 L
171.896 350.607 L
171.916 350.603 L
172.651 350.461 L
172.677 350.456 L
173.388 350.318 L
173.411 350.314 L
174.141 350.171 L
174.166 350.167 L
174.905 350.022 L
174.925 350.018 L
175.633 349.878 L
175.659 349.873 L
176.391 349.728 L
176.41 349.724 L
177.145 349.577 L
177.172 349.572 L
177.903 349.425 L
177.926 349.421 L
178.659 349.273 L
178.681 349.269 L
179.384 349.126 L
179.412 349.121 L
180.14 348.972 L
180.165 348.967 L
180.891 348.819 L
180.912 348.814 L
181.653 348.662 L
181.682 348.656 L
182.391 348.509 L
182.413 348.505 L
183.148 348.352 L
183.168 348.348 L
183.905 348.193 L
183.931 348.188 L
184.646 348.038 L
184.666 348.033 L
185.399 347.878 L
185.425 347.873 L
186.16 347.717 L
186.188 347.711 L
186.901 347.558 L
186.924 347.553 L
187.654 347.396 L
187.678 347.391 L
188.4 347.235 L
188.421 347.231 L
189.154 347.071 L
189.174 347.067 L
189.908 346.907 L
189.931 346.902 L
190.659 346.742 L
190.678 346.737 L
191.413 346.575 L
191.433 346.571 L
192.17 346.407 L
192.19 346.403 L
192.901 346.244 L
192.924 346.239 L
193.667 346.072 L
193.689 346.067 L
194.421 345.901 L
194.447 345.896 L
195.161 345.734 L
195.181 345.729 L
195.919 345.561 L
195.946 345.554 L
196.657 345.391 L
196.678 345.386 L
197.406 345.218 L
197.43 345.213 L
198.172 345.04 L
198.192 345.036 L
198.91 344.868 L
198.93 344.863 L
199.667 344.69 L
199.688 344.686 L
200.429 344.511 L
200.456 344.504 L
201.161 344.337 L
201.183 344.332 L
201.918 344.156 L
201.944 344.15 L
202.673 343.975 L
202.692 343.97 L
203.408 343.798 L
203.434 343.792 L
204.173 343.612 L
204.194 343.607 L
204.925 343.429 L
204.95 343.422 L
205.663 343.248 L
205.686 343.242 L
206.422 343.06 L
206.445 343.055 L
207.163 342.876 L
207.191 342.87 L
207.928 342.685 L
207.947 342.681 L
208.674 342.498 L
208.699 342.492 L
209.424 342.309 L
209.449 342.303 L
210.166 342.121 L
210.191 342.114 L
210.925 341.927 L
210.947 341.921 L
211.67 341.736 L
211.699 341.728 L
212.439 341.537 L
212.467 341.53 L
213.183 341.344 L
213.205 341.339 L
213.921 341.152 L
213.946 341.145 L
214.677 340.953 L
214.703 340.946 L
215.421 340.757 L
215.442 340.751 L
216.167 340.559 L
216.193 340.552 L
216.937 340.353 L
216.961 340.347 L
217.676 340.155 L
217.701 340.148 L
218.44 339.949 L
218.458 339.944 L
219.192 339.744 L
219.221 339.737 L
219.927 339.544 L
219.955 339.536 L
220.694 339.333 L
220.72 339.326 L
221.448 339.125 L
221.468 339.119 L
222.185 338.92 L
222.21 338.913 L
222.943 338.708 L
222.965 338.702 L
223.698 338.496 L
223.727 338.488 L
224.434 338.288 L
224.461 338.281 L
225.184 338.075 L
225.204 338.07 L
225.945 337.858 L
225.972 337.85 L
226.699 337.641 L
226.718 337.636 L
227.438 337.428 L
227.466 337.419 L
228.183 337.211 L
228.205 337.205 L
228.938 336.99 L
228.963 336.983 L
229.694 336.768 L
229.718 336.761 L
230.437 336.548 L
230.458 336.542 L
231.177 336.328 L
231.208 336.319 L
231.952 336.097 L
231.98 336.088 L
232.7 335.872 L
232.729 335.863 L
233.439 335.648 L
233.467 335.64 L
234.207 335.414 L
234.236 335.406 L
234.945 335.188 L
234.972 335.18 L
235.692 334.959 L
235.712 334.953 L
236.46 334.721 L
236.487 334.713 L
237.21 334.488 L
237.229 334.482 L
237.95 334.256 L
237.979 334.247 L
238.687 334.024 L
238.715 334.015 L
239.455 333.781 L
239.482 333.772 L
240.202 333.543 L
240.222 333.536 L
240.947 333.304 L
240.966 333.298 L
241.71 333.059 L
241.737 333.05 L
242.461 332.815 L
242.48 332.809 L
243.194 332.576 L
243.22 332.568 L
243.952 332.328 L
243.972 332.321 L
244.706 332.079 L
244.731 332.071 L
245.466 331.827 L
245.485 331.821 L
246.194 331.585 L
246.221 331.576 L
246.955 331.329 L
246.974 331.323 L
247.714 331.074 L
247.74 331.065 L
248.456 330.822 L
248.477 330.815 L
249.2 330.568 L
249.228 330.558 L
249.955 330.309 L
249.977 330.301 L
250.718 330.046 L
250.742 330.037 L
251.461 329.787 L
251.486 329.779 L
252.211 329.526 L
252.232 329.518 L
252.95 329.266 L
252.976 329.257 L
253.708 328.999 L
253.728 328.992 L
254.472 328.727 L
254.499 328.718 L
255.215 328.462 L
255.24 328.453 L
255.964 328.193 L
255.986 328.185 L
256.708 327.924 L
256.736 327.914 L
257.474 327.646 L
257.501 327.635 L
258.219 327.373 L
258.24 327.365 L
258.965 327.099 L
258.992 327.089 L
259.717 326.821 L
259.736 326.814 L
260.471 326.54 L
260.492 326.532 L
261.228 326.257 L
261.252 326.248 L
261.971 325.978 L
261.993 325.969 L
262.72 325.694 L
262.747 325.684 L
263.467 325.409 L
263.488 325.402 L
264.234 325.116 L
264.262 325.105 L
264.981 324.828 L
265.005 324.819 L
265.735 324.536 L
265.758 324.527 L
266.47 324.25 L
266.492 324.241 L
267.223 323.955 L
267.243 323.947 L
267.98 323.657 L
268.008 323.646 L
268.727 323.361 L
268.751 323.351 L
269.475 323.062 L
269.494 323.055 L
270.235 322.757 L
270.264 322.746 L
270.974 322.459 L
271.002 322.448 L
271.738 322.149 L
271.766 322.138 L
272.481 321.846 L
272.503 321.837 L
273.232 321.538 L
273.256 321.528 L
273.994 321.224 L
274.015 321.215 L
274.743 320.913 L
274.767 320.903 L
275.479 320.606 L
275.499 320.597 L
276.232 320.289 L
276.258 320.278 L
276.992 319.968 L
277.014 319.959 L
277.724 319.657 L
277.749 319.646 L
278.491 319.33 L
278.509 319.322 L
279.248 319.004 L
279.267 318.996 L
279.983 318.686 L
280.008 318.676 L
280.747 318.354 L
280.769 318.344 L
281.475 318.036 L
281.503 318.023 L
282.241 317.699 L
282.267 317.687 L
282.988 317.368 L
283.008 317.359 L
283.731 317.037 L
283.757 317.026 L
284.503 316.692 L
284.523 316.683 L
285.248 316.357 L
285.275 316.344 L
286.002 316.015 L
286.02 316.007 L
286.738 315.68 L
286.766 315.667 L
287.49 315.335 L
287.51 315.326 L
288.252 314.984 L
288.278 314.973 L
289.004 314.636 L
289.025 314.626 L
289.743 314.291 L
289.773 314.277 L
290.487 313.942 L
290.509 313.932 L
291.244 313.585 L
291.269 313.574 L
292.005 313.225 L
292.025 313.215 L
292.745 312.871 L
292.766 312.861 L
293.494 312.512 L
293.52 312.499 L
294.254 312.145 L
294.278 312.133 L
294.992 311.787 L
295.019 311.774 L
295.759 311.412 L
295.787 311.399 L
296.495 311.051 L
296.522 311.038 L
297.26 310.673 L
297.279 310.663 L
298.012 310.299 L
298.039 310.286 L
298.759 309.926 L
298.785 309.913 L
299.493 309.557 L
299.518 309.544 L
300.248 309.175 L
300.272 309.163 L
301.006 308.79 L
301.029 308.778 L
301.757 308.405 L
301.785 308.391 L
302.494 308.026 L
302.523 308.011 L
303.259 307.63 L
303.288 307.615 L
304.018 307.236 L
304.043 307.222 L
304.769 306.842 L
304.788 306.832 L
305.505 306.454 L
305.532 306.44 L
306.261 306.054 L
306.28 306.044 L
307 305.66 L
307.029 305.645 L
307.767 305.249 L
307.795 305.234 L
308.514 304.846 L
308.538 304.834 L
309.258 304.443 L
309.281 304.431 L
310.026 304.024 L
310.05 304.011 L
310.77 303.616 L
310.794 303.603 L
311.515 303.205 L
311.538 303.193 L
312.265 302.789 L
312.289 302.776 L
313.028 302.363 L
313.053 302.349 L
313.768 301.948 L
313.789 301.936 L
314.52 301.523 L
314.545 301.509 L
315.281 301.09 L
315.306 301.076 L
316.026 300.665 L
316.048 300.652 L
316.766 300.24 L
316.79 300.226 L
317.512 299.808 L
317.536 299.794 L
318.278 299.363 L
318.3 299.35 L
319.027 298.925 L
319.05 298.911 L
319.775 298.485 L
319.799 298.471 L
320.519 298.045 L
320.54 298.032 L
321.269 297.599 L
321.294 297.584 L
322.031 297.143 L
322.054 297.129 L
322.767 296.7 L
322.791 296.685 L
323.525 296.241 L
323.545 296.228 L
324.275 295.784 L
324.301 295.768 L
325.034 295.319 L
325.057 295.304 L
325.765 294.868 L
325.792 294.852 L
326.53 294.394 L
326.552 294.381 L
327.276 293.929 L
327.301 293.913 L
328.041 293.449 L
328.062 293.436 L
328.768 292.99 L
328.794 292.974 L
329.53 292.507 L
329.553 292.493 L
330.278 292.03 L
330.302 292.015 L
331.041 291.54 L
331.062 291.526 L
331.771 291.069 L
331.796 291.052 L
332.534 290.573 L
332.553 290.561 L
333.284 290.083 L
333.305 290.07 L
334.027 289.595 L
334.054 289.577 L
334.782 289.096 L
334.801 289.084 L
335.545 288.589 L
335.573 288.571 L
336.284 288.095 L
336.305 288.081 L
337.035 287.59 L
337.058 287.574 L
337.79 287.079 L
337.814 287.063 L
338.547 286.564 L
338.573 286.547 L
339.291 286.055 L
339.311 286.041 L
340.042 285.538 L
340.063 285.524 L
340.801 285.012 L
340.825 284.996 L
341.537 284.5 L
341.556 284.487 L
342.292 283.971 L
342.311 283.957 L
343.036 283.447 L
343.06 283.43 L
343.791 282.912 L
343.815 282.895 L
344.554 282.368 L
344.578 282.351 L
345.302 281.831 L
345.328 281.812 L
346.042 281.298 L
346.061 281.284 L
346.794 280.752 L
346.821 280.733 L
347.54 280.208 L
347.564 280.19 L
348.308 279.644 L
348.33 279.628 L
349.045 279.1 L
349.072 279.08 L
349.794 278.544 L
349.813 278.53 L
350.56 277.972 L
350.585 277.953 L
351.297 277.418 L
351.316 277.404 L
352.052 276.847 L
352.08 276.827 L
352.794 276.283 L
352.822 276.262 L
353.557 275.7 L
353.576 275.686 L
354.311 275.12 L
354.331 275.105 L
355.056 274.544 L
355.082 274.524 L
355.803 273.963 L
355.824 273.947 L
356.568 273.365 L
356.594 273.344 L
357.312 272.779 L
357.332 272.763 L
358.06 272.186 L
358.086 272.165 L
358.809 271.589 L
358.829 271.574 L
359.552 270.994 L
359.578 270.974 L
360.303 270.389 L
360.324 270.373 L
361.068 269.769 L
361.094 269.748 L
361.812 269.163 L
361.832 269.146 L
362.562 268.548 L
362.59 268.525 L
363.316 267.926 L
363.339 267.907 L
364.051 267.316 L
364.076 267.296 L
364.807 266.686 L
364.828 266.668 L
365.568 266.047 L
365.593 266.025 L
366.319 265.413 L
366.342 265.393 L
367.055 264.788 L
367.08 264.767 L
367.816 264.138 L
367.836 264.121 L
368.567 263.493 L
368.593 263.47 L
369.326 262.837 L
369.349 262.817 L
370.061 262.198 L
370.088 262.174 L
370.823 261.532 L
370.843 261.514 L
371.574 260.871 L
371.601 260.847 L
372.315 260.215 L
372.34 260.193 L
373.08 259.535 L
373.099 259.518 L
373.824 258.869 L
373.852 258.844 L
374.569 258.199 L
374.595 258.175 L
375.33 257.51 L
375.349 257.492 L
376.062 256.843 L
376.088 256.819 L
376.825 256.144 L
376.85 256.121 L
377.587 255.442 L
377.61 255.421 L
378.315 254.766 L
378.344 254.74 L
379.075 254.059 L
379.103 254.032 L
379.817 253.362 L
379.843 253.338 L
380.577 252.646 L
380.597 252.627 L
381.331 251.93 L
381.356 251.907 L
382.09 251.206 L
382.114 251.183 L
382.826 250.5 L
382.847 250.48 L
383.583 249.769 L
383.603 249.749 L
384.326 249.047 L
384.353 249.021 L
385.082 248.308 L
385.101 248.29 L
385.844 247.56 L
385.871 247.533 L
386.586 246.827 L
386.606 246.807 L
387.333 246.084 L
387.359 246.058 L
388.092 245.325 L
388.119 245.298 L
388.845 244.568 L
388.864 244.549 L
389.581 243.823 L
389.608 243.796 L
390.344 243.047 L
390.364 243.026 L
391.097 242.276 L
391.123 242.249 L
391.838 241.513 L
391.862 241.488 L
392.58 240.744 L
392.605 240.719 L
393.348 239.945 L
393.376 239.916 L
394.083 239.175 L
394.105 239.151 L
394.841 238.376 L
394.864 238.352 L
395.584 237.588 L
395.611 237.559 L
396.35 236.772 L
396.369 236.751 L
397.098 235.969 L
397.124 235.941 L
397.846 235.163 L
397.866 235.141 L
398.585 234.36 L
398.614 234.329 L
399.348 233.528 L
399.37 233.504 L
400.105 232.697 L
400.125 232.675 L
400.846 231.878 L
400.872 231.849 L
401.601 231.04 L
401.622 231.017 L
402.338 230.216 L
402.363 230.189 L
403.105 229.355 L
403.129 229.328 L
403.855 228.507 L
403.877 228.482 L
404.594 227.667 L
404.617 227.64 L
405.345 226.808 L
405.369 226.78 L
406.107 225.931 L
406.129 225.907 L
406.84 225.084 L
406.866 225.054 L
407.605 224.194 L
407.627 224.168 L
408.356 223.314 L
408.377 223.29 L
409.108 222.428 L
409.135 222.397 L
409.85 221.55 L
409.87 221.526 L
410.601 220.656 L
410.628 220.623 L
411.352 219.756 L
411.371 219.733 L
412.108 218.844 L
412.132 218.815 L
412.844 217.952 L
412.87 217.921 L
413.61 217.018 L
413.631 216.993 L
414.365 216.092 L
414.389 216.062 L
415.114 215.168 L
415.133 215.145 L
415.857 214.246 L
415.878 214.219 L
416.606 213.311 L
416.631 213.279 L
417.365 212.358 L
417.385 212.333 L
418.12 211.404 L
418.146 211.371 L
418.857 210.469 L
418.876 210.444 L
419.617 209.496 L
419.645 209.461 L
420.372 208.526 L
420.391 208.502 L
421.102 207.583 L
421.128 207.549 L
421.864 206.592 L
421.883 206.567 L
422.621 205.601 L
422.651 205.563 L
423.358 204.632 L
423.388 204.592 L
424.101 203.649 L
424.129 203.612 L
424.872 202.622 L
424.891 202.597 L
425.611 201.634 L
425.635 201.602 L
426.368 200.614 L
426.393 200.58 L
427.127 199.586 L
427.149 199.556 L
427.881 198.559 L
427.904 198.528 L
428.611 197.559 L
428.635 197.526 L
429.371 196.511 L
429.391 196.484 L
430.131 195.457 L
430.158 195.419 L
430.87 194.426 L
430.897 194.388 L
431.622 193.372 L
431.641 193.345 L
432.361 192.329 L
432.388 192.29 L
433.122 191.248 L
433.142 191.22 L
433.882 190.163 L
433.903 190.134 L
434.623 189.1 L
434.642 189.071 L
435.383 188.002 L
435.411 187.961 L
436.138 186.904 L
436.161 186.871 L
436.882 185.817 L
436.901 185.789 L
437.638 184.706 L
437.663 184.669 L
438.378 183.611 L
438.398 183.582 L
439.137 182.482 L
439.157 182.454 L
439.875 181.379 L
439.895 181.349 L
440.637 180.233 L
440.665 180.19 L
441.39 179.092 L
441.413 179.057 L
442.128 177.97 L
442.15 177.935 L
442.88 176.817 L
442.903 176.782 L
443.637 175.652 L
443.661 175.615 L
444.393 174.481 L
444.418 174.441 L
445.131 173.33 L
445.157 173.289 L
445.885 172.148 L
445.908 172.111 L
446.633 170.969 L
446.653 170.938 L
447.388 169.771 L
447.414 169.73 L
448.147 168.56 L
448.167 168.529 L
448.879 167.386 L
448.905 167.344 L
449.63 166.173 L
449.655 166.133 L
450.397 164.93 L
450.418 164.895 L
451.148 163.702 L
451.172 163.664 L
451.894 162.478 L
451.914 162.444 L
452.634 161.254 L
452.661 161.211 L
453.402 159.978 L
453.424 159.943 L
454.151 158.727 L
454.177 158.683 L
454.901 157.465 L
454.921 157.432 L
455.65 156.199 L
455.671 156.164 L
456.388 154.943 L
456.412 154.902 L
457.142 153.654 L
457.164 153.616 L
457.899 152.351 L
457.926 152.304 L
458.648 151.054 L
458.668 151.019 L
459.41 149.727 L
459.437 149.68 L
460.145 148.439 L
460.164 148.406 L
460.898 147.113 L
460.925 147.065 L
461.657 145.768 L
461.676 145.734 L
462.388 144.465 L
462.415 144.418 L
463.16 143.081 L
463.184 143.038 L
463.905 141.738 L
463.929 141.695 L
464.655 140.378 L
464.674 140.343 L
465.391 139.035 L
465.419 138.983 L
466.159 137.626 L
466.187 137.573 L
466.892 136.273 L
466.918 136.223 L
467.663 134.841 L
467.687 134.796 L
468.403 133.458 L
468.431 133.406 L
469.145 132.064 L
469.172 132.013 L
469.919 130.601 L
469.939 130.565 L
470.661 129.191 L
470.688 129.14 L
471.416 127.747 L
471.436 127.709 L
472.147 126.342 L
472.174 126.289 L
472.913 124.861 L
472.934 124.82 L
473.662 123.404 L
473.687 123.354 L
474.41 121.94 L
474.429 121.902 L
475.15 120.483 L
475.177 120.429 L
475.925 118.949 L
475.948 118.902 L
476.659 117.487 L
476.681 117.443 L
477.409 115.983 L
477.438 115.926 L
478.176 114.438 L
478.203 114.385 L
478.912 112.947 L
478.932 112.906 L
479.667 111.407 L
479.692 111.356 L
480.408 109.889 L
480.431 109.84 L
481.175 108.306 L
481.194 108.267 L
481.925 106.75 L
481.954 106.69 L
482.67 105.195 L
482.698 105.137 L
483.43 103.6 L
483.452 103.554 L
484.161 102.057 L
484.186 102.004 L
484.925 100.433 L
484.945 100.392 L
485.676 98.829 L
485.704 98.77 L
486.418 97.235 L
486.443 97.182 L
487.184 95.58 L
487.211 95.52 L
487.918 93.985 L
487.94 93.935 L
488.669 92.341 L
488.694 92.287 L
489.431 90.666 L
489.451 90.621 L
490.169 89.032 L
490.189 88.989 L
490.927 87.345 L
490.947 87.301 L
491.666 85.692 L
491.691 85.636 L
492.43 83.971 L
492.458 83.908 L
493.166 82.304 L
493.193 82.242 L
493.936 80.55 L
493.956 80.506 L
494.687 78.83 L
494.714 78.767 L
495.434 77.109 L
495.453 77.065 L
496.177 75.386 L
496.201 75.33 L
496.931 73.628 L
496.957 73.568 L
497.672 71.89 L
497.697 71.832 L
498.431 70.1 L
498.449 70.056 L
499.181 68.32 L
499.209 68.253 L
499.927 66.54 L
499.949 66.487 L
500.684 64.721 L
500.708 64.663 L
501.438 62.9 L
501.464 62.837 L
502.188 61.079 L
502.209 61.028 L
502.925 59.277 L
502.951 59.214 L
503.682 57.418 L
503.701 57.371 L
504.441 55.54 L
504.468 55.474 L
505.192 53.673 L
505.212 53.624 L
505.931 51.824 L
505.958 51.758 L
506.683 49.932 L
506.704 49.881 L
507 49.133 L
S
GR
%%Trailer
%%Pages: 1
%%EOF
