%!PS-Adobe-3.0 EPSF-3.0
%%Creator: (MATLAB, The Mathworks, Inc. Version 9.3.0.713579 \(R2017b\). Operating System: Mac OS X)
%%Title: ./power.eps
%%CreationDate: 2018-04-26T20:41:06
%%Pages: (atend)
%%BoundingBox:    11     0   520   395
%%LanguageLevel: 3
%%EndComments
%%BeginProlog
%%BeginResource: procset (Apache XML Graphics Std ProcSet) 1.2 0
%%Version: 1.2 0
%%Copyright: (Copyright 2001-2003,2010 The Apache Software Foundation. License terms: http://www.apache.org/licenses/LICENSE-2.0)
/bd{bind def}bind def
/ld{load def}bd
/GR/grestore ld
/GS/gsave ld
/RM/rmoveto ld
/C/curveto ld
/t/show ld
/L/lineto ld
/ML/setmiterlimit ld
/CT/concat ld
/f/fill ld
/N/newpath ld
/S/stroke ld
/CC/setcmykcolor ld
/A/ashow ld
/cp/closepath ld
/RC/setrgbcolor ld
/LJ/setlinejoin ld
/GC/setgray ld
/LW/setlinewidth ld
/M/moveto ld
/re {4 2 roll M
1 index 0 rlineto
0 exch rlineto
neg 0 rlineto
cp } bd
/_ctm matrix def
/_tm matrix def
/BT { _ctm currentmatrix pop matrix _tm copy pop 0 0 moveto } bd
/ET { _ctm setmatrix } bd
/iTm { _ctm setmatrix _tm concat } bd
/Tm { _tm astore pop iTm 0 0 moveto } bd
/ux 0.0 def
/uy 0.0 def
/F {
  /Tp exch def
  /Tf exch def
  Tf findfont Tp scalefont setfont
  /cf Tf def  /cs Tp def
} bd
/ULS {currentpoint /uy exch def /ux exch def} bd
/ULE {
  /Tcx currentpoint pop def
  gsave
  newpath
  cf findfont cs scalefont dup
  /FontMatrix get 0 get /Ts exch def /FontInfo get dup
  /UnderlinePosition get Ts mul /To exch def
  /UnderlineThickness get Ts mul /Tt exch def
  ux uy To add moveto  Tcx uy To add lineto
  Tt setlinewidth stroke
  grestore
} bd
/OLE {
  /Tcx currentpoint pop def
  gsave
  newpath
  cf findfont cs scalefont dup
  /FontMatrix get 0 get /Ts exch def /FontInfo get dup
  /UnderlinePosition get Ts mul /To exch def
  /UnderlineThickness get Ts mul /Tt exch def
  ux uy To add cs add moveto Tcx uy To add cs add lineto
  Tt setlinewidth stroke
  grestore
} bd
/SOE {
  /Tcx currentpoint pop def
  gsave
  newpath
  cf findfont cs scalefont dup
  /FontMatrix get 0 get /Ts exch def /FontInfo get dup
  /UnderlinePosition get Ts mul /To exch def
  /UnderlineThickness get Ts mul /Tt exch def
  ux uy To add cs 10 mul 26 idiv add moveto Tcx uy To add cs 10 mul 26 idiv add lineto
  Tt setlinewidth stroke
  grestore
} bd
/QT {
/Y22 exch store
/X22 exch store
/Y21 exch store
/X21 exch store
currentpoint
/Y21 load 2 mul add 3 div exch
/X21 load 2 mul add 3 div exch
/X21 load 2 mul /X22 load add 3 div
/Y21 load 2 mul /Y22 load add 3 div
/X22 load /Y22 load curveto
} bd
/SSPD {
dup length /d exch dict def
{
/v exch def
/k exch def
currentpagedevice k known {
/cpdv currentpagedevice k get def
v cpdv ne {
/upd false def
/nullv v type /nulltype eq def
/nullcpdv cpdv type /nulltype eq def
nullv nullcpdv or
{
/upd true def
} {
/sametype v type cpdv type eq def
sametype {
v type /arraytype eq {
/vlen v length def
/cpdvlen cpdv length def
vlen cpdvlen eq {
0 1 vlen 1 sub {
/i exch def
/obj v i get def
/cpdobj cpdv i get def
obj cpdobj ne {
/upd true def
exit
} if
} for
} {
/upd true def
} ifelse
} {
v type /dicttype eq {
v {
/dv exch def
/dk exch def
/cpddv cpdv dk get def
dv cpddv ne {
/upd true def
exit
} if
} forall
} {
/upd true def
} ifelse
} ifelse
} if
} ifelse
upd true eq {
d k v put
} if
} if
} if
} forall
d length 0 gt {
d setpagedevice
} if
} bd
/RE { % /NewFontName [NewEncodingArray] /FontName RE -
  findfont dup length dict begin
  {
    1 index /FID ne
    {def} {pop pop} ifelse
  } forall
  /Encoding exch def
  /FontName 1 index def
  currentdict definefont pop
  end
} bind def
%%EndResource
%%BeginResource: procset (Apache XML Graphics EPS ProcSet) 1.0 0
%%Version: 1.0 0
%%Copyright: (Copyright 2002-2003 The Apache Software Foundation. License terms: http://www.apache.org/licenses/LICENSE-2.0)
/BeginEPSF { %def
/b4_Inc_state save def         % Save state for cleanup
/dict_count countdictstack def % Count objects on dict stack
/op_count count 1 sub def      % Count objects on operand stack
userdict begin                 % Push userdict on dict stack
/showpage { } def              % Redefine showpage, { } = null proc
0 setgray 0 setlinecap         % Prepare graphics state
1 setlinewidth 0 setlinejoin
10 setmiterlimit [ ] 0 setdash newpath
/languagelevel where           % If level not equal to 1 then
{pop languagelevel             % set strokeadjust and
1 ne                           % overprint to their defaults.
{false setstrokeadjust false setoverprint
} if
} if
} bd
/EndEPSF { %def
count op_count sub {pop} repeat            % Clean up stacks
countdictstack dict_count sub {end} repeat
b4_Inc_state restore
} bd
%%EndResource
%FOPBeginFontDict
%%IncludeResource: font Courier-Oblique
%%IncludeResource: font Courier-BoldOblique
%%IncludeResource: font Courier-Bold
%%IncludeResource: font ZapfDingbats
%%IncludeResource: font Symbol
%%IncludeResource: font Helvetica
%%IncludeResource: font Helvetica-Oblique
%%IncludeResource: font Helvetica-Bold
%%IncludeResource: font Helvetica-BoldOblique
%%IncludeResource: font Times-Roman
%%IncludeResource: font Times-Italic
%%IncludeResource: font Times-Bold
%%IncludeResource: font Times-BoldItalic
%%IncludeResource: font Courier
%FOPEndFontDict
%%BeginResource: encoding WinAnsiEncoding
/WinAnsiEncoding [
/.notdef /.notdef /.notdef /.notdef /.notdef
/.notdef /.notdef /.notdef /.notdef /.notdef
/.notdef /.notdef /.notdef /.notdef /.notdef
/.notdef /.notdef /.notdef /.notdef /.notdef
/.notdef /.notdef /.notdef /.notdef /.notdef
/.notdef /.notdef /.notdef /.notdef /.notdef
/.notdef /.notdef /space /exclam /quotedbl
/numbersign /dollar /percent /ampersand /quotesingle
/parenleft /parenright /asterisk /plus /comma
/hyphen /period /slash /zero /one
/two /three /four /five /six
/seven /eight /nine /colon /semicolon
/less /equal /greater /question /at
/A /B /C /D /E
/F /G /H /I /J
/K /L /M /N /O
/P /Q /R /S /T
/U /V /W /X /Y
/Z /bracketleft /backslash /bracketright /asciicircum
/underscore /quoteleft /a /b /c
/d /e /f /g /h
/i /j /k /l /m
/n /o /p /q /r
/s /t /u /v /w
/x /y /z /braceleft /bar
/braceright /asciitilde /bullet /Euro /bullet
/quotesinglbase /florin /quotedblbase /ellipsis /dagger
/daggerdbl /circumflex /perthousand /Scaron /guilsinglleft
/OE /bullet /Zcaron /bullet /bullet
/quoteleft /quoteright /quotedblleft /quotedblright /bullet
/endash /emdash /asciitilde /trademark /scaron
/guilsinglright /oe /bullet /zcaron /Ydieresis
/space /exclamdown /cent /sterling /currency
/yen /brokenbar /section /dieresis /copyright
/ordfeminine /guillemotleft /logicalnot /sfthyphen /registered
/macron /degree /plusminus /twosuperior /threesuperior
/acute /mu /paragraph /middot /cedilla
/onesuperior /ordmasculine /guillemotright /onequarter /onehalf
/threequarters /questiondown /Agrave /Aacute /Acircumflex
/Atilde /Adieresis /Aring /AE /Ccedilla
/Egrave /Eacute /Ecircumflex /Edieresis /Igrave
/Iacute /Icircumflex /Idieresis /Eth /Ntilde
/Ograve /Oacute /Ocircumflex /Otilde /Odieresis
/multiply /Oslash /Ugrave /Uacute /Ucircumflex
/Udieresis /Yacute /Thorn /germandbls /agrave
/aacute /acircumflex /atilde /adieresis /aring
/ae /ccedilla /egrave /eacute /ecircumflex
/edieresis /igrave /iacute /icircumflex /idieresis
/eth /ntilde /ograve /oacute /ocircumflex
/otilde /odieresis /divide /oslash /ugrave
/uacute /ucircumflex /udieresis /yacute /thorn
/ydieresis
] def
%%EndResource
%FOPBeginFontReencode
/Courier-Oblique findfont
dup length dict begin
  {1 index /FID ne {def} {pop pop} ifelse} forall
  /Encoding WinAnsiEncoding def
  currentdict
end
/Courier-Oblique exch definefont pop
/Courier-BoldOblique findfont
dup length dict begin
  {1 index /FID ne {def} {pop pop} ifelse} forall
  /Encoding WinAnsiEncoding def
  currentdict
end
/Courier-BoldOblique exch definefont pop
/Courier-Bold findfont
dup length dict begin
  {1 index /FID ne {def} {pop pop} ifelse} forall
  /Encoding WinAnsiEncoding def
  currentdict
end
/Courier-Bold exch definefont pop
/Helvetica findfont
dup length dict begin
  {1 index /FID ne {def} {pop pop} ifelse} forall
  /Encoding WinAnsiEncoding def
  currentdict
end
/Helvetica exch definefont pop
/Helvetica-Oblique findfont
dup length dict begin
  {1 index /FID ne {def} {pop pop} ifelse} forall
  /Encoding WinAnsiEncoding def
  currentdict
end
/Helvetica-Oblique exch definefont pop
/Helvetica-Bold findfont
dup length dict begin
  {1 index /FID ne {def} {pop pop} ifelse} forall
  /Encoding WinAnsiEncoding def
  currentdict
end
/Helvetica-Bold exch definefont pop
/Helvetica-BoldOblique findfont
dup length dict begin
  {1 index /FID ne {def} {pop pop} ifelse} forall
  /Encoding WinAnsiEncoding def
  currentdict
end
/Helvetica-BoldOblique exch definefont pop
/Times-Roman findfont
dup length dict begin
  {1 index /FID ne {def} {pop pop} ifelse} forall
  /Encoding WinAnsiEncoding def
  currentdict
end
/Times-Roman exch definefont pop
/Times-Italic findfont
dup length dict begin
  {1 index /FID ne {def} {pop pop} ifelse} forall
  /Encoding WinAnsiEncoding def
  currentdict
end
/Times-Italic exch definefont pop
/Times-Bold findfont
dup length dict begin
  {1 index /FID ne {def} {pop pop} ifelse} forall
  /Encoding WinAnsiEncoding def
  currentdict
end
/Times-Bold exch definefont pop
/Times-BoldItalic findfont
dup length dict begin
  {1 index /FID ne {def} {pop pop} ifelse} forall
  /Encoding WinAnsiEncoding def
  currentdict
end
/Times-BoldItalic exch definefont pop
/Courier findfont
dup length dict begin
  {1 index /FID ne {def} {pop pop} ifelse} forall
  /Encoding WinAnsiEncoding def
  currentdict
end
/Courier exch definefont pop
%FOPEndFontReencode
%%EndProlog
%%Page: 1 1
%%PageBoundingBox: 0 0 560 420
%%BeginPageSetup
[1 0 0 -1 0 420] CT
%%EndPageSetup
GS
1 GC
N
0 0 560 420 re
f
GR
GS
1 GC
N
0 0 560 420 re
f
GR
GS
1 GC
N
73 373 M
507 373 L
507 31 L
73 31 L
cp
f
GR
GS
0.873 GC
1 LJ
0.5 LW
N
73 373 M
73 31 L
S
GR
GS
0.873 GC
1 LJ
0.5 LW
N
145.333 373 M
145.333 31 L
S
GR
GS
0.873 GC
1 LJ
0.5 LW
N
217.667 373 M
217.667 31 L
S
GR
GS
0.873 GC
1 LJ
0.5 LW
N
290 373 M
290 31 L
S
GR
GS
0.873 GC
1 LJ
0.5 LW
N
362.333 373 M
362.333 31 L
S
GR
GS
0.873 GC
1 LJ
0.5 LW
N
434.667 373 M
434.667 31 L
S
GR
GS
0.873 GC
1 LJ
0.5 LW
N
507 373 M
507 31 L
S
GR
GS
0.873 GC
1 LJ
0.5 LW
N
507 373 M
73 373 L
S
GR
GS
0.873 GC
1 LJ
0.5 LW
N
507 304.6 M
73 304.6 L
S
GR
GS
0.873 GC
1 LJ
0.5 LW
N
507 236.2 M
73 236.2 L
S
GR
GS
0.873 GC
1 LJ
0.5 LW
N
507 167.8 M
73 167.8 L
S
GR
GS
0.873 GC
1 LJ
0.5 LW
N
507 99.4 M
73 99.4 L
S
GR
GS
0.873 GC
1 LJ
0.5 LW
N
507 31 M
73 31 L
S
GR
GS
0.149 GC
2 setlinecap
1 LJ
0.5 LW
N
73 373 M
507 373 L
S
GR
GS
0.149 GC
2 setlinecap
1 LJ
0.5 LW
N
73 373 M
73 368.66 L
S
GR
GS
0.149 GC
2 setlinecap
1 LJ
0.5 LW
N
145.333 373 M
145.333 368.66 L
S
GR
GS
0.149 GC
2 setlinecap
1 LJ
0.5 LW
N
217.667 373 M
217.667 368.66 L
S
GR
GS
0.149 GC
2 setlinecap
1 LJ
0.5 LW
N
290 373 M
290 368.66 L
S
GR
GS
0.149 GC
2 setlinecap
1 LJ
0.5 LW
N
362.333 373 M
362.333 368.66 L
S
GR
GS
0.149 GC
2 setlinecap
1 LJ
0.5 LW
N
434.667 373 M
434.667 368.66 L
S
GR
GS
0.149 GC
2 setlinecap
1 LJ
0.5 LW
N
507 373 M
507 368.66 L
S
GR
GS
[1 0 0 1 73 378.20013] CT
0.149 GC
/Helvetica 16 F
GS
[1 0 0 1 0 0] CT
-4.5 16 moveto 
1 -1 scale
(0) t 
GR
GR
GS
[1 0 0 1 145.33333 378.20013] CT
0.149 GC
/Helvetica 16 F
GS
[1 0 0 1 0 0] CT
-9 16 moveto 
1 -1 scale
(20) t 
GR
GR
GS
[1 0 0 1 217.66667 378.20013] CT
0.149 GC
/Helvetica 16 F
GS
[1 0 0 1 0 0] CT
-9 16 moveto 
1 -1 scale
(40) t 
GR
GR
GS
[1 0 0 1 290 378.20013] CT
0.149 GC
/Helvetica 16 F
GS
[1 0 0 1 0 0] CT
-9 16 moveto 
1 -1 scale
(60) t 
GR
GR
GS
[1 0 0 1 362.33334 378.20013] CT
0.149 GC
/Helvetica 16 F
GS
[1 0 0 1 0 0] CT
-9 16 moveto 
1 -1 scale
(80) t 
GR
GR
GS
[1 0 0 1 434.66666 378.20013] CT
0.149 GC
/Helvetica 16 F
GS
[1 0 0 1 0 0] CT
-13.5 16 moveto 
1 -1 scale
(100) t 
GR
GR
GS
[1 0 0 1 507 378.20013] CT
0.149 GC
/Helvetica 16 F
GS
[1 0 0 1 0 0] CT
-13.5 16 moveto 
1 -1 scale
(120) t 
GR
GR
GS
[1 0 0 1 290.00021 399.00003] CT
0.149 GC
/Helvetica 17.6 F
GS
[1 0 0 1 0 0] CT
-41 17 moveto 
1 -1 scale
(Tiempo \(s\)) t 
GR
GR
GS
0.149 GC
2 setlinecap
1 LJ
0.5 LW
N
73 373 M
73 31 L
S
GR
GS
0.149 GC
2 setlinecap
1 LJ
0.5 LW
N
73 373 M
77.34 373 L
S
GR
GS
0.149 GC
2 setlinecap
1 LJ
0.5 LW
N
73 304.6 M
77.34 304.6 L
S
GR
GS
0.149 GC
2 setlinecap
1 LJ
0.5 LW
N
73 236.2 M
77.34 236.2 L
S
GR
GS
0.149 GC
2 setlinecap
1 LJ
0.5 LW
N
73 167.8 M
77.34 167.8 L
S
GR
GS
0.149 GC
2 setlinecap
1 LJ
0.5 LW
N
73 99.4 M
77.34 99.4 L
S
GR
GS
0.149 GC
2 setlinecap
1 LJ
0.5 LW
N
73 31 M
77.34 31 L
S
GR
GS
[1 0 0 1 67.8 373] CT
0.149 GC
/Helvetica 16 F
GS
[1 0 0 1 0 0] CT
-36 6 moveto 
1 -1 scale
(3000) t 
GR
GR
GS
[1 0 0 1 67.8 304.60001] CT
0.149 GC
/Helvetica 16 F
GS
[1 0 0 1 0 0] CT
-36 6 moveto 
1 -1 scale
(3050) t 
GR
GR
GS
[1 0 0 1 67.8 236.2] CT
0.149 GC
/Helvetica 16 F
GS
[1 0 0 1 0 0] CT
-36 6 moveto 
1 -1 scale
(3100) t 
GR
GR
GS
[1 0 0 1 67.8 167.8] CT
0.149 GC
/Helvetica 16 F
GS
[1 0 0 1 0 0] CT
-36 6 moveto 
1 -1 scale
(3150) t 
GR
GR
GS
[1 0 0 1 67.8 99.4] CT
0.149 GC
/Helvetica 16 F
GS
[1 0 0 1 0 0] CT
-36 6 moveto 
1 -1 scale
(3200) t 
GR
GR
GS
[1 0 0 1 67.8 31] CT
0.149 GC
/Helvetica 16 F
GS
[1 0 0 1 0 0] CT
-36 6 moveto 
1 -1 scale
(3250) t 
GR
GR
GS
[0 -1 1 0 28.8 202] CT
0.149 GC
/Helvetica 17.6 F
GS
[1 0 0 1 0 0] CT
-57.5 -4 moveto 
1 -1 scale
(Potencia \(MW\)) t 
GR
GR
GS
0 0.447 0.741 RC
1 LJ
3 LW
N
73 373 M
73.565 343.619 L
73.566 343.57 L
74.316 308.013 L
74.317 307.968 L
75.067 277.787 L
75.068 277.745 L
75.818 252.253 L
75.819 252.214 L
76.568 230.643 L
76.569 230.607 L
77.318 212.207 L
77.32 212.173 L
78.07 196.281 L
78.071 196.249 L
78.82 182.361 L
78.822 182.33 L
79.57 169.971 L
79.572 169.941 L
80.32 158.751 L
80.322 158.722 L
81.072 148.406 L
81.074 148.377 L
81.822 138.748 L
81.824 138.719 L
82.573 129.582 L
82.576 129.553 L
83.324 120.796 L
83.327 120.767 L
84.074 112.314 L
84.076 112.285 L
84.825 104.023 L
84.828 103.995 L
85.575 95.919 L
85.578 95.89 L
86.325 87.945 L
86.327 87.917 L
87.077 80.047 L
87.08 80.019 L
87.471 75.974 L
87.828 92.81 L
87.829 92.858 L
88.579 124.59 L
88.58 124.631 L
89.33 149.195 L
89.331 149.23 L
90.079 168.128 L
90.081 168.158 L
90.83 182.692 L
90.832 182.717 L
91.581 193.867 L
91.583 193.89 L
92.331 202.443 L
92.333 202.461 L
93.082 209.058 L
93.084 209.074 L
93.833 214.195 L
93.835 214.209 L
94.584 218.223 L
94.586 218.235 L
95.334 221.433 L
95.337 221.444 L
96.085 224.044 L
96.088 224.054 L
96.835 226.216 L
96.838 226.225 L
97.586 228.079 L
97.59 228.087 L
98.335 229.717 L
98.339 229.725 L
99.088 231.211 L
99.092 231.219 L
99.836 232.591 L
99.84 232.598 L
100.589 233.912 L
100.593 233.919 L
101.337 235.18 L
101.341 235.187 L
102.089 236.429 L
102.093 236.435 L
102.838 237.658 L
102.842 237.665 L
103.592 238.887 L
103.596 238.894 L
104.341 240.106 L
104.345 240.113 L
105.093 241.33 L
105.097 241.336 L
105.844 242.552 L
105.848 242.559 L
106.594 243.775 L
106.598 243.782 L
107.345 245.001 L
107.349 245.008 L
108.096 246.228 L
108.1 246.235 L
108.847 247.455 L
108.851 247.462 L
109.596 248.676 L
109.6 248.683 L
110.346 249.898 L
110.35 249.904 L
111.098 251.119 L
111.102 251.126 L
111.849 252.334 L
111.853 252.34 L
112.598 253.541 L
112.602 253.548 L
113.35 254.747 L
113.354 254.753 L
114.101 255.944 L
114.105 255.951 L
114.851 257.133 L
114.856 257.14 L
115.601 258.313 L
115.606 258.32 L
116.351 259.485 L
116.355 259.491 L
117.1 260.647 L
117.105 260.654 L
117.854 261.806 L
117.858 261.813 L
118.603 262.95 L
118.608 262.956 L
119.353 264.083 L
119.357 264.09 L
120.107 265.214 L
120.111 265.22 L
120.856 266.327 L
120.86 266.333 L
121.606 267.431 L
121.61 267.438 L
122.357 268.525 L
122.361 268.532 L
123.107 269.609 L
123.112 269.616 L
123.858 270.684 L
123.863 270.69 L
124.61 271.747 L
124.614 271.754 L
125.361 272.801 L
125.366 272.807 L
126.109 273.838 L
126.113 273.844 L
126.861 274.872 L
126.866 274.878 L
127.61 275.89 L
127.614 275.896 L
128.363 276.903 L
128.367 276.909 L
129.112 277.901 L
129.116 277.907 L
129.865 278.895 L
129.87 278.901 L
130.614 279.872 L
130.619 279.879 L
131.363 280.84 L
131.368 280.846 L
132.118 281.805 L
132.123 281.811 L
132.867 282.753 L
132.872 282.759 L
133.617 283.693 L
133.622 283.699 L
134.367 284.622 L
134.372 284.628 L
135.121 285.547 L
135.126 285.553 L
135.871 286.458 L
135.876 286.464 L
136.62 287.359 L
136.625 287.365 L
137.37 288.251 L
137.375 288.257 L
138.12 289.134 L
138.125 289.14 L
138.874 290.013 L
138.879 290.019 L
139.622 290.877 L
139.627 290.883 L
140.371 291.732 L
140.376 291.738 L
141.124 292.584 L
141.129 292.59 L
141.872 293.421 L
141.877 293.427 L
142.625 294.255 L
142.63 294.261 L
143.377 295.081 L
143.383 295.087 L
144.124 295.891 L
144.129 295.897 L
144.875 296.699 L
144.88 296.705 L
145.625 297.497 L
145.63 297.503 L
146.376 298.288 L
146.381 298.294 L
147.131 299.076 L
147.137 299.082 L
147.881 299.85 L
147.886 299.856 L
148.629 300.615 L
148.635 300.621 L
149.382 301.377 L
149.388 301.383 L
150.13 302.126 L
150.135 302.132 L
150.882 302.872 L
150.888 302.878 L
151.634 303.61 L
151.64 303.616 L
152.386 304.341 L
152.391 304.346 L
153.131 305.058 L
153.137 305.064 L
153.886 305.777 L
153.892 305.783 L
154.636 306.484 L
154.641 306.489 L
155.383 307.181 L
155.389 307.187 L
156.137 307.878 L
156.143 307.883 L
156.889 308.566 L
156.895 308.572 L
157.635 309.241 L
157.641 309.247 L
158.387 309.915 L
158.393 309.921 L
159.137 310.58 L
159.143 310.586 L
159.892 311.244 L
159.898 311.249 L
160.64 311.894 L
160.646 311.9 L
161.388 312.537 L
161.394 312.543 L
162.141 313.179 L
162.148 313.185 L
162.893 313.813 L
162.9 313.819 L
163.645 314.441 L
163.651 314.446 L
164.395 315.06 L
164.401 315.065 L
165.144 315.673 L
165.151 315.678 L
165.893 316.278 L
165.899 316.283 L
166.648 316.883 L
166.654 316.888 L
167.395 317.476 L
167.402 317.481 L
168.148 318.067 L
168.155 318.072 L
168.899 318.649 L
168.906 318.654 L
169.651 319.227 L
169.657 319.232 L
170.4 319.797 L
170.407 319.802 L
171.148 320.361 L
171.155 320.366 L
171.897 320.918 L
171.904 320.923 L
172.649 321.473 L
172.656 321.479 L
173.403 322.023 L
173.41 322.029 L
174.148 322.562 L
174.156 322.567 L
174.9 323.099 L
174.908 323.104 L
175.654 323.632 L
175.661 323.637 L
176.405 324.158 L
176.412 324.163 L
177.155 324.678 L
177.162 324.683 L
177.905 325.192 L
177.912 325.197 L
178.659 325.704 L
178.667 325.709 L
179.408 326.207 L
179.416 326.212 L
180.157 326.704 L
180.164 326.709 L
180.91 327.2 L
180.918 327.205 L
181.657 327.685 L
181.665 327.69 L
182.412 328.172 L
182.42 328.177 L
183.157 328.646 L
183.165 328.651 L
183.909 329.12 L
183.917 329.125 L
184.664 329.592 L
184.672 329.597 L
185.408 330.051 L
185.416 330.056 L
186.163 330.512 L
186.171 330.517 L
186.91 330.964 L
186.919 330.969 L
187.664 331.415 L
187.673 331.42 L
188.411 331.857 L
188.42 331.863 L
189.164 332.298 L
189.173 332.304 L
189.918 332.736 L
189.926 332.741 L
190.663 333.163 L
190.673 333.168 L
191.417 333.591 L
191.426 333.596 L
192.165 334.011 L
192.174 334.016 L
192.916 334.428 L
192.926 334.434 L
193.67 334.843 L
193.679 334.848 L
194.417 335.249 L
194.427 335.254 L
195.168 335.653 L
195.178 335.659 L
195.923 336.055 L
195.933 336.061 L
196.672 336.45 L
196.682 336.455 L
197.422 336.841 L
197.433 336.847 L
198.174 337.229 L
198.185 337.234 L
198.923 337.611 L
198.934 337.617 L
199.674 337.99 L
199.686 337.996 L
200.425 338.366 L
200.438 338.372 L
201.168 338.733 L
201.18 338.739 L
201.923 339.102 L
201.936 339.108 L
202.669 339.463 L
202.684 339.47 L
203.429 339.827 L
203.444 339.834 L
204.177 340.181 L
204.193 340.189 L
204.93 340.534 L
204.945 340.541 L
205.674 340.879 L
205.688 340.885 L
206.425 341.224 L
206.439 341.23 L
207.178 341.565 L
207.191 341.571 L
207.934 341.904 L
207.945 341.91 L
208.676 342.234 L
208.688 342.239 L
209.435 342.568 L
209.447 342.573 L
210.181 342.892 L
210.192 342.897 L
210.93 343.214 L
210.941 343.219 L
211.68 343.533 L
211.691 343.538 L
212.437 343.852 L
212.448 343.856 L
213.185 344.163 L
213.196 344.168 L
213.931 344.471 L
213.942 344.475 L
214.686 344.778 L
214.697 344.783 L
215.44 345.082 L
215.45 345.086 L
216.186 345.379 L
216.197 345.384 L
216.935 345.675 L
216.945 345.679 L
217.684 345.967 L
217.695 345.972 L
218.44 346.26 L
218.451 346.264 L
219.195 346.547 L
219.205 346.551 L
219.939 346.829 L
219.95 346.833 L
220.689 347.109 L
220.699 347.113 L
221.443 347.388 L
221.452 347.391 L
222.189 347.661 L
222.199 347.664 L
222.943 347.933 L
222.953 347.937 L
223.698 348.204 L
223.708 348.207 L
224.447 348.469 L
224.457 348.472 L
225.197 348.731 L
225.207 348.735 L
225.943 348.99 L
225.953 348.993 L
226.7 349.249 L
226.71 349.252 L
227.45 349.504 L
227.46 349.507 L
228.195 349.753 L
228.205 349.756 L
228.948 350.003 L
228.958 350.006 L
229.705 350.251 L
229.715 350.254 L
230.45 350.493 L
230.46 350.496 L
231.201 350.734 L
231.21 350.737 L
231.957 350.974 L
231.967 350.977 L
232.706 351.209 L
232.716 351.212 L
233.449 351.44 L
233.459 351.443 L
234.201 351.671 L
234.211 351.674 L
234.954 351.9 L
234.964 351.903 L
235.709 352.126 L
235.718 352.129 L
236.46 352.349 L
236.47 352.352 L
237.21 352.57 L
237.22 352.573 L
237.954 352.786 L
237.963 352.789 L
238.706 353.003 L
238.715 353.005 L
239.456 353.216 L
239.465 353.219 L
240.205 353.427 L
240.215 353.43 L
240.96 353.637 L
240.969 353.64 L
241.709 353.843 L
241.719 353.846 L
242.465 354.049 L
242.475 354.051 L
243.209 354.249 L
243.218 354.252 L
243.961 354.449 L
243.971 354.452 L
244.714 354.648 L
244.724 354.651 L
245.467 354.844 L
245.477 354.847 L
246.211 355.036 L
246.221 355.038 L
246.969 355.229 L
246.978 355.231 L
247.712 355.416 L
247.722 355.418 L
248.465 355.604 L
248.475 355.606 L
249.218 355.789 L
249.227 355.791 L
249.972 355.973 L
249.982 355.975 L
250.717 356.153 L
250.727 356.155 L
251.475 356.333 L
251.484 356.336 L
252.222 356.51 L
252.231 356.512 L
252.974 356.685 L
252.983 356.687 L
253.722 356.858 L
253.732 356.86 L
254.477 357.03 L
254.487 357.032 L
255.22 357.197 L
255.23 357.2 L
255.972 357.365 L
255.982 357.367 L
256.724 357.531 L
256.734 357.533 L
257.474 357.694 L
257.485 357.697 L
258.228 357.857 L
258.237 357.859 L
258.979 358.017 L
258.99 358.019 L
259.725 358.175 L
259.735 358.177 L
260.477 358.332 L
260.487 358.334 L
261.227 358.486 L
261.237 358.488 L
261.975 358.639 L
261.985 358.641 L
262.732 358.792 L
262.741 358.794 L
263.481 358.941 L
263.491 358.943 L
264.228 359.089 L
264.238 359.091 L
264.984 359.236 L
264.994 359.238 L
265.731 359.38 L
265.741 359.382 L
266.488 359.525 L
266.498 359.527 L
267.234 359.666 L
267.245 359.667 L
267.98 359.805 L
267.99 359.807 L
268.733 359.944 L
268.743 359.946 L
269.486 360.081 L
269.497 360.083 L
270.236 360.216 L
270.246 360.218 L
270.989 360.351 L
270.999 360.352 L
271.74 360.483 L
271.751 360.485 L
272.486 360.613 L
272.496 360.615 L
273.242 360.743 L
273.252 360.745 L
273.993 360.872 L
274.003 360.873 L
274.738 360.997 L
274.748 360.999 L
275.487 361.122 L
275.497 361.124 L
276.237 361.246 L
276.247 361.247 L
276.992 361.369 L
277.002 361.37 L
277.738 361.489 L
277.749 361.491 L
278.498 361.61 L
278.508 361.612 L
279.241 361.727 L
279.251 361.729 L
279.995 361.845 L
280.006 361.847 L
280.747 361.96 L
280.757 361.962 L
281.499 362.075 L
281.51 362.077 L
282.244 362.187 L
282.254 362.189 L
283.002 362.3 L
283.012 362.302 L
283.748 362.41 L
283.759 362.412 L
284.494 362.519 L
284.504 362.52 L
285.245 362.627 L
285.256 362.628 L
285.996 362.734 L
286.007 362.735 L
286.755 362.841 L
286.765 362.842 L
287.5 362.944 L
287.511 362.946 L
288.257 363.048 L
288.268 363.05 L
289.006 363.15 L
289.016 363.151 L
289.758 363.251 L
289.769 363.253 L
290.499 363.35 L
290.51 363.351 L
291.251 363.448 L
291.262 363.45 L
292.007 363.547 L
292.017 363.548 L
292.76 363.643 L
292.77 363.645 L
293.505 363.738 L
293.517 363.739 L
294.26 363.833 L
294.272 363.834 L
295.013 363.926 L
295.024 363.928 L
295.757 364.017 L
295.768 364.019 L
296.509 364.109 L
296.519 364.11 L
297.264 364.199 L
297.275 364.201 L
298.01 364.288 L
298.021 364.289 L
298.766 364.376 L
298.777 364.378 L
299.513 364.463 L
299.524 364.464 L
300.258 364.548 L
300.269 364.55 L
301.01 364.633 L
301.021 364.635 L
301.759 364.717 L
301.769 364.719 L
302.512 364.801 L
302.524 364.802 L
303.267 364.883 L
303.279 364.885 L
304.017 364.964 L
304.029 364.965 L
304.765 365.044 L
304.776 365.046 L
305.517 365.124 L
305.528 365.125 L
306.268 365.202 L
306.278 365.203 L
307.022 365.28 L
307.033 365.281 L
307.774 365.357 L
307.785 365.358 L
308.52 365.432 L
308.531 365.433 L
309.269 365.507 L
309.28 365.508 L
310.024 365.581 L
310.036 365.583 L
310.775 365.654 L
310.786 365.656 L
311.527 365.727 L
311.539 365.728 L
312.277 365.798 L
312.288 365.799 L
313.024 365.868 L
313.035 365.87 L
313.77 365.938 L
313.781 365.939 L
314.52 366.007 L
314.532 366.008 L
315.275 366.076 L
315.286 366.077 L
316.029 366.143 L
316.04 366.144 L
316.776 366.21 L
316.789 366.211 L
317.529 366.276 L
317.541 366.277 L
318.281 366.341 L
318.293 366.342 L
319.034 366.406 L
319.046 366.407 L
319.781 366.469 L
319.792 366.47 L
320.536 366.532 L
320.546 366.533 L
321.279 366.594 L
321.291 366.595 L
322.037 366.656 L
322.048 366.657 L
322.781 366.716 L
322.793 366.717 L
323.529 366.776 L
323.541 366.777 L
324.279 366.835 L
324.291 366.836 L
325.035 366.894 L
325.047 366.895 L
325.787 366.953 L
325.799 366.953 L
326.531 367.009 L
326.543 367.01 L
327.286 367.066 L
327.298 367.067 L
328.037 367.122 L
328.05 367.123 L
328.783 367.177 L
328.796 367.178 L
329.534 367.232 L
329.546 367.233 L
330.292 367.286 L
330.304 367.287 L
331.037 367.339 L
331.049 367.34 L
331.785 367.392 L
331.797 367.393 L
332.542 367.445 L
332.555 367.445 L
333.288 367.496 L
333.301 367.497 L
334.042 367.547 L
334.054 367.548 L
334.789 367.597 L
334.801 367.597 L
335.544 367.647 L
335.556 367.648 L
336.299 367.696 L
336.311 367.697 L
337.047 367.745 L
337.058 367.745 L
337.797 367.793 L
337.809 367.794 L
338.55 367.84 L
338.562 367.841 L
339.292 367.887 L
339.305 367.887 L
340.044 367.933 L
340.056 367.934 L
340.795 367.979 L
340.807 367.98 L
341.549 368.024 L
341.562 368.025 L
342.294 368.069 L
342.307 368.069 L
343.045 368.113 L
343.058 368.113 L
343.799 368.157 L
343.811 368.157 L
344.552 368.2 L
344.564 368.201 L
345.3 368.242 L
345.312 368.243 L
346.055 368.285 L
346.069 368.285 L
346.802 368.326 L
346.814 368.327 L
347.559 368.368 L
347.572 368.368 L
348.304 368.408 L
348.317 368.409 L
349.052 368.448 L
349.064 368.448 L
349.801 368.488 L
349.814 368.488 L
350.557 368.527 L
350.57 368.528 L
351.309 368.566 L
351.321 368.566 L
352.063 368.604 L
352.076 368.605 L
352.813 368.642 L
352.825 368.643 L
353.558 368.679 L
353.571 368.68 L
354.305 368.716 L
354.318 368.716 L
355.063 368.752 L
355.075 368.753 L
355.813 368.788 L
355.826 368.789 L
356.558 368.824 L
356.571 368.825 L
357.316 368.859 L
357.329 368.86 L
358.068 368.894 L
358.081 368.895 L
358.82 368.928 L
358.834 368.929 L
359.569 368.962 L
359.583 368.963 L
360.311 368.996 L
360.325 368.996 L
361.06 369.029 L
361.076 369.029 L
361.822 369.062 L
361.836 369.062 L
362.565 369.094 L
362.58 369.094 L
363.311 369.125 L
363.325 369.126 L
364.063 369.157 L
364.076 369.158 L
364.821 369.188 L
364.836 369.189 L
365.569 369.219 L
365.585 369.22 L
366.322 369.249 L
366.334 369.25 L
367.068 369.279 L
367.082 369.28 L
367.826 369.309 L
367.841 369.31 L
368.573 369.339 L
368.586 369.339 L
369.327 369.368 L
369.34 369.368 L
370.067 369.396 L
370.081 369.396 L
370.827 369.424 L
370.841 369.425 L
371.576 369.452 L
371.59 369.453 L
372.328 369.48 L
372.341 369.48 L
373.083 369.507 L
373.097 369.508 L
373.833 369.534 L
373.848 369.535 L
374.578 369.56 L
374.593 369.561 L
375.326 369.586 L
375.342 369.587 L
376.077 369.612 L
376.091 369.613 L
376.831 369.638 L
376.844 369.638 L
377.585 369.663 L
377.598 369.664 L
378.337 369.689 L
378.351 369.689 L
379.083 369.713 L
379.096 369.714 L
379.829 369.737 L
379.844 369.738 L
380.577 369.761 L
380.59 369.762 L
381.329 369.785 L
381.343 369.785 L
382.085 369.808 L
382.099 369.809 L
382.838 369.832 L
382.853 369.832 L
383.585 369.855 L
383.598 369.855 L
384.334 369.877 L
384.349 369.878 L
385.085 369.9 L
385.1 369.9 L
385.842 369.922 L
385.857 369.922 L
386.586 369.943 L
386.6 369.944 L
387.344 369.965 L
387.36 369.965 L
388.089 369.986 L
388.104 369.986 L
388.845 370.007 L
388.858 370.008 L
389.59 370.028 L
389.603 370.028 L
390.344 370.048 L
390.359 370.049 L
391.093 370.068 L
391.108 370.069 L
391.847 370.088 L
391.862 370.089 L
392.598 370.108 L
392.613 370.108 L
393.349 370.128 L
393.367 370.128 L
394.092 370.146 L
394.106 370.147 L
394.847 370.166 L
394.861 370.166 L
395.598 370.185 L
395.612 370.185 L
396.343 370.203 L
396.358 370.203 L
397.091 370.221 L
397.106 370.221 L
397.851 370.239 L
397.865 370.24 L
398.597 370.257 L
398.61 370.257 L
399.35 370.274 L
399.367 370.275 L
400.102 370.292 L
400.116 370.292 L
400.857 370.309 L
400.871 370.309 L
401.607 370.326 L
401.62 370.326 L
402.356 370.342 L
402.37 370.343 L
403.109 370.359 L
403.123 370.36 L
403.849 370.375 L
403.864 370.376 L
404.603 370.391 L
404.619 370.392 L
405.361 370.407 L
405.375 370.408 L
406.11 370.423 L
406.123 370.423 L
406.852 370.438 L
406.869 370.438 L
407.6 370.453 L
407.615 370.454 L
408.364 370.469 L
408.378 370.469 L
409.101 370.483 L
409.119 370.483 L
409.856 370.498 L
409.873 370.498 L
410.609 370.512 L
410.626 370.513 L
411.356 370.527 L
411.371 370.527 L
412.115 370.541 L
412.134 370.541 L
412.866 370.555 L
412.885 370.555 L
413.617 370.569 L
413.631 370.569 L
414.368 370.582 L
414.384 370.583 L
415.109 370.595 L
415.123 370.596 L
415.864 370.609 L
415.879 370.609 L
416.612 370.622 L
416.628 370.622 L
417.357 370.634 L
417.374 370.635 L
418.109 370.647 L
418.125 370.647 L
418.873 370.66 L
418.89 370.66 L
419.618 370.672 L
419.632 370.672 L
420.371 370.684 L
420.384 370.685 L
421.115 370.697 L
421.132 370.697 L
421.87 370.709 L
421.885 370.709 L
422.625 370.72 L
422.642 370.721 L
423.376 370.732 L
423.39 370.732 L
424.124 370.743 L
424.14 370.744 L
424.87 370.754 L
424.886 370.755 L
425.625 370.766 L
425.641 370.766 L
426.375 370.777 L
426.39 370.777 L
427.127 370.787 L
427.141 370.788 L
427.878 370.798 L
427.894 370.798 L
428.617 370.808 L
428.634 370.809 L
429.38 370.819 L
429.395 370.819 L
430.121 370.829 L
430.138 370.829 L
430.884 370.839 L
430.899 370.84 L
431.629 370.849 L
431.646 370.85 L
432.383 370.859 L
432.4 370.859 L
433.129 370.869 L
433.147 370.869 L
433.886 370.879 L
433.899 370.879 L
434.637 370.888 L
434.651 370.888 L
435.374 370.897 L
435.393 370.898 L
436.135 370.907 L
436.151 370.907 L
436.882 370.916 L
436.902 370.916 L
437.627 370.925 L
437.642 370.925 L
438.385 370.934 L
438.402 370.934 L
439.129 370.942 L
439.149 370.942 L
439.889 370.951 L
439.906 370.951 L
440.63 370.959 L
440.645 370.959 L
441.384 370.968 L
441.406 370.968 L
442.14 370.976 L
442.156 370.976 L
442.892 370.984 L
442.91 370.984 L
443.645 370.992 L
443.659 370.992 L
444.396 371 L
444.415 371 L
445.135 371.008 L
445.154 371.008 L
445.889 371.015 L
445.905 371.016 L
446.647 371.023 L
446.665 371.023 L
447.393 371.03 L
447.411 371.031 L
448.141 371.038 L
448.156 371.038 L
448.886 371.045 L
448.902 371.046 L
449.635 371.053 L
449.652 371.053 L
450.388 371.06 L
450.403 371.06 L
451.141 371.067 L
451.155 371.067 L
451.9 371.074 L
451.916 371.074 L
452.643 371.08 L
452.66 371.08 L
453.394 371.087 L
453.409 371.087 L
454.14 371.093 L
454.158 371.094 L
454.892 371.1 L
454.908 371.1 L
455.651 371.106 L
455.669 371.107 L
456.407 371.113 L
456.43 371.113 L
457.154 371.119 L
457.168 371.119 L
457.902 371.125 L
457.92 371.125 L
458.658 371.131 L
458.673 371.131 L
459.397 371.137 L
459.414 371.137 L
460.15 371.143 L
460.167 371.143 L
460.909 371.149 L
460.929 371.149 L
461.657 371.154 L
461.672 371.155 L
462.402 371.16 L
462.417 371.16 L
463.159 371.166 L
463.173 371.166 L
463.903 371.171 L
463.92 371.171 L
464.646 371.176 L
464.669 371.176 L
465.409 371.182 L
465.425 371.182 L
466.155 371.187 L
466.17 371.187 L
466.901 371.192 L
466.919 371.192 L
467.657 371.197 L
467.673 371.197 L
468.409 371.202 L
468.425 371.202 L
469.163 371.207 L
469.18 371.207 L
469.9 371.212 L
469.92 371.212 L
470.662 371.217 L
470.681 371.217 L
471.42 371.222 L
471.438 371.222 L
472.161 371.226 L
472.177 371.226 L
472.91 371.231 L
472.925 371.231 L
473.669 371.235 L
473.688 371.235 L
474.418 371.24 L
474.434 371.24 L
475.172 371.244 L
475.186 371.244 L
475.91 371.248 L
475.926 371.248 L
476.672 371.253 L
476.694 371.253 L
477.421 371.257 L
477.443 371.257 L
478.168 371.261 L
478.185 371.261 L
478.921 371.265 L
478.937 371.265 L
479.67 371.269 L
479.688 371.269 L
480.424 371.273 L
480.444 371.273 L
481.173 371.277 L
481.19 371.277 L
481.914 371.28 L
481.935 371.281 L
482.671 371.284 L
482.7 371.284 L
483.419 371.288 L
483.44 371.288 L
484.175 371.291 L
484.191 371.292 L
484.916 371.295 L
484.934 371.295 L
485.68 371.299 L
485.699 371.299 L
486.419 371.302 L
486.435 371.302 L
487.184 371.305 L
487.202 371.306 L
487.919 371.309 L
487.946 371.309 L
488.682 371.312 L
488.707 371.312 L
489.425 371.315 L
489.442 371.315 L
490.168 371.318 L
490.189 371.318 L
490.928 371.322 L
490.948 371.322 L
491.689 371.325 L
491.707 371.325 L
492.44 371.328 L
492.464 371.328 L
493.188 371.331 L
493.206 371.331 L
493.941 371.334 L
493.955 371.334 L
494.684 371.337 L
494.704 371.337 L
495.425 371.339 L
495.449 371.339 L
496.185 371.342 L
496.204 371.342 L
496.941 371.345 L
496.961 371.345 L
497.69 371.348 L
497.709 371.348 L
498.443 371.35 L
498.46 371.35 L
499.192 371.353 L
499.207 371.353 L
499.939 371.355 L
499.957 371.355 L
500.692 371.358 L
500.714 371.358 L
501.439 371.36 L
501.454 371.36 L
502.192 371.363 L
502.211 371.363 L
502.944 371.365 L
502.959 371.365 L
503.698 371.368 L
503.718 371.368 L
504.437 371.37 L
504.451 371.37 L
505.201 371.372 L
505.217 371.372 L
505.937 371.375 L
505.964 371.375 L
506.692 371.377 L
506.707 371.377 L
507 371.378 L
S
GR
%%Trailer
%%Pages: 1
%%EOF
