%!PS-Adobe-3.0 EPSF-3.0
%%Creator: (MATLAB, The Mathworks, Inc. Version 9.3.0.713579 \(R2017b\). Operating System: Mac OS X)
%%Title: ./temperatures2.eps
%%CreationDate: 2018-04-26T20:41:09
%%Pages: (atend)
%%BoundingBox:    20     0   520   395
%%LanguageLevel: 3
%%EndComments
%%BeginProlog
%%BeginResource: procset (Apache XML Graphics Std ProcSet) 1.2 0
%%Version: 1.2 0
%%Copyright: (Copyright 2001-2003,2010 The Apache Software Foundation. License terms: http://www.apache.org/licenses/LICENSE-2.0)
/bd{bind def}bind def
/ld{load def}bd
/GR/grestore ld
/GS/gsave ld
/RM/rmoveto ld
/C/curveto ld
/t/show ld
/L/lineto ld
/ML/setmiterlimit ld
/CT/concat ld
/f/fill ld
/N/newpath ld
/S/stroke ld
/CC/setcmykcolor ld
/A/ashow ld
/cp/closepath ld
/RC/setrgbcolor ld
/LJ/setlinejoin ld
/GC/setgray ld
/LW/setlinewidth ld
/M/moveto ld
/re {4 2 roll M
1 index 0 rlineto
0 exch rlineto
neg 0 rlineto
cp } bd
/_ctm matrix def
/_tm matrix def
/BT { _ctm currentmatrix pop matrix _tm copy pop 0 0 moveto } bd
/ET { _ctm setmatrix } bd
/iTm { _ctm setmatrix _tm concat } bd
/Tm { _tm astore pop iTm 0 0 moveto } bd
/ux 0.0 def
/uy 0.0 def
/F {
  /Tp exch def
  /Tf exch def
  Tf findfont Tp scalefont setfont
  /cf Tf def  /cs Tp def
} bd
/ULS {currentpoint /uy exch def /ux exch def} bd
/ULE {
  /Tcx currentpoint pop def
  gsave
  newpath
  cf findfont cs scalefont dup
  /FontMatrix get 0 get /Ts exch def /FontInfo get dup
  /UnderlinePosition get Ts mul /To exch def
  /UnderlineThickness get Ts mul /Tt exch def
  ux uy To add moveto  Tcx uy To add lineto
  Tt setlinewidth stroke
  grestore
} bd
/OLE {
  /Tcx currentpoint pop def
  gsave
  newpath
  cf findfont cs scalefont dup
  /FontMatrix get 0 get /Ts exch def /FontInfo get dup
  /UnderlinePosition get Ts mul /To exch def
  /UnderlineThickness get Ts mul /Tt exch def
  ux uy To add cs add moveto Tcx uy To add cs add lineto
  Tt setlinewidth stroke
  grestore
} bd
/SOE {
  /Tcx currentpoint pop def
  gsave
  newpath
  cf findfont cs scalefont dup
  /FontMatrix get 0 get /Ts exch def /FontInfo get dup
  /UnderlinePosition get Ts mul /To exch def
  /UnderlineThickness get Ts mul /Tt exch def
  ux uy To add cs 10 mul 26 idiv add moveto Tcx uy To add cs 10 mul 26 idiv add lineto
  Tt setlinewidth stroke
  grestore
} bd
/QT {
/Y22 exch store
/X22 exch store
/Y21 exch store
/X21 exch store
currentpoint
/Y21 load 2 mul add 3 div exch
/X21 load 2 mul add 3 div exch
/X21 load 2 mul /X22 load add 3 div
/Y21 load 2 mul /Y22 load add 3 div
/X22 load /Y22 load curveto
} bd
/SSPD {
dup length /d exch dict def
{
/v exch def
/k exch def
currentpagedevice k known {
/cpdv currentpagedevice k get def
v cpdv ne {
/upd false def
/nullv v type /nulltype eq def
/nullcpdv cpdv type /nulltype eq def
nullv nullcpdv or
{
/upd true def
} {
/sametype v type cpdv type eq def
sametype {
v type /arraytype eq {
/vlen v length def
/cpdvlen cpdv length def
vlen cpdvlen eq {
0 1 vlen 1 sub {
/i exch def
/obj v i get def
/cpdobj cpdv i get def
obj cpdobj ne {
/upd true def
exit
} if
} for
} {
/upd true def
} ifelse
} {
v type /dicttype eq {
v {
/dv exch def
/dk exch def
/cpddv cpdv dk get def
dv cpddv ne {
/upd true def
exit
} if
} forall
} {
/upd true def
} ifelse
} ifelse
} if
} ifelse
upd true eq {
d k v put
} if
} if
} if
} forall
d length 0 gt {
d setpagedevice
} if
} bd
/RE { % /NewFontName [NewEncodingArray] /FontName RE -
  findfont dup length dict begin
  {
    1 index /FID ne
    {def} {pop pop} ifelse
  } forall
  /Encoding exch def
  /FontName 1 index def
  currentdict definefont pop
  end
} bind def
%%EndResource
%%BeginResource: procset (Apache XML Graphics EPS ProcSet) 1.0 0
%%Version: 1.0 0
%%Copyright: (Copyright 2002-2003 The Apache Software Foundation. License terms: http://www.apache.org/licenses/LICENSE-2.0)
/BeginEPSF { %def
/b4_Inc_state save def         % Save state for cleanup
/dict_count countdictstack def % Count objects on dict stack
/op_count count 1 sub def      % Count objects on operand stack
userdict begin                 % Push userdict on dict stack
/showpage { } def              % Redefine showpage, { } = null proc
0 setgray 0 setlinecap         % Prepare graphics state
1 setlinewidth 0 setlinejoin
10 setmiterlimit [ ] 0 setdash newpath
/languagelevel where           % If level not equal to 1 then
{pop languagelevel             % set strokeadjust and
1 ne                           % overprint to their defaults.
{false setstrokeadjust false setoverprint
} if
} if
} bd
/EndEPSF { %def
count op_count sub {pop} repeat            % Clean up stacks
countdictstack dict_count sub {end} repeat
b4_Inc_state restore
} bd
%%EndResource
%FOPBeginFontDict
%%IncludeResource: font Courier-Oblique
%%IncludeResource: font Courier-BoldOblique
%%IncludeResource: font Courier-Bold
%%IncludeResource: font ZapfDingbats
%%IncludeResource: font Symbol
%%IncludeResource: font Helvetica
%%IncludeResource: font Helvetica-Oblique
%%IncludeResource: font Helvetica-Bold
%%IncludeResource: font Helvetica-BoldOblique
%%IncludeResource: font Times-Roman
%%IncludeResource: font Times-Italic
%%IncludeResource: font Times-Bold
%%IncludeResource: font Times-BoldItalic
%%IncludeResource: font Courier
%FOPEndFontDict
%%BeginResource: encoding WinAnsiEncoding
/WinAnsiEncoding [
/.notdef /.notdef /.notdef /.notdef /.notdef
/.notdef /.notdef /.notdef /.notdef /.notdef
/.notdef /.notdef /.notdef /.notdef /.notdef
/.notdef /.notdef /.notdef /.notdef /.notdef
/.notdef /.notdef /.notdef /.notdef /.notdef
/.notdef /.notdef /.notdef /.notdef /.notdef
/.notdef /.notdef /space /exclam /quotedbl
/numbersign /dollar /percent /ampersand /quotesingle
/parenleft /parenright /asterisk /plus /comma
/hyphen /period /slash /zero /one
/two /three /four /five /six
/seven /eight /nine /colon /semicolon
/less /equal /greater /question /at
/A /B /C /D /E
/F /G /H /I /J
/K /L /M /N /O
/P /Q /R /S /T
/U /V /W /X /Y
/Z /bracketleft /backslash /bracketright /asciicircum
/underscore /quoteleft /a /b /c
/d /e /f /g /h
/i /j /k /l /m
/n /o /p /q /r
/s /t /u /v /w
/x /y /z /braceleft /bar
/braceright /asciitilde /bullet /Euro /bullet
/quotesinglbase /florin /quotedblbase /ellipsis /dagger
/daggerdbl /circumflex /perthousand /Scaron /guilsinglleft
/OE /bullet /Zcaron /bullet /bullet
/quoteleft /quoteright /quotedblleft /quotedblright /bullet
/endash /emdash /asciitilde /trademark /scaron
/guilsinglright /oe /bullet /zcaron /Ydieresis
/space /exclamdown /cent /sterling /currency
/yen /brokenbar /section /dieresis /copyright
/ordfeminine /guillemotleft /logicalnot /sfthyphen /registered
/macron /degree /plusminus /twosuperior /threesuperior
/acute /mu /paragraph /middot /cedilla
/onesuperior /ordmasculine /guillemotright /onequarter /onehalf
/threequarters /questiondown /Agrave /Aacute /Acircumflex
/Atilde /Adieresis /Aring /AE /Ccedilla
/Egrave /Eacute /Ecircumflex /Edieresis /Igrave
/Iacute /Icircumflex /Idieresis /Eth /Ntilde
/Ograve /Oacute /Ocircumflex /Otilde /Odieresis
/multiply /Oslash /Ugrave /Uacute /Ucircumflex
/Udieresis /Yacute /Thorn /germandbls /agrave
/aacute /acircumflex /atilde /adieresis /aring
/ae /ccedilla /egrave /eacute /ecircumflex
/edieresis /igrave /iacute /icircumflex /idieresis
/eth /ntilde /ograve /oacute /ocircumflex
/otilde /odieresis /divide /oslash /ugrave
/uacute /ucircumflex /udieresis /yacute /thorn
/ydieresis
] def
%%EndResource
%FOPBeginFontReencode
/Courier-Oblique findfont
dup length dict begin
  {1 index /FID ne {def} {pop pop} ifelse} forall
  /Encoding WinAnsiEncoding def
  currentdict
end
/Courier-Oblique exch definefont pop
/Courier-BoldOblique findfont
dup length dict begin
  {1 index /FID ne {def} {pop pop} ifelse} forall
  /Encoding WinAnsiEncoding def
  currentdict
end
/Courier-BoldOblique exch definefont pop
/Courier-Bold findfont
dup length dict begin
  {1 index /FID ne {def} {pop pop} ifelse} forall
  /Encoding WinAnsiEncoding def
  currentdict
end
/Courier-Bold exch definefont pop
/Helvetica findfont
dup length dict begin
  {1 index /FID ne {def} {pop pop} ifelse} forall
  /Encoding WinAnsiEncoding def
  currentdict
end
/Helvetica exch definefont pop
/Helvetica-Oblique findfont
dup length dict begin
  {1 index /FID ne {def} {pop pop} ifelse} forall
  /Encoding WinAnsiEncoding def
  currentdict
end
/Helvetica-Oblique exch definefont pop
/Helvetica-Bold findfont
dup length dict begin
  {1 index /FID ne {def} {pop pop} ifelse} forall
  /Encoding WinAnsiEncoding def
  currentdict
end
/Helvetica-Bold exch definefont pop
/Helvetica-BoldOblique findfont
dup length dict begin
  {1 index /FID ne {def} {pop pop} ifelse} forall
  /Encoding WinAnsiEncoding def
  currentdict
end
/Helvetica-BoldOblique exch definefont pop
/Times-Roman findfont
dup length dict begin
  {1 index /FID ne {def} {pop pop} ifelse} forall
  /Encoding WinAnsiEncoding def
  currentdict
end
/Times-Roman exch definefont pop
/Times-Italic findfont
dup length dict begin
  {1 index /FID ne {def} {pop pop} ifelse} forall
  /Encoding WinAnsiEncoding def
  currentdict
end
/Times-Italic exch definefont pop
/Times-Bold findfont
dup length dict begin
  {1 index /FID ne {def} {pop pop} ifelse} forall
  /Encoding WinAnsiEncoding def
  currentdict
end
/Times-Bold exch definefont pop
/Times-BoldItalic findfont
dup length dict begin
  {1 index /FID ne {def} {pop pop} ifelse} forall
  /Encoding WinAnsiEncoding def
  currentdict
end
/Times-BoldItalic exch definefont pop
/Courier findfont
dup length dict begin
  {1 index /FID ne {def} {pop pop} ifelse} forall
  /Encoding WinAnsiEncoding def
  currentdict
end
/Courier exch definefont pop
%FOPEndFontReencode
%%EndProlog
%%Page: 1 1
%%PageBoundingBox: 0 0 560 420
%%BeginPageSetup
[1 0 0 -1 0 420] CT
%%EndPageSetup
GS
1 GC
N
0 0 560 420 re
f
GR
GS
1 GC
N
0 0 560 420 re
f
GR
GS
1 GC
N
73 373 M
507 373 L
507 31 L
73 31 L
cp
f
GR
GS
0.873 GC
1 LJ
0.5 LW
N
73 373 M
73 31 L
S
GR
GS
0.873 GC
1 LJ
0.5 LW
N
145.333 373 M
145.333 31 L
S
GR
GS
0.873 GC
1 LJ
0.5 LW
N
217.667 373 M
217.667 31 L
S
GR
GS
0.873 GC
1 LJ
0.5 LW
N
290 373 M
290 31 L
S
GR
GS
0.873 GC
1 LJ
0.5 LW
N
362.333 373 M
362.333 31 L
S
GR
GS
0.873 GC
1 LJ
0.5 LW
N
434.667 373 M
434.667 31 L
S
GR
GS
0.873 GC
1 LJ
0.5 LW
N
507 373 M
507 31 L
S
GR
GS
0.873 GC
1 LJ
0.5 LW
N
507 373 M
73 373 L
S
GR
GS
0.873 GC
1 LJ
0.5 LW
N
507 316 M
73 316 L
S
GR
GS
0.873 GC
1 LJ
0.5 LW
N
507 259 M
73 259 L
S
GR
GS
0.873 GC
1 LJ
0.5 LW
N
507 202 M
73 202 L
S
GR
GS
0.873 GC
1 LJ
0.5 LW
N
507 145 M
73 145 L
S
GR
GS
0.873 GC
1 LJ
0.5 LW
N
507 88 M
73 88 L
S
GR
GS
0.873 GC
1 LJ
0.5 LW
N
507 31 M
73 31 L
S
GR
GS
0.149 GC
2 setlinecap
1 LJ
0.5 LW
N
73 373 M
507 373 L
S
GR
GS
0.149 GC
2 setlinecap
1 LJ
0.5 LW
N
73 373 M
73 368.66 L
S
GR
GS
0.149 GC
2 setlinecap
1 LJ
0.5 LW
N
145.333 373 M
145.333 368.66 L
S
GR
GS
0.149 GC
2 setlinecap
1 LJ
0.5 LW
N
217.667 373 M
217.667 368.66 L
S
GR
GS
0.149 GC
2 setlinecap
1 LJ
0.5 LW
N
290 373 M
290 368.66 L
S
GR
GS
0.149 GC
2 setlinecap
1 LJ
0.5 LW
N
362.333 373 M
362.333 368.66 L
S
GR
GS
0.149 GC
2 setlinecap
1 LJ
0.5 LW
N
434.667 373 M
434.667 368.66 L
S
GR
GS
0.149 GC
2 setlinecap
1 LJ
0.5 LW
N
507 373 M
507 368.66 L
S
GR
GS
[1 0 0 1 73 378.20007] CT
0.149 GC
/Helvetica 16 F
GS
[1 0 0 1 0 0] CT
-4.5 16 moveto 
1 -1 scale
(0) t 
GR
GR
GS
[1 0 0 1 145.33333 378.20007] CT
0.149 GC
/Helvetica 16 F
GS
[1 0 0 1 0 0] CT
-9 16 moveto 
1 -1 scale
(20) t 
GR
GR
GS
[1 0 0 1 217.66667 378.20007] CT
0.149 GC
/Helvetica 16 F
GS
[1 0 0 1 0 0] CT
-9 16 moveto 
1 -1 scale
(40) t 
GR
GR
GS
[1 0 0 1 290 378.20007] CT
0.149 GC
/Helvetica 16 F
GS
[1 0 0 1 0 0] CT
-9 16 moveto 
1 -1 scale
(60) t 
GR
GR
GS
[1 0 0 1 362.33334 378.20007] CT
0.149 GC
/Helvetica 16 F
GS
[1 0 0 1 0 0] CT
-9 16 moveto 
1 -1 scale
(80) t 
GR
GR
GS
[1 0 0 1 434.66666 378.20007] CT
0.149 GC
/Helvetica 16 F
GS
[1 0 0 1 0 0] CT
-13.5 16 moveto 
1 -1 scale
(100) t 
GR
GR
GS
[1 0 0 1 507 378.20007] CT
0.149 GC
/Helvetica 16 F
GS
[1 0 0 1 0 0] CT
-13.5 16 moveto 
1 -1 scale
(120) t 
GR
GR
GS
[1 0 0 1 290.00021 399] CT
0.149 GC
/Helvetica 17.6 F
GS
[1 0 0 1 0 0] CT
-41 17 moveto 
1 -1 scale
(Tiempo \(s\)) t 
GR
GR
GS
0.149 GC
2 setlinecap
1 LJ
0.5 LW
N
73 373 M
73 31 L
S
GR
GS
0.149 GC
2 setlinecap
1 LJ
0.5 LW
N
73 373 M
77.34 373 L
S
GR
GS
0.149 GC
2 setlinecap
1 LJ
0.5 LW
N
73 316 M
77.34 316 L
S
GR
GS
0.149 GC
2 setlinecap
1 LJ
0.5 LW
N
73 259 M
77.34 259 L
S
GR
GS
0.149 GC
2 setlinecap
1 LJ
0.5 LW
N
73 202 M
77.34 202 L
S
GR
GS
0.149 GC
2 setlinecap
1 LJ
0.5 LW
N
73 145 M
77.34 145 L
S
GR
GS
0.149 GC
2 setlinecap
1 LJ
0.5 LW
N
73 88 M
77.34 88 L
S
GR
GS
0.149 GC
2 setlinecap
1 LJ
0.5 LW
N
73 31 M
77.34 31 L
S
GR
GS
[1 0 0 1 67.8 373] CT
0.149 GC
/Helvetica 16 F
GS
[1 0 0 1 0 0] CT
-27 6 moveto 
1 -1 scale
(540) t 
GR
GR
GS
[1 0 0 1 67.8 316] CT
0.149 GC
/Helvetica 16 F
GS
[1 0 0 1 0 0] CT
-27 6 moveto 
1 -1 scale
(550) t 
GR
GR
GS
[1 0 0 1 67.8 259] CT
0.149 GC
/Helvetica 16 F
GS
[1 0 0 1 0 0] CT
-27 6 moveto 
1 -1 scale
(560) t 
GR
GR
GS
[1 0 0 1 67.8 202] CT
0.149 GC
/Helvetica 16 F
GS
[1 0 0 1 0 0] CT
-27 6 moveto 
1 -1 scale
(570) t 
GR
GR
GS
[1 0 0 1 67.8 145] CT
0.149 GC
/Helvetica 16 F
GS
[1 0 0 1 0 0] CT
-27 6 moveto 
1 -1 scale
(580) t 
GR
GR
GS
[1 0 0 1 67.8 88] CT
0.149 GC
/Helvetica 16 F
GS
[1 0 0 1 0 0] CT
-27 6 moveto 
1 -1 scale
(590) t 
GR
GR
GS
[1 0 0 1 67.8 31] CT
0.149 GC
/Helvetica 16 F
GS
[1 0 0 1 0 0] CT
-27 6 moveto 
1 -1 scale
(600) t 
GR
GR
GS
[0 -1 1 0 37.8 202] CT
0.149 GC
/Helvetica 17.6 F
GS
[1 0 0 1 0 0] CT
-63.5 -4 moveto 
1 -1 scale
(Temperatura \(K\)) t 
GR
GR
GS
0 0.447 0.741 RC
1 LJ
3 LW
N
73 88 M
73.565 88 L
73.566 88 L
74.316 88 L
74.317 88 L
75.067 87.999 L
75.068 87.999 L
75.818 87.997 L
75.819 87.997 L
76.568 87.992 L
76.569 87.992 L
77.318 87.984 L
77.32 87.984 L
78.07 87.971 L
78.071 87.971 L
78.82 87.953 L
78.822 87.953 L
79.57 87.93 L
79.572 87.93 L
80.32 87.899 L
80.322 87.899 L
81.072 87.862 L
81.074 87.862 L
81.822 87.817 L
81.824 87.817 L
82.573 87.764 L
82.576 87.763 L
83.324 87.703 L
83.327 87.703 L
84.074 87.633 L
84.076 87.633 L
84.825 87.556 L
84.828 87.555 L
85.575 87.47 L
85.578 87.47 L
86.325 87.377 L
86.327 87.376 L
87.077 87.274 L
87.08 87.274 L
87.828 87.165 L
87.829 87.165 L
88.579 87.048 L
88.58 87.047 L
89.33 86.924 L
89.331 86.924 L
90.079 86.795 L
90.081 86.794 L
90.83 86.661 L
90.832 86.66 L
91.581 86.523 L
91.583 86.523 L
92.331 86.384 L
92.333 86.384 L
93.082 86.244 L
93.084 86.243 L
93.833 86.104 L
93.835 86.103 L
94.584 85.965 L
94.586 85.964 L
95.334 85.828 L
95.337 85.827 L
96.085 85.693 L
96.088 85.693 L
96.835 85.562 L
96.838 85.562 L
97.586 85.434 L
97.59 85.434 L
98.335 85.31 L
98.339 85.31 L
99.088 85.19 L
99.092 85.189 L
99.836 85.075 L
99.84 85.074 L
100.589 84.962 L
100.593 84.962 L
101.337 84.855 L
101.341 84.855 L
102.089 84.752 L
102.093 84.751 L
102.838 84.653 L
102.842 84.652 L
103.592 84.556 L
103.596 84.556 L
104.341 84.465 L
104.345 84.465 L
105.093 84.377 L
105.097 84.376 L
105.844 84.292 L
105.848 84.291 L
106.594 84.21 L
106.598 84.21 L
107.345 84.132 L
107.349 84.131 L
108.096 84.056 L
108.1 84.056 L
108.847 83.982 L
108.851 83.982 L
109.596 83.912 L
109.6 83.911 L
110.346 83.843 L
110.35 83.843 L
111.098 83.776 L
111.102 83.776 L
111.849 83.711 L
111.853 83.711 L
112.598 83.648 L
112.602 83.647 L
113.35 83.586 L
113.354 83.585 L
114.101 83.525 L
114.105 83.525 L
114.851 83.466 L
114.856 83.466 L
115.601 83.408 L
115.606 83.408 L
116.351 83.351 L
116.355 83.351 L
117.1 83.295 L
117.105 83.295 L
117.854 83.239 L
117.858 83.239 L
118.603 83.185 L
118.608 83.185 L
119.353 83.131 L
119.357 83.131 L
120.107 83.078 L
120.111 83.077 L
120.856 83.025 L
120.86 83.025 L
121.606 82.973 L
121.61 82.972 L
122.357 82.921 L
122.361 82.921 L
123.107 82.87 L
123.112 82.87 L
123.858 82.819 L
123.863 82.819 L
124.61 82.769 L
124.614 82.768 L
125.361 82.719 L
125.366 82.718 L
126.109 82.669 L
126.113 82.669 L
126.861 82.62 L
126.866 82.619 L
127.61 82.571 L
127.614 82.571 L
128.363 82.522 L
128.367 82.522 L
129.112 82.474 L
129.116 82.474 L
129.865 82.426 L
129.87 82.426 L
130.614 82.379 L
130.619 82.379 L
131.363 82.332 L
131.368 82.332 L
132.118 82.285 L
132.123 82.285 L
132.867 82.239 L
132.872 82.238 L
133.617 82.193 L
133.622 82.192 L
134.367 82.147 L
134.372 82.147 L
135.121 82.102 L
135.126 82.101 L
135.871 82.057 L
135.876 82.057 L
136.62 82.013 L
136.625 82.012 L
137.37 81.968 L
137.375 81.968 L
138.12 81.925 L
138.125 81.925 L
138.874 81.881 L
138.879 81.881 L
139.622 81.839 L
139.627 81.839 L
140.371 81.797 L
140.376 81.796 L
141.124 81.754 L
141.129 81.754 L
141.872 81.713 L
141.877 81.712 L
142.625 81.671 L
142.63 81.671 L
143.377 81.631 L
143.383 81.63 L
144.124 81.59 L
144.129 81.59 L
144.875 81.551 L
144.88 81.55 L
145.625 81.511 L
145.63 81.511 L
146.376 81.472 L
146.381 81.472 L
147.131 81.433 L
147.137 81.432 L
147.881 81.394 L
147.886 81.394 L
148.629 81.357 L
148.635 81.356 L
149.382 81.319 L
149.388 81.319 L
150.13 81.282 L
150.135 81.282 L
150.882 81.245 L
150.888 81.245 L
151.634 81.209 L
151.64 81.209 L
152.386 81.173 L
152.391 81.173 L
153.131 81.138 L
153.137 81.137 L
153.886 81.102 L
153.892 81.102 L
154.636 81.068 L
154.641 81.067 L
155.383 81.033 L
155.389 81.033 L
156.137 80.999 L
156.143 80.999 L
156.889 80.965 L
156.895 80.965 L
157.635 80.932 L
157.641 80.932 L
158.387 80.899 L
158.393 80.899 L
159.137 80.867 L
159.143 80.867 L
159.892 80.835 L
159.898 80.834 L
160.64 80.803 L
160.646 80.803 L
161.388 80.772 L
161.394 80.771 L
162.141 80.74 L
162.148 80.74 L
162.893 80.709 L
162.9 80.709 L
163.645 80.679 L
163.651 80.679 L
164.395 80.649 L
164.401 80.649 L
165.144 80.619 L
165.151 80.619 L
165.893 80.59 L
165.899 80.59 L
166.648 80.561 L
166.654 80.56 L
167.395 80.532 L
167.402 80.532 L
168.148 80.503 L
168.155 80.503 L
168.899 80.475 L
168.906 80.475 L
169.651 80.447 L
169.657 80.447 L
170.4 80.42 L
170.407 80.42 L
171.148 80.392 L
171.155 80.392 L
171.897 80.366 L
171.904 80.365 L
172.649 80.339 L
172.656 80.339 L
173.403 80.312 L
173.41 80.312 L
174.148 80.287 L
174.156 80.286 L
174.9 80.261 L
174.908 80.261 L
175.654 80.235 L
175.661 80.235 L
176.405 80.21 L
176.412 80.21 L
177.155 80.185 L
177.162 80.185 L
177.905 80.16 L
177.912 80.16 L
178.659 80.136 L
178.667 80.136 L
179.408 80.112 L
179.416 80.112 L
180.157 80.088 L
180.164 80.088 L
180.91 80.064 L
180.918 80.064 L
181.657 80.041 L
181.665 80.041 L
182.412 80.018 L
182.42 80.018 L
183.157 79.995 L
183.165 79.995 L
183.909 79.973 L
183.917 79.973 L
184.664 79.95 L
184.672 79.95 L
185.408 79.928 L
185.416 79.928 L
186.163 79.906 L
186.171 79.906 L
186.91 79.885 L
186.919 79.885 L
187.664 79.864 L
187.673 79.863 L
188.411 79.842 L
188.42 79.842 L
189.164 79.822 L
189.173 79.821 L
189.918 79.801 L
189.926 79.801 L
190.663 79.781 L
190.673 79.78 L
191.417 79.76 L
191.426 79.76 L
192.165 79.74 L
192.174 79.74 L
192.916 79.721 L
192.926 79.72 L
193.67 79.701 L
193.679 79.701 L
194.417 79.682 L
194.427 79.682 L
195.168 79.663 L
195.178 79.663 L
195.923 79.644 L
195.933 79.643 L
196.672 79.625 L
196.682 79.625 L
197.422 79.607 L
197.433 79.607 L
198.174 79.588 L
198.185 79.588 L
198.923 79.57 L
198.934 79.57 L
199.674 79.553 L
199.686 79.552 L
200.425 79.535 L
200.438 79.535 L
201.168 79.518 L
201.18 79.517 L
201.923 79.5 L
201.936 79.5 L
202.669 79.483 L
202.684 79.483 L
203.429 79.466 L
203.444 79.466 L
204.177 79.45 L
204.193 79.449 L
204.93 79.433 L
204.945 79.433 L
205.674 79.417 L
205.688 79.417 L
206.425 79.401 L
206.439 79.401 L
207.178 79.385 L
207.191 79.385 L
207.934 79.369 L
207.945 79.369 L
208.676 79.354 L
208.688 79.354 L
209.435 79.338 L
209.447 79.338 L
210.181 79.323 L
210.192 79.323 L
210.93 79.308 L
210.941 79.308 L
211.68 79.293 L
211.691 79.293 L
212.437 79.278 L
212.448 79.278 L
213.185 79.264 L
213.196 79.264 L
213.931 79.25 L
213.942 79.25 L
214.686 79.235 L
214.697 79.235 L
215.44 79.221 L
215.45 79.221 L
216.186 79.208 L
216.197 79.207 L
216.935 79.194 L
216.945 79.194 L
217.684 79.18 L
217.695 79.18 L
218.44 79.167 L
218.451 79.166 L
219.195 79.153 L
219.205 79.153 L
219.939 79.14 L
219.95 79.14 L
220.689 79.127 L
220.699 79.127 L
221.443 79.115 L
221.452 79.114 L
222.189 79.102 L
222.199 79.102 L
222.943 79.089 L
222.953 79.089 L
223.698 79.077 L
223.708 79.077 L
224.447 79.065 L
224.457 79.065 L
225.197 79.053 L
225.207 79.052 L
225.943 79.041 L
225.953 79.041 L
226.7 79.029 L
226.71 79.029 L
227.45 79.017 L
227.46 79.017 L
228.195 79.006 L
228.205 79.005 L
228.948 78.994 L
228.958 78.994 L
229.705 78.983 L
229.715 78.983 L
230.45 78.972 L
230.46 78.972 L
231.201 78.961 L
231.21 78.961 L
231.957 78.95 L
231.967 78.95 L
232.706 78.939 L
232.716 78.939 L
233.449 78.928 L
233.459 78.928 L
234.201 78.918 L
234.211 78.918 L
234.954 78.908 L
234.964 78.907 L
235.709 78.897 L
235.718 78.897 L
236.46 78.887 L
236.47 78.887 L
237.21 78.877 L
237.22 78.877 L
237.954 78.867 L
237.963 78.867 L
238.706 78.857 L
238.715 78.857 L
239.456 78.848 L
239.465 78.847 L
240.205 78.838 L
240.215 78.838 L
240.96 78.829 L
240.969 78.828 L
241.709 78.819 L
241.719 78.819 L
242.465 78.81 L
242.475 78.81 L
243.209 78.801 L
243.218 78.801 L
243.961 78.792 L
243.971 78.792 L
244.714 78.783 L
244.724 78.783 L
245.467 78.774 L
245.477 78.774 L
246.211 78.765 L
246.221 78.765 L
246.969 78.757 L
246.978 78.757 L
247.712 78.748 L
247.722 78.748 L
248.465 78.74 L
248.475 78.74 L
249.218 78.731 L
249.227 78.731 L
249.972 78.723 L
249.982 78.723 L
250.717 78.715 L
250.727 78.715 L
251.475 78.707 L
251.484 78.707 L
252.222 78.699 L
252.231 78.699 L
252.974 78.691 L
252.983 78.691 L
253.722 78.684 L
253.732 78.683 L
254.477 78.676 L
254.487 78.676 L
255.22 78.668 L
255.23 78.668 L
255.972 78.661 L
255.982 78.661 L
256.724 78.653 L
256.734 78.653 L
257.474 78.646 L
257.485 78.646 L
258.228 78.639 L
258.237 78.639 L
258.979 78.632 L
258.99 78.631 L
259.725 78.624 L
259.735 78.624 L
260.477 78.617 L
260.487 78.617 L
261.227 78.611 L
261.237 78.611 L
261.975 78.604 L
261.985 78.604 L
262.732 78.597 L
262.741 78.597 L
263.481 78.591 L
263.491 78.59 L
264.228 78.584 L
264.238 78.584 L
264.984 78.577 L
264.994 78.577 L
265.731 78.571 L
265.741 78.571 L
266.488 78.565 L
266.498 78.565 L
267.234 78.559 L
267.245 78.558 L
267.98 78.552 L
267.99 78.552 L
268.733 78.546 L
268.743 78.546 L
269.486 78.54 L
269.497 78.54 L
270.236 78.534 L
270.246 78.534 L
270.989 78.528 L
270.999 78.528 L
271.74 78.522 L
271.751 78.522 L
272.486 78.517 L
272.496 78.517 L
273.242 78.511 L
273.252 78.511 L
273.993 78.505 L
274.003 78.505 L
274.738 78.5 L
274.748 78.5 L
275.487 78.495 L
275.497 78.494 L
276.237 78.489 L
276.247 78.489 L
276.992 78.484 L
277.002 78.484 L
277.738 78.479 L
277.749 78.478 L
278.498 78.473 L
278.508 78.473 L
279.241 78.468 L
279.251 78.468 L
279.995 78.463 L
280.006 78.463 L
280.747 78.458 L
280.757 78.458 L
281.499 78.453 L
281.51 78.453 L
282.244 78.448 L
282.254 78.448 L
283.002 78.443 L
283.012 78.443 L
283.748 78.439 L
283.759 78.438 L
284.494 78.434 L
284.504 78.434 L
285.245 78.429 L
285.256 78.429 L
285.996 78.424 L
286.007 78.424 L
286.755 78.42 L
286.765 78.42 L
287.5 78.415 L
287.511 78.415 L
288.257 78.411 L
288.268 78.411 L
289.006 78.407 L
289.016 78.407 L
289.758 78.402 L
289.769 78.402 L
290.499 78.398 L
290.51 78.398 L
291.251 78.394 L
291.262 78.394 L
292.007 78.39 L
292.017 78.39 L
292.76 78.385 L
292.77 78.385 L
293.505 78.381 L
293.517 78.381 L
294.26 78.377 L
294.272 78.377 L
295.013 78.373 L
295.024 78.373 L
295.757 78.369 L
295.768 78.369 L
296.509 78.366 L
296.519 78.366 L
297.264 78.362 L
297.275 78.362 L
298.01 78.358 L
298.021 78.358 L
298.766 78.354 L
298.777 78.354 L
299.513 78.351 L
299.524 78.351 L
300.258 78.347 L
300.269 78.347 L
301.01 78.343 L
301.021 78.343 L
301.759 78.34 L
301.769 78.34 L
302.512 78.336 L
302.524 78.336 L
303.267 78.333 L
303.279 78.333 L
304.017 78.329 L
304.029 78.329 L
304.765 78.326 L
304.776 78.326 L
305.517 78.322 L
305.528 78.322 L
306.268 78.319 L
306.278 78.319 L
307.022 78.316 L
307.033 78.316 L
307.774 78.313 L
307.785 78.313 L
308.52 78.31 L
308.531 78.31 L
309.269 78.306 L
309.28 78.306 L
310.024 78.303 L
310.036 78.303 L
310.775 78.301 L
310.786 78.3 L
311.527 78.297 L
311.539 78.297 L
312.277 78.294 L
312.288 78.294 L
313.024 78.291 L
313.035 78.291 L
313.77 78.289 L
313.781 78.289 L
314.52 78.286 L
314.532 78.286 L
315.275 78.283 L
315.286 78.283 L
316.029 78.28 L
316.04 78.28 L
316.776 78.277 L
316.789 78.277 L
317.529 78.275 L
317.541 78.274 L
318.281 78.272 L
318.293 78.272 L
319.034 78.269 L
319.046 78.269 L
319.781 78.267 L
319.792 78.267 L
320.536 78.264 L
320.546 78.264 L
321.279 78.262 L
321.291 78.262 L
322.037 78.259 L
322.048 78.259 L
322.781 78.257 L
322.793 78.256 L
323.529 78.254 L
323.541 78.254 L
324.279 78.252 L
324.291 78.251 L
325.035 78.249 L
325.047 78.249 L
325.787 78.247 L
325.799 78.247 L
326.531 78.245 L
326.543 78.245 L
327.286 78.242 L
327.298 78.242 L
328.037 78.24 L
328.05 78.24 L
328.783 78.238 L
328.796 78.238 L
329.534 78.235 L
329.546 78.235 L
330.292 78.233 L
330.304 78.233 L
331.037 78.231 L
331.049 78.231 L
331.785 78.229 L
331.797 78.229 L
332.542 78.227 L
332.555 78.227 L
333.288 78.225 L
333.301 78.225 L
334.042 78.223 L
334.054 78.223 L
334.789 78.221 L
334.801 78.221 L
335.544 78.219 L
335.556 78.219 L
336.299 78.217 L
336.311 78.217 L
337.047 78.215 L
337.058 78.215 L
337.797 78.213 L
337.809 78.213 L
338.55 78.211 L
338.562 78.211 L
339.292 78.209 L
339.305 78.209 L
340.044 78.208 L
340.056 78.208 L
340.795 78.206 L
340.807 78.206 L
341.549 78.204 L
341.562 78.204 L
342.294 78.202 L
342.307 78.202 L
343.045 78.2 L
343.058 78.2 L
343.799 78.199 L
343.811 78.199 L
344.552 78.197 L
344.564 78.197 L
345.3 78.195 L
345.312 78.195 L
346.055 78.194 L
346.069 78.194 L
346.802 78.192 L
346.814 78.192 L
347.559 78.191 L
347.572 78.191 L
348.304 78.189 L
348.317 78.189 L
349.052 78.187 L
349.064 78.187 L
349.801 78.186 L
349.814 78.186 L
350.557 78.184 L
350.57 78.184 L
351.309 78.183 L
351.321 78.183 L
352.063 78.181 L
352.076 78.181 L
352.813 78.18 L
352.825 78.18 L
353.558 78.178 L
353.571 78.178 L
354.305 78.177 L
354.318 78.177 L
355.063 78.176 L
355.075 78.176 L
355.813 78.174 L
355.826 78.174 L
356.558 78.173 L
356.571 78.173 L
357.316 78.171 L
357.329 78.171 L
358.068 78.17 L
358.081 78.17 L
358.82 78.169 L
358.834 78.169 L
359.569 78.168 L
359.583 78.168 L
360.311 78.167 L
360.325 78.166 L
361.06 78.165 L
361.076 78.165 L
361.822 78.164 L
361.836 78.164 L
362.565 78.163 L
362.58 78.163 L
363.311 78.161 L
363.325 78.161 L
364.063 78.16 L
364.076 78.16 L
364.821 78.159 L
364.836 78.159 L
365.569 78.158 L
365.585 78.158 L
366.322 78.157 L
366.334 78.157 L
367.068 78.156 L
367.082 78.156 L
367.826 78.155 L
367.841 78.155 L
368.573 78.154 L
368.586 78.154 L
369.327 78.153 L
369.34 78.153 L
370.067 78.152 L
370.081 78.152 L
370.827 78.151 L
370.841 78.151 L
371.576 78.15 L
371.59 78.15 L
372.328 78.149 L
372.341 78.149 L
373.083 78.147 L
373.097 78.147 L
373.833 78.146 L
373.848 78.146 L
374.578 78.145 L
374.593 78.145 L
375.326 78.145 L
375.342 78.145 L
376.077 78.144 L
376.091 78.144 L
376.831 78.143 L
376.844 78.143 L
377.585 78.142 L
377.598 78.142 L
378.337 78.141 L
378.351 78.141 L
379.083 78.14 L
379.096 78.14 L
379.829 78.139 L
379.844 78.139 L
380.577 78.138 L
380.59 78.138 L
381.329 78.137 L
381.343 78.137 L
382.085 78.137 L
382.099 78.137 L
382.838 78.136 L
382.853 78.136 L
383.585 78.135 L
383.598 78.135 L
384.334 78.134 L
384.349 78.134 L
385.085 78.134 L
385.1 78.134 L
385.842 78.132 L
385.857 78.132 L
386.586 78.132 L
386.6 78.132 L
387.344 78.131 L
387.36 78.131 L
388.089 78.13 L
388.104 78.13 L
388.845 78.13 L
388.858 78.13 L
389.59 78.129 L
389.603 78.129 L
390.344 78.128 L
390.359 78.128 L
391.093 78.128 L
391.108 78.128 L
391.847 78.127 L
391.862 78.127 L
392.598 78.126 L
392.613 78.126 L
393.349 78.126 L
393.367 78.126 L
394.092 78.125 L
394.106 78.125 L
394.847 78.124 L
394.861 78.124 L
395.598 78.124 L
395.612 78.124 L
396.343 78.123 L
396.358 78.123 L
397.091 78.122 L
397.106 78.122 L
397.851 78.122 L
397.865 78.122 L
398.597 78.121 L
398.61 78.121 L
399.35 78.121 L
399.367 78.121 L
400.102 78.12 L
400.116 78.12 L
400.857 78.12 L
400.871 78.12 L
401.607 78.119 L
401.62 78.119 L
402.356 78.119 L
402.37 78.119 L
403.109 78.118 L
403.123 78.118 L
403.849 78.118 L
403.864 78.118 L
404.603 78.117 L
404.619 78.117 L
405.361 78.117 L
405.375 78.117 L
406.11 78.116 L
406.123 78.116 L
406.852 78.115 L
406.869 78.115 L
407.6 78.115 L
407.615 78.115 L
408.364 78.114 L
408.378 78.114 L
409.101 78.114 L
409.119 78.114 L
409.856 78.113 L
409.873 78.113 L
410.609 78.113 L
410.626 78.113 L
411.356 78.113 L
411.371 78.113 L
412.115 78.112 L
412.134 78.112 L
412.866 78.112 L
412.885 78.112 L
413.617 78.111 L
413.631 78.111 L
414.368 78.111 L
414.384 78.111 L
415.109 78.111 L
415.123 78.111 L
415.864 78.11 L
415.879 78.11 L
416.612 78.11 L
416.628 78.11 L
417.357 78.109 L
417.374 78.109 L
418.109 78.109 L
418.125 78.109 L
418.873 78.108 L
418.89 78.108 L
419.618 78.108 L
419.632 78.108 L
420.371 78.108 L
420.384 78.108 L
421.115 78.107 L
421.132 78.107 L
421.87 78.107 L
421.885 78.107 L
422.625 78.107 L
422.642 78.107 L
423.376 78.106 L
423.39 78.106 L
424.124 78.106 L
424.14 78.106 L
424.87 78.106 L
424.886 78.106 L
425.625 78.105 L
425.641 78.105 L
426.375 78.105 L
426.39 78.105 L
427.127 78.105 L
427.141 78.105 L
427.878 78.105 L
427.894 78.105 L
428.617 78.104 L
428.634 78.104 L
429.38 78.104 L
429.395 78.104 L
430.121 78.104 L
430.138 78.104 L
430.884 78.103 L
430.899 78.103 L
431.629 78.103 L
431.646 78.103 L
432.383 78.103 L
432.4 78.103 L
433.129 78.103 L
433.147 78.103 L
433.886 78.102 L
433.899 78.102 L
434.637 78.102 L
434.651 78.102 L
435.374 78.102 L
435.393 78.102 L
436.135 78.102 L
436.151 78.102 L
436.882 78.101 L
436.902 78.101 L
437.627 78.101 L
437.642 78.101 L
438.385 78.101 L
438.402 78.101 L
439.129 78.1 L
439.149 78.1 L
439.889 78.1 L
439.906 78.1 L
440.63 78.1 L
440.645 78.1 L
441.384 78.1 L
441.406 78.1 L
442.14 78.1 L
442.156 78.1 L
442.892 78.099 L
442.91 78.099 L
443.645 78.099 L
443.659 78.099 L
444.396 78.099 L
444.415 78.099 L
445.135 78.099 L
445.154 78.099 L
445.889 78.099 L
445.905 78.099 L
446.647 78.099 L
446.665 78.099 L
447.393 78.098 L
447.411 78.098 L
448.141 78.098 L
448.156 78.098 L
448.886 78.098 L
448.902 78.098 L
449.635 78.098 L
449.652 78.098 L
450.388 78.098 L
450.403 78.098 L
451.141 78.098 L
451.155 78.098 L
451.9 78.097 L
451.916 78.097 L
452.643 78.097 L
452.66 78.097 L
453.394 78.097 L
453.409 78.097 L
454.14 78.097 L
454.158 78.097 L
454.892 78.097 L
454.908 78.097 L
455.651 78.097 L
455.669 78.097 L
456.407 78.097 L
456.43 78.097 L
457.154 78.097 L
457.168 78.097 L
457.902 78.096 L
457.92 78.096 L
458.658 78.096 L
458.673 78.096 L
459.397 78.096 L
459.414 78.096 L
460.15 78.096 L
460.167 78.096 L
460.909 78.096 L
460.929 78.096 L
461.657 78.096 L
461.672 78.096 L
462.402 78.096 L
462.417 78.096 L
463.159 78.096 L
463.173 78.096 L
463.903 78.096 L
463.92 78.096 L
464.646 78.096 L
464.669 78.096 L
465.409 78.095 L
465.425 78.095 L
466.155 78.095 L
466.17 78.095 L
466.901 78.095 L
466.919 78.095 L
467.657 78.095 L
467.673 78.095 L
468.409 78.095 L
468.425 78.095 L
469.163 78.095 L
469.18 78.095 L
469.9 78.095 L
469.92 78.095 L
470.662 78.095 L
470.681 78.095 L
471.42 78.095 L
471.438 78.095 L
472.161 78.095 L
472.177 78.095 L
472.91 78.095 L
472.925 78.095 L
473.669 78.095 L
473.688 78.095 L
474.418 78.095 L
474.434 78.095 L
475.172 78.094 L
475.186 78.094 L
475.91 78.094 L
475.926 78.094 L
476.672 78.094 L
476.694 78.094 L
477.421 78.094 L
477.443 78.094 L
478.168 78.094 L
478.185 78.094 L
478.921 78.094 L
478.937 78.094 L
479.67 78.094 L
479.688 78.094 L
480.424 78.094 L
480.444 78.094 L
481.173 78.094 L
481.19 78.094 L
481.914 78.094 L
481.935 78.094 L
482.671 78.094 L
482.7 78.094 L
483.419 78.094 L
483.44 78.094 L
484.175 78.094 L
484.191 78.094 L
484.916 78.094 L
484.934 78.094 L
485.68 78.094 L
485.699 78.094 L
486.419 78.094 L
486.435 78.094 L
487.184 78.094 L
487.202 78.094 L
487.919 78.094 L
487.946 78.094 L
488.682 78.094 L
488.707 78.094 L
489.425 78.094 L
489.442 78.094 L
490.168 78.094 L
490.189 78.094 L
490.928 78.094 L
490.948 78.094 L
491.689 78.094 L
491.707 78.094 L
492.44 78.094 L
492.464 78.094 L
493.188 78.094 L
493.206 78.094 L
493.941 78.094 L
493.955 78.094 L
494.684 78.094 L
494.704 78.094 L
495.425 78.094 L
495.449 78.094 L
496.185 78.094 L
496.204 78.094 L
496.941 78.094 L
496.961 78.094 L
497.69 78.094 L
497.709 78.094 L
498.443 78.094 L
498.46 78.094 L
499.192 78.094 L
499.207 78.094 L
499.878 78.094 L
499.939 78.094 L
499.957 78.094 L
500.692 78.094 L
500.714 78.094 L
501.439 78.094 L
501.454 78.094 L
502.192 78.094 L
502.211 78.094 L
502.944 78.094 L
502.959 78.094 L
503.698 78.094 L
503.718 78.094 L
504.437 78.094 L
504.451 78.094 L
505.201 78.094 L
505.217 78.094 L
505.937 78.094 L
505.964 78.094 L
506.692 78.094 L
506.707 78.094 L
507 78.094 L
S
GR
GS
0.851 0.325 0.098 RC
[12 12] 0 setdash
2 LJ
3 LW
N
73 373 M
73.565 373 L
73.566 373 L
74.316 373 L
74.317 373 L
75.067 373 L
75.068 373 L
75.818 373 L
75.819 373 L
76.568 373 L
76.569 373 L
77.318 372.999 L
77.32 372.999 L
78.07 372.998 L
78.071 372.998 L
78.82 372.996 L
78.822 372.996 L
79.57 372.993 L
79.572 372.993 L
80.32 372.99 L
80.322 372.99 L
81.072 372.984 L
81.074 372.984 L
81.822 372.977 L
81.824 372.977 L
82.573 372.967 L
82.576 372.967 L
83.324 372.955 L
83.327 372.955 L
84.074 372.941 L
84.076 372.941 L
84.825 372.923 L
84.828 372.923 L
85.575 372.903 L
85.578 372.903 L
86.325 372.879 L
86.327 372.879 L
87.077 372.85 L
87.08 372.85 L
87.828 372.819 L
87.829 372.818 L
88.579 372.783 L
88.58 372.783 L
89.33 372.742 L
89.331 372.742 L
90.079 372.698 L
90.081 372.698 L
90.83 372.649 L
90.832 372.649 L
91.581 372.595 L
91.583 372.595 L
92.331 372.537 L
92.333 372.537 L
93.082 372.475 L
93.084 372.475 L
93.833 372.41 L
93.835 372.409 L
94.584 372.34 L
94.586 372.34 L
95.334 372.267 L
95.337 372.267 L
96.085 372.191 L
96.088 372.19 L
96.835 372.112 L
96.838 372.111 L
97.586 372.03 L
97.59 372.03 L
98.335 371.946 L
98.339 371.946 L
99.088 371.86 L
99.092 371.86 L
99.836 371.773 L
99.84 371.773 L
100.589 371.684 L
100.593 371.684 L
101.337 371.594 L
101.341 371.594 L
102.089 371.504 L
102.093 371.503 L
102.838 371.413 L
102.842 371.413 L
103.592 371.321 L
103.596 371.321 L
104.341 371.23 L
104.345 371.229 L
105.093 371.138 L
105.097 371.137 L
105.844 371.047 L
105.848 371.046 L
106.594 370.956 L
106.598 370.955 L
107.345 370.866 L
107.349 370.865 L
108.096 370.776 L
108.1 370.776 L
108.847 370.687 L
108.851 370.686 L
109.596 370.599 L
109.6 370.599 L
110.346 370.512 L
110.35 370.512 L
111.098 370.426 L
111.102 370.426 L
111.849 370.341 L
111.853 370.34 L
112.598 370.257 L
112.602 370.256 L
113.35 370.174 L
113.354 370.173 L
114.101 370.092 L
114.105 370.092 L
114.851 370.011 L
114.856 370.011 L
115.601 369.932 L
115.606 369.931 L
116.351 369.853 L
116.355 369.853 L
117.1 369.776 L
117.105 369.776 L
117.854 369.699 L
117.858 369.699 L
118.603 369.624 L
118.608 369.624 L
119.353 369.55 L
119.357 369.55 L
120.107 369.477 L
120.111 369.476 L
120.856 369.405 L
120.86 369.404 L
121.606 369.334 L
121.61 369.333 L
122.357 369.264 L
122.361 369.263 L
123.107 369.195 L
123.112 369.194 L
123.858 369.126 L
123.863 369.126 L
124.61 369.059 L
124.614 369.058 L
125.361 368.992 L
125.366 368.992 L
126.109 368.927 L
126.113 368.926 L
126.861 368.862 L
126.866 368.861 L
127.61 368.798 L
127.614 368.797 L
128.363 368.734 L
128.367 368.734 L
129.112 368.672 L
129.116 368.672 L
129.865 368.61 L
129.87 368.609 L
130.614 368.549 L
130.619 368.549 L
131.363 368.489 L
131.368 368.488 L
132.118 368.429 L
132.123 368.429 L
132.867 368.37 L
132.872 368.369 L
133.617 368.312 L
133.622 368.311 L
134.367 368.254 L
134.372 368.254 L
135.121 368.197 L
135.126 368.196 L
135.871 368.14 L
135.876 368.14 L
136.62 368.084 L
136.625 368.084 L
137.37 368.029 L
137.375 368.029 L
138.12 367.974 L
138.125 367.974 L
138.874 367.92 L
138.879 367.92 L
139.622 367.866 L
139.627 367.866 L
140.371 367.814 L
140.376 367.813 L
141.124 367.761 L
141.129 367.761 L
141.872 367.709 L
141.877 367.709 L
142.625 367.658 L
142.63 367.657 L
143.377 367.607 L
143.383 367.606 L
144.124 367.556 L
144.129 367.556 L
144.875 367.507 L
144.88 367.506 L
145.625 367.457 L
145.63 367.457 L
146.376 367.408 L
146.381 367.408 L
147.131 367.36 L
147.137 367.359 L
147.881 367.312 L
147.886 367.311 L
148.629 367.265 L
148.635 367.265 L
149.382 367.218 L
149.388 367.217 L
150.13 367.172 L
150.135 367.171 L
150.882 367.125 L
150.888 367.125 L
151.634 367.08 L
151.64 367.08 L
152.386 367.035 L
152.391 367.035 L
153.131 366.991 L
153.137 366.99 L
153.886 366.947 L
153.892 366.946 L
154.636 366.903 L
154.641 366.903 L
155.383 366.86 L
155.389 366.86 L
156.137 366.817 L
156.143 366.817 L
156.889 366.775 L
156.895 366.775 L
157.635 366.733 L
157.641 366.733 L
158.387 366.692 L
158.393 366.692 L
159.137 366.651 L
159.143 366.651 L
159.892 366.61 L
159.898 366.61 L
160.64 366.57 L
160.646 366.57 L
161.388 366.531 L
161.394 366.531 L
162.141 366.492 L
162.148 366.491 L
162.893 366.453 L
162.9 366.453 L
163.645 366.414 L
163.651 366.414 L
164.395 366.376 L
164.401 366.376 L
165.144 366.339 L
165.151 366.339 L
165.893 366.302 L
165.899 366.302 L
166.648 366.265 L
166.654 366.265 L
167.395 366.229 L
167.402 366.228 L
168.148 366.193 L
168.155 366.192 L
168.899 366.157 L
168.906 366.157 L
169.651 366.122 L
169.657 366.122 L
170.4 366.087 L
170.407 366.087 L
171.148 366.053 L
171.155 366.052 L
171.897 366.019 L
171.904 366.019 L
172.649 365.985 L
172.656 365.985 L
173.403 365.952 L
173.41 365.951 L
174.148 365.919 L
174.156 365.918 L
174.9 365.886 L
174.908 365.886 L
175.654 365.854 L
175.661 365.853 L
176.405 365.822 L
176.412 365.821 L
177.155 365.79 L
177.162 365.79 L
177.905 365.759 L
177.912 365.759 L
178.659 365.728 L
178.667 365.728 L
179.408 365.698 L
179.416 365.697 L
180.157 365.667 L
180.164 365.667 L
180.91 365.637 L
180.918 365.637 L
181.657 365.608 L
181.665 365.608 L
182.412 365.579 L
182.42 365.578 L
183.157 365.55 L
183.165 365.549 L
183.909 365.521 L
183.917 365.521 L
184.664 365.493 L
184.672 365.492 L
185.408 365.465 L
185.416 365.464 L
186.163 365.437 L
186.171 365.437 L
186.91 365.41 L
186.919 365.41 L
187.664 365.383 L
187.673 365.382 L
188.411 365.356 L
188.42 365.356 L
189.164 365.329 L
189.173 365.329 L
189.918 365.303 L
189.926 365.303 L
190.663 365.277 L
190.673 365.277 L
191.417 365.252 L
191.426 365.251 L
192.165 365.226 L
192.174 365.226 L
192.916 365.201 L
192.926 365.201 L
193.67 365.176 L
193.679 365.176 L
194.417 365.152 L
194.427 365.152 L
195.168 365.128 L
195.178 365.127 L
195.923 365.104 L
195.933 365.103 L
196.672 365.08 L
196.682 365.08 L
197.422 365.056 L
197.433 365.056 L
198.174 365.033 L
198.185 365.033 L
198.923 365.01 L
198.934 365.01 L
199.674 364.988 L
199.686 364.987 L
200.425 364.965 L
200.438 364.965 L
201.168 364.943 L
201.18 364.943 L
201.923 364.921 L
201.936 364.921 L
202.669 364.899 L
202.684 364.899 L
203.429 364.878 L
203.444 364.877 L
204.177 364.857 L
204.193 364.856 L
204.93 364.835 L
204.945 364.835 L
205.674 364.815 L
205.688 364.815 L
206.425 364.794 L
206.439 364.794 L
207.178 364.774 L
207.191 364.774 L
207.934 364.754 L
207.945 364.754 L
208.676 364.734 L
208.688 364.734 L
209.435 364.714 L
209.447 364.714 L
210.181 364.695 L
210.192 364.695 L
210.93 364.676 L
210.941 364.676 L
211.68 364.657 L
211.691 364.657 L
212.437 364.638 L
212.448 364.638 L
213.185 364.619 L
213.196 364.619 L
213.931 364.601 L
213.942 364.601 L
214.686 364.583 L
214.697 364.583 L
215.44 364.565 L
215.45 364.565 L
216.186 364.547 L
216.197 364.547 L
216.935 364.53 L
216.945 364.53 L
217.684 364.513 L
217.695 364.512 L
218.44 364.495 L
218.451 364.495 L
219.195 364.478 L
219.205 364.478 L
219.939 364.462 L
219.95 364.461 L
220.689 364.445 L
220.699 364.445 L
221.443 364.429 L
221.452 364.428 L
222.189 364.412 L
222.199 364.412 L
222.943 364.396 L
222.953 364.396 L
223.698 364.38 L
223.708 364.38 L
224.447 364.365 L
224.457 364.365 L
225.197 364.349 L
225.207 364.349 L
225.943 364.334 L
225.953 364.334 L
226.7 364.319 L
226.71 364.319 L
227.45 364.304 L
227.46 364.304 L
228.195 364.289 L
228.205 364.289 L
228.948 364.275 L
228.958 364.274 L
229.705 364.26 L
229.715 364.26 L
230.45 364.246 L
230.46 364.246 L
231.201 364.232 L
231.21 364.232 L
231.957 364.218 L
231.967 364.217 L
232.706 364.204 L
232.716 364.204 L
233.449 364.19 L
233.459 364.19 L
234.201 364.177 L
234.211 364.177 L
234.954 364.163 L
234.964 364.163 L
235.709 364.15 L
235.718 364.15 L
236.46 364.137 L
236.47 364.137 L
237.21 364.124 L
237.22 364.124 L
237.954 364.111 L
237.963 364.111 L
238.706 364.099 L
238.715 364.099 L
239.456 364.086 L
239.465 364.086 L
240.205 364.074 L
240.215 364.074 L
240.96 364.062 L
240.969 364.062 L
241.709 364.05 L
241.719 364.05 L
242.465 364.038 L
242.475 364.038 L
243.209 364.026 L
243.218 364.026 L
243.961 364.014 L
243.971 364.014 L
244.714 364.003 L
244.724 364.003 L
245.467 363.992 L
245.477 363.991 L
246.211 363.981 L
246.221 363.98 L
246.969 363.969 L
246.978 363.969 L
247.712 363.958 L
247.722 363.958 L
248.465 363.948 L
248.475 363.947 L
249.218 363.937 L
249.227 363.936 L
249.972 363.926 L
249.982 363.926 L
250.717 363.916 L
250.727 363.916 L
251.475 363.905 L
251.484 363.905 L
252.222 363.895 L
252.231 363.895 L
252.974 363.885 L
252.983 363.885 L
253.722 363.875 L
253.732 363.875 L
254.477 363.865 L
254.487 363.865 L
255.22 363.855 L
255.23 363.855 L
255.972 363.846 L
255.982 363.846 L
256.724 363.836 L
256.734 363.836 L
257.474 363.827 L
257.485 363.827 L
258.228 363.818 L
258.237 363.817 L
258.979 363.808 L
258.99 363.808 L
259.725 363.799 L
259.735 363.799 L
260.477 363.79 L
260.487 363.79 L
261.227 363.781 L
261.237 363.781 L
261.975 363.772 L
261.985 363.772 L
262.732 363.764 L
262.741 363.764 L
263.481 363.755 L
263.491 363.755 L
264.228 363.747 L
264.238 363.747 L
264.984 363.738 L
264.994 363.738 L
265.731 363.73 L
265.741 363.73 L
266.488 363.722 L
266.498 363.721 L
267.234 363.714 L
267.245 363.714 L
267.98 363.706 L
267.99 363.706 L
268.733 363.698 L
268.743 363.697 L
269.486 363.69 L
269.497 363.69 L
270.236 363.682 L
270.246 363.682 L
270.989 363.675 L
270.999 363.675 L
271.74 363.667 L
271.751 363.667 L
272.486 363.66 L
272.496 363.66 L
273.242 363.652 L
273.252 363.652 L
273.993 363.645 L
274.003 363.645 L
274.738 363.638 L
274.748 363.638 L
275.487 363.631 L
275.497 363.631 L
276.237 363.624 L
276.247 363.624 L
276.992 363.617 L
277.002 363.616 L
277.738 363.61 L
277.749 363.61 L
278.498 363.603 L
278.508 363.603 L
279.241 363.596 L
279.251 363.596 L
279.995 363.59 L
280.006 363.59 L
280.747 363.583 L
280.757 363.583 L
281.499 363.577 L
281.51 363.577 L
282.244 363.57 L
282.254 363.57 L
283.002 363.564 L
283.012 363.564 L
283.748 363.558 L
283.759 363.558 L
284.494 363.552 L
284.504 363.552 L
285.245 363.546 L
285.256 363.545 L
285.996 363.54 L
286.007 363.54 L
286.755 363.534 L
286.765 363.534 L
287.5 363.528 L
287.511 363.528 L
288.257 363.522 L
288.268 363.522 L
289.006 363.516 L
289.016 363.516 L
289.758 363.511 L
289.769 363.511 L
290.499 363.505 L
290.51 363.505 L
291.251 363.5 L
291.262 363.5 L
292.007 363.494 L
292.017 363.494 L
292.76 363.489 L
292.77 363.488 L
293.505 363.483 L
293.517 363.483 L
294.26 363.478 L
294.272 363.478 L
295.013 363.473 L
295.024 363.473 L
295.757 363.468 L
295.768 363.468 L
296.509 363.463 L
296.519 363.463 L
297.264 363.458 L
297.275 363.457 L
298.01 363.453 L
298.021 363.453 L
298.766 363.448 L
298.777 363.448 L
299.513 363.443 L
299.524 363.443 L
300.258 363.438 L
300.269 363.438 L
301.01 363.433 L
301.021 363.433 L
301.759 363.429 L
301.769 363.429 L
302.512 363.424 L
302.524 363.424 L
303.267 363.42 L
303.279 363.42 L
304.017 363.415 L
304.029 363.415 L
304.765 363.411 L
304.776 363.411 L
305.517 363.406 L
305.528 363.406 L
306.268 363.402 L
306.278 363.402 L
307.022 363.398 L
307.033 363.398 L
307.774 363.394 L
307.785 363.393 L
308.52 363.39 L
308.531 363.389 L
309.269 363.385 L
309.28 363.385 L
310.024 363.381 L
310.036 363.381 L
310.775 363.377 L
310.786 363.377 L
311.527 363.373 L
311.539 363.373 L
312.277 363.369 L
312.288 363.369 L
313.024 363.366 L
313.035 363.366 L
313.77 363.362 L
313.781 363.362 L
314.52 363.358 L
314.532 363.358 L
315.275 363.354 L
315.286 363.354 L
316.029 363.351 L
316.04 363.351 L
316.776 363.347 L
316.789 363.347 L
317.529 363.343 L
317.541 363.343 L
318.281 363.34 L
318.293 363.34 L
319.034 363.336 L
319.046 363.336 L
319.781 363.333 L
319.792 363.333 L
320.536 363.329 L
320.546 363.329 L
321.279 363.326 L
321.291 363.326 L
322.037 363.323 L
322.048 363.323 L
322.781 363.319 L
322.793 363.319 L
323.529 363.316 L
323.541 363.316 L
324.279 363.313 L
324.291 363.313 L
325.035 363.31 L
325.047 363.31 L
325.787 363.307 L
325.799 363.307 L
326.531 363.304 L
326.543 363.304 L
327.286 363.301 L
327.298 363.301 L
328.037 363.298 L
328.05 363.297 L
328.783 363.295 L
328.796 363.295 L
329.534 363.292 L
329.546 363.292 L
330.292 363.289 L
330.304 363.289 L
331.037 363.286 L
331.049 363.286 L
331.785 363.283 L
331.797 363.283 L
332.542 363.28 L
332.555 363.28 L
333.288 363.278 L
333.301 363.278 L
334.042 363.275 L
334.054 363.275 L
334.789 363.272 L
334.801 363.272 L
335.544 363.27 L
335.556 363.27 L
336.299 363.267 L
336.311 363.267 L
337.047 363.264 L
337.058 363.264 L
337.797 363.262 L
337.809 363.262 L
338.55 363.259 L
338.562 363.259 L
339.292 363.257 L
339.305 363.257 L
340.044 363.254 L
340.056 363.254 L
340.795 363.252 L
340.807 363.252 L
341.549 363.25 L
341.562 363.249 L
342.294 363.247 L
342.307 363.247 L
343.045 363.245 L
343.058 363.245 L
343.799 363.243 L
343.811 363.242 L
344.552 363.24 L
344.564 363.24 L
345.3 363.238 L
345.312 363.238 L
346.055 363.236 L
346.069 363.236 L
346.802 363.234 L
346.814 363.234 L
347.559 363.232 L
347.572 363.232 L
348.304 363.23 L
348.317 363.23 L
349.052 363.227 L
349.064 363.227 L
349.801 363.225 L
349.814 363.225 L
350.557 363.223 L
350.57 363.223 L
351.309 363.221 L
351.321 363.221 L
352.063 363.219 L
352.076 363.219 L
352.813 363.217 L
352.825 363.217 L
353.558 363.215 L
353.571 363.215 L
354.305 363.214 L
354.318 363.214 L
355.063 363.211 L
355.075 363.211 L
355.813 363.21 L
355.826 363.21 L
356.558 363.208 L
356.571 363.208 L
357.316 363.206 L
357.329 363.206 L
358.068 363.205 L
358.081 363.204 L
358.82 363.202 L
358.834 363.202 L
359.569 363.201 L
359.583 363.201 L
360.311 363.199 L
360.325 363.199 L
361.06 363.198 L
361.076 363.198 L
361.822 363.196 L
361.836 363.196 L
362.565 363.194 L
362.58 363.194 L
363.311 363.193 L
363.325 363.193 L
364.063 363.191 L
364.076 363.191 L
364.821 363.189 L
364.836 363.189 L
365.569 363.188 L
365.585 363.188 L
366.322 363.186 L
366.334 363.186 L
367.068 363.185 L
367.082 363.185 L
367.826 363.183 L
367.841 363.183 L
368.573 363.182 L
368.586 363.182 L
369.327 363.181 L
369.34 363.18 L
370.067 363.179 L
370.081 363.179 L
370.827 363.177 L
370.841 363.177 L
371.576 363.176 L
371.59 363.176 L
372.328 363.175 L
372.341 363.175 L
373.083 363.174 L
373.097 363.173 L
373.833 363.172 L
373.848 363.172 L
374.578 363.171 L
374.593 363.171 L
375.326 363.169 L
375.342 363.169 L
376.077 363.168 L
376.091 363.168 L
376.831 363.167 L
376.844 363.167 L
377.585 363.166 L
377.598 363.166 L
378.337 363.165 L
378.351 363.165 L
379.083 363.163 L
379.096 363.163 L
379.829 363.162 L
379.844 363.162 L
380.577 363.161 L
380.59 363.161 L
381.329 363.16 L
381.343 363.16 L
382.085 363.159 L
382.099 363.159 L
382.838 363.158 L
382.853 363.157 L
383.585 363.156 L
383.598 363.156 L
384.334 363.155 L
384.349 363.155 L
385.085 363.154 L
385.1 363.154 L
385.842 363.153 L
385.857 363.153 L
386.586 363.152 L
386.6 363.152 L
387.344 363.151 L
387.36 363.151 L
388.089 363.15 L
388.104 363.15 L
388.845 363.149 L
388.858 363.149 L
389.59 363.148 L
389.603 363.148 L
390.344 363.147 L
390.359 363.147 L
391.093 363.146 L
391.108 363.146 L
391.847 363.145 L
391.862 363.145 L
392.598 363.144 L
392.613 363.144 L
393.349 363.143 L
393.367 363.143 L
394.092 363.142 L
394.106 363.142 L
394.847 363.142 L
394.861 363.142 L
395.598 363.141 L
395.612 363.141 L
396.343 363.14 L
396.358 363.14 L
397.091 363.139 L
397.106 363.139 L
397.851 363.138 L
397.865 363.138 L
398.597 363.137 L
398.61 363.137 L
399.35 363.136 L
399.367 363.136 L
400.102 363.136 L
400.116 363.136 L
400.857 363.135 L
400.871 363.135 L
401.607 363.134 L
401.62 363.134 L
402.356 363.133 L
402.37 363.133 L
403.109 363.133 L
403.123 363.133 L
403.849 363.132 L
403.864 363.132 L
404.603 363.131 L
404.619 363.131 L
405.361 363.13 L
405.375 363.13 L
406.11 363.129 L
406.123 363.129 L
406.852 363.129 L
406.869 363.129 L
407.6 363.128 L
407.615 363.128 L
408.364 363.127 L
408.378 363.127 L
409.101 363.127 L
409.119 363.127 L
409.856 363.126 L
409.873 363.126 L
410.609 363.126 L
410.626 363.126 L
411.356 363.125 L
411.371 363.125 L
412.115 363.124 L
412.134 363.124 L
412.866 363.123 L
412.885 363.123 L
413.617 363.123 L
413.631 363.123 L
414.368 363.122 L
414.384 363.122 L
415.109 363.122 L
415.123 363.122 L
415.864 363.121 L
415.879 363.121 L
416.612 363.121 L
416.628 363.121 L
417.357 363.12 L
417.374 363.12 L
418.109 363.12 L
418.125 363.12 L
418.873 363.119 L
418.89 363.119 L
419.618 363.118 L
419.632 363.118 L
420.371 363.118 L
420.384 363.118 L
421.115 363.117 L
421.132 363.117 L
421.87 363.117 L
421.885 363.117 L
422.625 363.116 L
422.642 363.116 L
423.376 363.116 L
423.39 363.116 L
424.124 363.115 L
424.14 363.115 L
424.87 363.115 L
424.886 363.115 L
425.625 363.114 L
425.641 363.114 L
426.375 363.114 L
426.39 363.114 L
427.127 363.113 L
427.141 363.113 L
427.878 363.113 L
427.894 363.113 L
428.617 363.113 L
428.634 363.113 L
429.38 363.112 L
429.395 363.112 L
430.121 363.112 L
430.138 363.112 L
430.884 363.111 L
430.899 363.111 L
431.629 363.111 L
431.646 363.111 L
432.383 363.111 L
432.4 363.111 L
433.129 363.11 L
433.147 363.11 L
433.886 363.11 L
433.899 363.11 L
434.637 363.109 L
434.651 363.109 L
435.374 363.109 L
435.393 363.109 L
436.135 363.108 L
436.151 363.108 L
436.882 363.108 L
436.902 363.108 L
437.627 363.108 L
437.642 363.108 L
438.385 363.107 L
438.402 363.107 L
439.129 363.107 L
439.149 363.107 L
439.889 363.107 L
439.906 363.107 L
440.63 363.106 L
440.645 363.106 L
441.384 363.106 L
441.406 363.106 L
442.14 363.106 L
442.156 363.106 L
442.892 363.106 L
442.91 363.106 L
443.645 363.105 L
443.659 363.105 L
444.396 363.105 L
444.415 363.105 L
445.135 363.105 L
445.154 363.105 L
445.889 363.104 L
445.905 363.104 L
446.647 363.104 L
446.665 363.104 L
447.393 363.104 L
447.411 363.104 L
448.141 363.104 L
448.156 363.104 L
448.886 363.103 L
448.902 363.103 L
449.635 363.103 L
449.652 363.103 L
450.388 363.103 L
450.403 363.103 L
451.141 363.103 L
451.155 363.103 L
451.9 363.102 L
451.916 363.102 L
452.643 363.102 L
452.66 363.102 L
453.394 363.102 L
453.409 363.102 L
454.14 363.102 L
454.158 363.102 L
454.892 363.101 L
454.908 363.101 L
455.651 363.101 L
455.669 363.101 L
456.407 363.101 L
456.43 363.101 L
457.154 363.1 L
457.168 363.1 L
457.902 363.1 L
457.92 363.1 L
458.658 363.1 L
458.673 363.1 L
459.397 363.1 L
459.414 363.1 L
460.15 363.1 L
460.167 363.1 L
460.909 363.1 L
460.929 363.1 L
461.657 363.099 L
461.672 363.099 L
462.402 363.099 L
462.417 363.099 L
463.159 363.099 L
463.173 363.099 L
463.903 363.099 L
463.92 363.099 L
464.646 363.099 L
464.669 363.099 L
465.409 363.098 L
465.425 363.098 L
466.155 363.098 L
466.17 363.098 L
466.901 363.098 L
466.919 363.098 L
467.657 363.098 L
467.673 363.098 L
468.409 363.098 L
468.425 363.098 L
469.163 363.098 L
469.18 363.098 L
469.9 363.098 L
469.92 363.098 L
470.662 363.097 L
470.681 363.097 L
471.42 363.097 L
471.438 363.097 L
472.161 363.097 L
472.177 363.097 L
472.91 363.097 L
472.925 363.097 L
473.669 363.097 L
473.688 363.097 L
474.418 363.097 L
474.434 363.097 L
475.172 363.097 L
475.186 363.097 L
475.91 363.097 L
475.926 363.097 L
476.672 363.096 L
476.694 363.096 L
477.421 363.096 L
477.443 363.096 L
478.168 363.096 L
478.185 363.096 L
478.921 363.096 L
478.937 363.096 L
479.67 363.096 L
479.688 363.096 L
480.424 363.096 L
480.444 363.096 L
481.173 363.096 L
481.19 363.096 L
481.914 363.096 L
481.935 363.096 L
482.671 363.096 L
482.7 363.096 L
483.419 363.096 L
483.44 363.096 L
484.175 363.096 L
484.191 363.096 L
484.916 363.095 L
484.934 363.095 L
485.68 363.095 L
485.699 363.095 L
486.419 363.095 L
486.435 363.095 L
487.184 363.095 L
487.202 363.095 L
487.919 363.095 L
487.946 363.095 L
488.682 363.095 L
488.707 363.095 L
489.425 363.095 L
489.442 363.095 L
490.168 363.095 L
490.189 363.095 L
490.928 363.095 L
490.948 363.095 L
491.689 363.095 L
491.707 363.095 L
492.44 363.095 L
492.464 363.095 L
493.188 363.095 L
493.206 363.095 L
493.941 363.095 L
493.955 363.095 L
494.684 363.095 L
494.704 363.095 L
495.425 363.095 L
495.449 363.095 L
496.185 363.095 L
496.204 363.095 L
496.941 363.094 L
496.961 363.094 L
497.69 363.094 L
497.709 363.094 L
498.443 363.094 L
498.46 363.094 L
499.192 363.094 L
499.207 363.094 L
499.939 363.094 L
499.957 363.094 L
500.692 363.094 L
500.714 363.094 L
501.439 363.094 L
501.454 363.094 L
502.192 363.094 L
502.211 363.094 L
502.944 363.094 L
502.959 363.094 L
503.698 363.094 L
503.718 363.094 L
504.437 363.094 L
504.451 363.094 L
505.201 363.094 L
505.217 363.094 L
505.937 363.094 L
505.964 363.094 L
506.692 363.094 L
506.707 363.094 L
507 363.094 L
S
GR
GS
1 GC
N
494 194 M
494 153 L
433 153 L
433 194 L
cp
f
GR
GS
[1 0 0 1 470 164.1358] CT
/Helvetica 14.4 F
GS
[1 0 0 1 0 0] CT
0 5 moveto 
1 -1 scale
(Thl) t 
GR
GR
GS
0 0.447 0.741 RC
1 LJ
3 LW
N
437 164.136 M
467 164.136 L
S
GR
GS
[1 0 0 1 470 182.8642] CT
/Helvetica 14.4 F
GS
[1 0 0 1 0 0] CT
0 5 moveto 
1 -1 scale
(Ts) t 
GR
GR
GS
0.851 0.325 0.098 RC
[12 12] 0 setdash
2 LJ
3 LW
N
437 182.864 M
467 182.864 L
S
GR
GS
0.149 GC
10.0 ML
0.5 LW
N
433 194 M
433 153 L
494 153 L
494 194 L
cp
S
GR
%%Trailer
%%Pages: 1
%%EOF
