%!PS-Adobe-3.0 EPSF-3.0
%%Creator: (MATLAB, The Mathworks, Inc. Version 9.3.0.713579 \(R2017b\). Operating System: Mac OS X)
%%Title: ./temperatures1.eps
%%CreationDate: 2018-04-26T20:41:08
%%Pages: (atend)
%%BoundingBox:    20     0   520   395
%%LanguageLevel: 3
%%EndComments
%%BeginProlog
%%BeginResource: procset (Apache XML Graphics Std ProcSet) 1.2 0
%%Version: 1.2 0
%%Copyright: (Copyright 2001-2003,2010 The Apache Software Foundation. License terms: http://www.apache.org/licenses/LICENSE-2.0)
/bd{bind def}bind def
/ld{load def}bd
/GR/grestore ld
/GS/gsave ld
/RM/rmoveto ld
/C/curveto ld
/t/show ld
/L/lineto ld
/ML/setmiterlimit ld
/CT/concat ld
/f/fill ld
/N/newpath ld
/S/stroke ld
/CC/setcmykcolor ld
/A/ashow ld
/cp/closepath ld
/RC/setrgbcolor ld
/LJ/setlinejoin ld
/GC/setgray ld
/LW/setlinewidth ld
/M/moveto ld
/re {4 2 roll M
1 index 0 rlineto
0 exch rlineto
neg 0 rlineto
cp } bd
/_ctm matrix def
/_tm matrix def
/BT { _ctm currentmatrix pop matrix _tm copy pop 0 0 moveto } bd
/ET { _ctm setmatrix } bd
/iTm { _ctm setmatrix _tm concat } bd
/Tm { _tm astore pop iTm 0 0 moveto } bd
/ux 0.0 def
/uy 0.0 def
/F {
  /Tp exch def
  /Tf exch def
  Tf findfont Tp scalefont setfont
  /cf Tf def  /cs Tp def
} bd
/ULS {currentpoint /uy exch def /ux exch def} bd
/ULE {
  /Tcx currentpoint pop def
  gsave
  newpath
  cf findfont cs scalefont dup
  /FontMatrix get 0 get /Ts exch def /FontInfo get dup
  /UnderlinePosition get Ts mul /To exch def
  /UnderlineThickness get Ts mul /Tt exch def
  ux uy To add moveto  Tcx uy To add lineto
  Tt setlinewidth stroke
  grestore
} bd
/OLE {
  /Tcx currentpoint pop def
  gsave
  newpath
  cf findfont cs scalefont dup
  /FontMatrix get 0 get /Ts exch def /FontInfo get dup
  /UnderlinePosition get Ts mul /To exch def
  /UnderlineThickness get Ts mul /Tt exch def
  ux uy To add cs add moveto Tcx uy To add cs add lineto
  Tt setlinewidth stroke
  grestore
} bd
/SOE {
  /Tcx currentpoint pop def
  gsave
  newpath
  cf findfont cs scalefont dup
  /FontMatrix get 0 get /Ts exch def /FontInfo get dup
  /UnderlinePosition get Ts mul /To exch def
  /UnderlineThickness get Ts mul /Tt exch def
  ux uy To add cs 10 mul 26 idiv add moveto Tcx uy To add cs 10 mul 26 idiv add lineto
  Tt setlinewidth stroke
  grestore
} bd
/QT {
/Y22 exch store
/X22 exch store
/Y21 exch store
/X21 exch store
currentpoint
/Y21 load 2 mul add 3 div exch
/X21 load 2 mul add 3 div exch
/X21 load 2 mul /X22 load add 3 div
/Y21 load 2 mul /Y22 load add 3 div
/X22 load /Y22 load curveto
} bd
/SSPD {
dup length /d exch dict def
{
/v exch def
/k exch def
currentpagedevice k known {
/cpdv currentpagedevice k get def
v cpdv ne {
/upd false def
/nullv v type /nulltype eq def
/nullcpdv cpdv type /nulltype eq def
nullv nullcpdv or
{
/upd true def
} {
/sametype v type cpdv type eq def
sametype {
v type /arraytype eq {
/vlen v length def
/cpdvlen cpdv length def
vlen cpdvlen eq {
0 1 vlen 1 sub {
/i exch def
/obj v i get def
/cpdobj cpdv i get def
obj cpdobj ne {
/upd true def
exit
} if
} for
} {
/upd true def
} ifelse
} {
v type /dicttype eq {
v {
/dv exch def
/dk exch def
/cpddv cpdv dk get def
dv cpddv ne {
/upd true def
exit
} if
} forall
} {
/upd true def
} ifelse
} ifelse
} if
} ifelse
upd true eq {
d k v put
} if
} if
} if
} forall
d length 0 gt {
d setpagedevice
} if
} bd
/RE { % /NewFontName [NewEncodingArray] /FontName RE -
  findfont dup length dict begin
  {
    1 index /FID ne
    {def} {pop pop} ifelse
  } forall
  /Encoding exch def
  /FontName 1 index def
  currentdict definefont pop
  end
} bind def
%%EndResource
%%BeginResource: procset (Apache XML Graphics EPS ProcSet) 1.0 0
%%Version: 1.0 0
%%Copyright: (Copyright 2002-2003 The Apache Software Foundation. License terms: http://www.apache.org/licenses/LICENSE-2.0)
/BeginEPSF { %def
/b4_Inc_state save def         % Save state for cleanup
/dict_count countdictstack def % Count objects on dict stack
/op_count count 1 sub def      % Count objects on operand stack
userdict begin                 % Push userdict on dict stack
/showpage { } def              % Redefine showpage, { } = null proc
0 setgray 0 setlinecap         % Prepare graphics state
1 setlinewidth 0 setlinejoin
10 setmiterlimit [ ] 0 setdash newpath
/languagelevel where           % If level not equal to 1 then
{pop languagelevel             % set strokeadjust and
1 ne                           % overprint to their defaults.
{false setstrokeadjust false setoverprint
} if
} if
} bd
/EndEPSF { %def
count op_count sub {pop} repeat            % Clean up stacks
countdictstack dict_count sub {end} repeat
b4_Inc_state restore
} bd
%%EndResource
%FOPBeginFontDict
%%IncludeResource: font Courier-Oblique
%%IncludeResource: font Courier-BoldOblique
%%IncludeResource: font Courier-Bold
%%IncludeResource: font ZapfDingbats
%%IncludeResource: font Symbol
%%IncludeResource: font Helvetica
%%IncludeResource: font Helvetica-Oblique
%%IncludeResource: font Helvetica-Bold
%%IncludeResource: font Helvetica-BoldOblique
%%IncludeResource: font Times-Roman
%%IncludeResource: font Times-Italic
%%IncludeResource: font Times-Bold
%%IncludeResource: font Times-BoldItalic
%%IncludeResource: font Courier
%FOPEndFontDict
%%BeginResource: encoding WinAnsiEncoding
/WinAnsiEncoding [
/.notdef /.notdef /.notdef /.notdef /.notdef
/.notdef /.notdef /.notdef /.notdef /.notdef
/.notdef /.notdef /.notdef /.notdef /.notdef
/.notdef /.notdef /.notdef /.notdef /.notdef
/.notdef /.notdef /.notdef /.notdef /.notdef
/.notdef /.notdef /.notdef /.notdef /.notdef
/.notdef /.notdef /space /exclam /quotedbl
/numbersign /dollar /percent /ampersand /quotesingle
/parenleft /parenright /asterisk /plus /comma
/hyphen /period /slash /zero /one
/two /three /four /five /six
/seven /eight /nine /colon /semicolon
/less /equal /greater /question /at
/A /B /C /D /E
/F /G /H /I /J
/K /L /M /N /O
/P /Q /R /S /T
/U /V /W /X /Y
/Z /bracketleft /backslash /bracketright /asciicircum
/underscore /quoteleft /a /b /c
/d /e /f /g /h
/i /j /k /l /m
/n /o /p /q /r
/s /t /u /v /w
/x /y /z /braceleft /bar
/braceright /asciitilde /bullet /Euro /bullet
/quotesinglbase /florin /quotedblbase /ellipsis /dagger
/daggerdbl /circumflex /perthousand /Scaron /guilsinglleft
/OE /bullet /Zcaron /bullet /bullet
/quoteleft /quoteright /quotedblleft /quotedblright /bullet
/endash /emdash /asciitilde /trademark /scaron
/guilsinglright /oe /bullet /zcaron /Ydieresis
/space /exclamdown /cent /sterling /currency
/yen /brokenbar /section /dieresis /copyright
/ordfeminine /guillemotleft /logicalnot /sfthyphen /registered
/macron /degree /plusminus /twosuperior /threesuperior
/acute /mu /paragraph /middot /cedilla
/onesuperior /ordmasculine /guillemotright /onequarter /onehalf
/threequarters /questiondown /Agrave /Aacute /Acircumflex
/Atilde /Adieresis /Aring /AE /Ccedilla
/Egrave /Eacute /Ecircumflex /Edieresis /Igrave
/Iacute /Icircumflex /Idieresis /Eth /Ntilde
/Ograve /Oacute /Ocircumflex /Otilde /Odieresis
/multiply /Oslash /Ugrave /Uacute /Ucircumflex
/Udieresis /Yacute /Thorn /germandbls /agrave
/aacute /acircumflex /atilde /adieresis /aring
/ae /ccedilla /egrave /eacute /ecircumflex
/edieresis /igrave /iacute /icircumflex /idieresis
/eth /ntilde /ograve /oacute /ocircumflex
/otilde /odieresis /divide /oslash /ugrave
/uacute /ucircumflex /udieresis /yacute /thorn
/ydieresis
] def
%%EndResource
%FOPBeginFontReencode
/Courier-Oblique findfont
dup length dict begin
  {1 index /FID ne {def} {pop pop} ifelse} forall
  /Encoding WinAnsiEncoding def
  currentdict
end
/Courier-Oblique exch definefont pop
/Courier-BoldOblique findfont
dup length dict begin
  {1 index /FID ne {def} {pop pop} ifelse} forall
  /Encoding WinAnsiEncoding def
  currentdict
end
/Courier-BoldOblique exch definefont pop
/Courier-Bold findfont
dup length dict begin
  {1 index /FID ne {def} {pop pop} ifelse} forall
  /Encoding WinAnsiEncoding def
  currentdict
end
/Courier-Bold exch definefont pop
/Helvetica findfont
dup length dict begin
  {1 index /FID ne {def} {pop pop} ifelse} forall
  /Encoding WinAnsiEncoding def
  currentdict
end
/Helvetica exch definefont pop
/Helvetica-Oblique findfont
dup length dict begin
  {1 index /FID ne {def} {pop pop} ifelse} forall
  /Encoding WinAnsiEncoding def
  currentdict
end
/Helvetica-Oblique exch definefont pop
/Helvetica-Bold findfont
dup length dict begin
  {1 index /FID ne {def} {pop pop} ifelse} forall
  /Encoding WinAnsiEncoding def
  currentdict
end
/Helvetica-Bold exch definefont pop
/Helvetica-BoldOblique findfont
dup length dict begin
  {1 index /FID ne {def} {pop pop} ifelse} forall
  /Encoding WinAnsiEncoding def
  currentdict
end
/Helvetica-BoldOblique exch definefont pop
/Times-Roman findfont
dup length dict begin
  {1 index /FID ne {def} {pop pop} ifelse} forall
  /Encoding WinAnsiEncoding def
  currentdict
end
/Times-Roman exch definefont pop
/Times-Italic findfont
dup length dict begin
  {1 index /FID ne {def} {pop pop} ifelse} forall
  /Encoding WinAnsiEncoding def
  currentdict
end
/Times-Italic exch definefont pop
/Times-Bold findfont
dup length dict begin
  {1 index /FID ne {def} {pop pop} ifelse} forall
  /Encoding WinAnsiEncoding def
  currentdict
end
/Times-Bold exch definefont pop
/Times-BoldItalic findfont
dup length dict begin
  {1 index /FID ne {def} {pop pop} ifelse} forall
  /Encoding WinAnsiEncoding def
  currentdict
end
/Times-BoldItalic exch definefont pop
/Courier findfont
dup length dict begin
  {1 index /FID ne {def} {pop pop} ifelse} forall
  /Encoding WinAnsiEncoding def
  currentdict
end
/Courier exch definefont pop
%FOPEndFontReencode
%%EndProlog
%%Page: 1 1
%%PageBoundingBox: 0 0 560 420
%%BeginPageSetup
[1 0 0 -1 0 420] CT
%%EndPageSetup
GS
1 GC
N
0 0 560 420 re
f
GR
GS
1 GC
N
0 0 560 420 re
f
GR
GS
1 GC
N
73 373 M
507 373 L
507 31 L
73 31 L
cp
f
GR
GS
0.873 GC
1 LJ
0.5 LW
N
73 373 M
73 31 L
S
GR
GS
0.873 GC
1 LJ
0.5 LW
N
145.333 373 M
145.333 31 L
S
GR
GS
0.873 GC
1 LJ
0.5 LW
N
217.667 373 M
217.667 31 L
S
GR
GS
0.873 GC
1 LJ
0.5 LW
N
290 373 M
290 31 L
S
GR
GS
0.873 GC
1 LJ
0.5 LW
N
362.333 373 M
362.333 31 L
S
GR
GS
0.873 GC
1 LJ
0.5 LW
N
434.667 373 M
434.667 31 L
S
GR
GS
0.873 GC
1 LJ
0.5 LW
N
507 373 M
507 31 L
S
GR
GS
0.873 GC
1 LJ
0.5 LW
N
507 373 M
73 373 L
S
GR
GS
0.873 GC
1 LJ
0.5 LW
N
507 304.6 M
73 304.6 L
S
GR
GS
0.873 GC
1 LJ
0.5 LW
N
507 236.2 M
73 236.2 L
S
GR
GS
0.873 GC
1 LJ
0.5 LW
N
507 167.8 M
73 167.8 L
S
GR
GS
0.873 GC
1 LJ
0.5 LW
N
507 99.4 M
73 99.4 L
S
GR
GS
0.873 GC
1 LJ
0.5 LW
N
507 31 M
73 31 L
S
GR
GS
0.149 GC
2 setlinecap
1 LJ
0.5 LW
N
73 373 M
507 373 L
S
GR
GS
0.149 GC
2 setlinecap
1 LJ
0.5 LW
N
73 373 M
73 368.66 L
S
GR
GS
0.149 GC
2 setlinecap
1 LJ
0.5 LW
N
145.333 373 M
145.333 368.66 L
S
GR
GS
0.149 GC
2 setlinecap
1 LJ
0.5 LW
N
217.667 373 M
217.667 368.66 L
S
GR
GS
0.149 GC
2 setlinecap
1 LJ
0.5 LW
N
290 373 M
290 368.66 L
S
GR
GS
0.149 GC
2 setlinecap
1 LJ
0.5 LW
N
362.333 373 M
362.333 368.66 L
S
GR
GS
0.149 GC
2 setlinecap
1 LJ
0.5 LW
N
434.667 373 M
434.667 368.66 L
S
GR
GS
0.149 GC
2 setlinecap
1 LJ
0.5 LW
N
507 373 M
507 368.66 L
S
GR
GS
[1 0 0 1 73 378.20013] CT
0.149 GC
/Helvetica 16 F
GS
[1 0 0 1 0 0] CT
-4.5 16 moveto 
1 -1 scale
(0) t 
GR
GR
GS
[1 0 0 1 145.33333 378.20013] CT
0.149 GC
/Helvetica 16 F
GS
[1 0 0 1 0 0] CT
-9 16 moveto 
1 -1 scale
(20) t 
GR
GR
GS
[1 0 0 1 217.66667 378.20013] CT
0.149 GC
/Helvetica 16 F
GS
[1 0 0 1 0 0] CT
-9 16 moveto 
1 -1 scale
(40) t 
GR
GR
GS
[1 0 0 1 290 378.20013] CT
0.149 GC
/Helvetica 16 F
GS
[1 0 0 1 0 0] CT
-9 16 moveto 
1 -1 scale
(60) t 
GR
GR
GS
[1 0 0 1 362.33334 378.20013] CT
0.149 GC
/Helvetica 16 F
GS
[1 0 0 1 0 0] CT
-9 16 moveto 
1 -1 scale
(80) t 
GR
GR
GS
[1 0 0 1 434.66666 378.20013] CT
0.149 GC
/Helvetica 16 F
GS
[1 0 0 1 0 0] CT
-13.5 16 moveto 
1 -1 scale
(100) t 
GR
GR
GS
[1 0 0 1 507 378.20013] CT
0.149 GC
/Helvetica 16 F
GS
[1 0 0 1 0 0] CT
-13.5 16 moveto 
1 -1 scale
(120) t 
GR
GR
GS
[1 0 0 1 290.00021 398.99985] CT
0.149 GC
/Helvetica 17.6 F
GS
[1 0 0 1 0 0] CT
-41 17 moveto 
1 -1 scale
(Tiempo \(s\)) t 
GR
GR
GS
0.149 GC
2 setlinecap
1 LJ
0.5 LW
N
73 373 M
73 31 L
S
GR
GS
0.149 GC
2 setlinecap
1 LJ
0.5 LW
N
73 373 M
77.34 373 L
S
GR
GS
0.149 GC
2 setlinecap
1 LJ
0.5 LW
N
73 304.6 M
77.34 304.6 L
S
GR
GS
0.149 GC
2 setlinecap
1 LJ
0.5 LW
N
73 236.2 M
77.34 236.2 L
S
GR
GS
0.149 GC
2 setlinecap
1 LJ
0.5 LW
N
73 167.8 M
77.34 167.8 L
S
GR
GS
0.149 GC
2 setlinecap
1 LJ
0.5 LW
N
73 99.4 M
77.34 99.4 L
S
GR
GS
0.149 GC
2 setlinecap
1 LJ
0.5 LW
N
73 31 M
77.34 31 L
S
GR
GS
[1 0 0 1 67.8 373] CT
0.149 GC
/Helvetica 16 F
GS
[1 0 0 1 0 0] CT
-27 6 moveto 
1 -1 scale
(550) t 
GR
GR
GS
[1 0 0 1 67.8 304.60001] CT
0.149 GC
/Helvetica 16 F
GS
[1 0 0 1 0 0] CT
-27 6 moveto 
1 -1 scale
(555) t 
GR
GR
GS
[1 0 0 1 67.8 236.2] CT
0.149 GC
/Helvetica 16 F
GS
[1 0 0 1 0 0] CT
-27 6 moveto 
1 -1 scale
(560) t 
GR
GR
GS
[1 0 0 1 67.8 167.8] CT
0.149 GC
/Helvetica 16 F
GS
[1 0 0 1 0 0] CT
-27 6 moveto 
1 -1 scale
(565) t 
GR
GR
GS
[1 0 0 1 67.8 99.4] CT
0.149 GC
/Helvetica 16 F
GS
[1 0 0 1 0 0] CT
-27 6 moveto 
1 -1 scale
(570) t 
GR
GR
GS
[1 0 0 1 67.8 31] CT
0.149 GC
/Helvetica 16 F
GS
[1 0 0 1 0 0] CT
-27 6 moveto 
1 -1 scale
(575) t 
GR
GR
GS
[0 -1 1 0 37.8 202] CT
0.149 GC
/Helvetica 17.6 F
GS
[1 0 0 1 0 0] CT
-63.5 -4 moveto 
1 -1 scale
(Temperatura \(K\)) t 
GR
GR
GS
0 0.447 0.741 RC
1 LJ
3 LW
N
73 99.4 M
73.565 99.4 L
73.566 99.4 L
74.316 99.396 L
74.317 99.396 L
75.067 99.386 L
75.068 99.386 L
75.818 99.367 L
75.819 99.366 L
76.568 99.335 L
76.569 99.335 L
77.318 99.291 L
77.32 99.291 L
78.07 99.234 L
78.071 99.234 L
78.82 99.163 L
78.822 99.162 L
79.57 99.077 L
79.572 99.077 L
80.32 98.978 L
80.322 98.978 L
81.072 98.864 L
81.074 98.863 L
81.822 98.736 L
81.824 98.736 L
82.573 98.595 L
82.576 98.595 L
83.324 98.441 L
83.327 98.441 L
84.074 98.274 L
84.076 98.274 L
84.825 98.094 L
84.828 98.094 L
85.575 97.903 L
85.578 97.902 L
86.325 97.7 L
86.327 97.699 L
87.077 97.484 L
87.08 97.483 L
87.828 97.257 L
87.829 97.257 L
88.579 97.022 L
88.58 97.022 L
89.33 96.782 L
89.331 96.782 L
90.079 96.542 L
90.081 96.541 L
90.83 96.301 L
90.832 96.301 L
91.581 96.063 L
91.583 96.063 L
92.331 95.83 L
92.333 95.829 L
93.082 95.599 L
93.084 95.599 L
93.833 95.374 L
93.835 95.373 L
94.584 95.153 L
94.586 95.152 L
95.334 94.936 L
95.337 94.935 L
96.085 94.723 L
96.088 94.723 L
96.835 94.515 L
96.838 94.515 L
97.586 94.312 L
97.59 94.31 L
98.335 94.111 L
98.339 94.111 L
99.088 93.913 L
99.092 93.913 L
99.836 93.721 L
99.84 93.72 L
100.589 93.529 L
100.593 93.528 L
101.337 93.342 L
101.341 93.341 L
102.089 93.155 L
102.093 93.154 L
102.838 92.972 L
102.842 92.972 L
103.592 92.79 L
103.596 92.79 L
104.341 92.613 L
104.345 92.611 L
105.093 92.435 L
105.097 92.434 L
105.844 92.259 L
105.848 92.259 L
106.594 92.086 L
106.598 92.085 L
107.345 91.914 L
107.349 91.913 L
108.096 91.743 L
108.1 91.743 L
108.847 91.575 L
108.851 91.574 L
109.596 91.408 L
109.6 91.407 L
110.346 91.242 L
110.35 91.241 L
111.098 91.076 L
111.102 91.075 L
111.849 90.913 L
111.853 90.912 L
112.598 90.751 L
112.602 90.751 L
113.35 90.59 L
113.354 90.589 L
114.101 90.431 L
114.105 90.43 L
114.851 90.273 L
114.856 90.272 L
115.601 90.116 L
115.606 90.115 L
116.351 89.962 L
116.355 89.96 L
117.1 89.807 L
117.105 89.806 L
117.854 89.654 L
117.858 89.654 L
118.603 89.502 L
118.608 89.502 L
119.353 89.353 L
119.357 89.352 L
120.107 89.203 L
120.111 89.203 L
120.856 89.057 L
120.86 89.056 L
121.606 88.91 L
121.61 88.91 L
122.357 88.765 L
122.361 88.764 L
123.107 88.622 L
123.112 88.621 L
123.858 88.48 L
123.863 88.479 L
124.61 88.339 L
124.614 88.338 L
125.361 88.199 L
125.366 88.198 L
126.109 88.062 L
126.113 88.061 L
126.861 87.925 L
126.866 87.924 L
127.61 87.79 L
127.614 87.789 L
128.363 87.655 L
128.367 87.655 L
129.112 87.524 L
129.116 87.523 L
129.865 87.392 L
129.87 87.391 L
130.614 87.261 L
130.619 87.261 L
131.363 87.134 L
131.368 87.133 L
132.118 87.005 L
132.123 87.004 L
132.867 86.88 L
132.872 86.879 L
133.617 86.755 L
133.622 86.754 L
134.367 86.632 L
134.372 86.631 L
135.121 86.509 L
135.126 86.508 L
135.871 86.388 L
135.876 86.387 L
136.62 86.269 L
136.625 86.268 L
137.37 86.151 L
137.375 86.15 L
138.12 86.034 L
138.125 86.033 L
138.874 85.917 L
138.879 85.916 L
139.622 85.803 L
139.627 85.803 L
140.371 85.69 L
140.376 85.689 L
141.124 85.577 L
141.129 85.576 L
141.872 85.467 L
141.877 85.466 L
142.625 85.357 L
142.63 85.356 L
143.377 85.247 L
143.383 85.247 L
144.124 85.141 L
144.129 85.14 L
144.875 85.035 L
144.88 85.034 L
145.625 84.929 L
145.63 84.928 L
146.376 84.825 L
146.381 84.824 L
147.131 84.721 L
147.137 84.721 L
147.881 84.62 L
147.886 84.619 L
148.629 84.519 L
148.635 84.518 L
149.382 84.419 L
149.388 84.418 L
150.13 84.321 L
150.135 84.32 L
150.882 84.223 L
150.888 84.222 L
151.634 84.126 L
151.64 84.125 L
152.386 84.031 L
152.391 84.03 L
153.131 83.937 L
153.137 83.936 L
153.886 83.843 L
153.892 83.842 L
154.636 83.75 L
154.641 83.749 L
155.383 83.659 L
155.389 83.658 L
156.137 83.568 L
156.143 83.567 L
156.889 83.479 L
156.895 83.478 L
157.635 83.39 L
157.641 83.39 L
158.387 83.303 L
158.393 83.302 L
159.137 83.216 L
159.143 83.215 L
159.892 83.13 L
159.898 83.129 L
160.64 83.046 L
160.646 83.045 L
161.388 82.962 L
161.394 82.961 L
162.141 82.879 L
162.148 82.878 L
162.893 82.796 L
162.9 82.795 L
163.645 82.715 L
163.651 82.714 L
164.395 82.635 L
164.401 82.634 L
165.144 82.555 L
165.151 82.555 L
165.893 82.477 L
165.899 82.476 L
166.648 82.399 L
166.654 82.398 L
167.395 82.322 L
167.402 82.321 L
168.148 82.246 L
168.155 82.245 L
168.899 82.17 L
168.906 82.17 L
169.651 82.095 L
169.657 82.095 L
170.4 82.022 L
170.407 82.021 L
171.148 81.949 L
171.155 81.948 L
171.897 81.878 L
171.904 81.877 L
172.649 81.806 L
172.656 81.805 L
173.403 81.735 L
173.41 81.734 L
174.148 81.665 L
174.156 81.665 L
174.9 81.596 L
174.908 81.596 L
175.654 81.528 L
175.661 81.528 L
176.405 81.461 L
176.412 81.46 L
177.155 81.394 L
177.162 81.393 L
177.905 81.328 L
177.912 81.327 L
178.659 81.262 L
178.667 81.261 L
179.408 81.198 L
179.416 81.197 L
180.157 81.134 L
180.164 81.134 L
180.91 81.07 L
180.918 81.07 L
181.657 81.008 L
181.665 81.007 L
182.412 80.946 L
182.42 80.946 L
183.157 80.886 L
183.165 80.885 L
183.909 80.825 L
183.917 80.824 L
184.664 80.765 L
184.672 80.764 L
185.408 80.706 L
185.416 80.705 L
186.163 80.647 L
186.171 80.647 L
186.91 80.589 L
186.919 80.588 L
187.664 80.532 L
187.673 80.532 L
188.411 80.476 L
188.42 80.475 L
189.164 80.42 L
189.173 80.419 L
189.918 80.364 L
189.926 80.363 L
190.663 80.309 L
190.673 80.309 L
191.417 80.255 L
191.426 80.254 L
192.165 80.202 L
192.174 80.201 L
192.916 80.148 L
192.926 80.148 L
193.67 80.096 L
193.679 80.096 L
194.417 80.045 L
194.427 80.044 L
195.168 79.993 L
195.178 79.993 L
195.923 79.942 L
195.933 79.942 L
196.672 79.893 L
196.682 79.892 L
197.422 79.843 L
197.433 79.842 L
198.174 79.793 L
198.185 79.793 L
198.923 79.746 L
198.934 79.745 L
199.674 79.697 L
199.686 79.697 L
200.425 79.65 L
200.438 79.649 L
201.168 79.604 L
201.18 79.603 L
201.923 79.557 L
201.936 79.556 L
202.669 79.512 L
202.684 79.511 L
203.429 79.466 L
203.444 79.465 L
204.177 79.421 L
204.193 79.42 L
204.93 79.377 L
204.945 79.376 L
205.674 79.333 L
205.688 79.333 L
206.425 79.29 L
206.439 79.289 L
207.178 79.247 L
207.191 79.247 L
207.934 79.205 L
207.945 79.204 L
208.676 79.163 L
208.688 79.162 L
209.435 79.121 L
209.447 79.12 L
210.181 79.08 L
210.192 79.08 L
210.93 79.04 L
210.941 79.039 L
211.68 79 L
211.691 78.999 L
212.437 78.96 L
212.448 78.96 L
213.185 78.922 L
213.196 78.921 L
213.931 78.883 L
213.942 78.883 L
214.686 78.844 L
214.697 78.844 L
215.44 78.807 L
215.45 78.806 L
216.186 78.77 L
216.197 78.769 L
216.935 78.732 L
216.945 78.732 L
217.684 78.696 L
217.695 78.695 L
218.44 78.66 L
218.451 78.659 L
219.195 78.624 L
219.205 78.624 L
219.939 78.589 L
219.95 78.589 L
220.689 78.554 L
220.699 78.554 L
221.443 78.519 L
221.452 78.518 L
222.189 78.485 L
222.199 78.485 L
222.943 78.452 L
222.953 78.451 L
223.698 78.417 L
223.708 78.417 L
224.447 78.385 L
224.457 78.385 L
225.197 78.352 L
225.207 78.352 L
225.943 78.321 L
225.953 78.32 L
226.7 78.288 L
226.71 78.288 L
227.45 78.256 L
227.46 78.256 L
228.195 78.225 L
228.205 78.225 L
228.948 78.195 L
228.958 78.194 L
229.705 78.164 L
229.715 78.164 L
230.45 78.134 L
230.46 78.134 L
231.201 78.104 L
231.21 78.104 L
231.957 78.075 L
231.967 78.074 L
232.706 78.046 L
232.716 78.046 L
233.449 78.017 L
233.459 78.017 L
234.201 77.989 L
234.211 77.989 L
234.954 77.961 L
234.964 77.961 L
235.709 77.933 L
235.718 77.932 L
236.46 77.906 L
236.47 77.906 L
237.21 77.879 L
237.22 77.878 L
237.954 77.852 L
237.963 77.851 L
238.706 77.825 L
238.715 77.825 L
239.456 77.8 L
239.465 77.799 L
240.205 77.774 L
240.215 77.773 L
240.96 77.748 L
240.969 77.747 L
241.709 77.723 L
241.719 77.722 L
242.465 77.697 L
242.475 77.697 L
243.209 77.673 L
243.218 77.673 L
243.961 77.648 L
243.971 77.648 L
244.714 77.624 L
244.724 77.623 L
245.467 77.6 L
245.477 77.6 L
246.211 77.577 L
246.221 77.577 L
246.969 77.553 L
246.978 77.553 L
247.712 77.531 L
247.722 77.53 L
248.465 77.507 L
248.475 77.507 L
249.218 77.485 L
249.227 77.485 L
249.972 77.462 L
249.982 77.462 L
250.717 77.441 L
250.727 77.441 L
251.475 77.419 L
251.484 77.419 L
252.222 77.397 L
252.231 77.397 L
252.974 77.376 L
252.983 77.376 L
253.722 77.355 L
253.732 77.355 L
254.477 77.334 L
254.487 77.334 L
255.22 77.314 L
255.23 77.314 L
255.972 77.294 L
255.982 77.294 L
256.724 77.274 L
256.734 77.274 L
257.474 77.254 L
257.485 77.253 L
258.228 77.234 L
258.237 77.234 L
258.979 77.215 L
258.99 77.215 L
259.725 77.196 L
259.735 77.196 L
260.477 77.177 L
260.487 77.177 L
261.227 77.158 L
261.237 77.158 L
261.975 77.14 L
261.985 77.14 L
262.732 77.122 L
262.741 77.122 L
263.481 77.104 L
263.491 77.103 L
264.228 77.086 L
264.238 77.086 L
264.984 77.068 L
264.994 77.068 L
265.731 77.051 L
265.741 77.051 L
266.488 77.034 L
266.498 77.034 L
267.234 77.017 L
267.245 77.016 L
267.98 77.001 L
267.99 77 L
268.733 76.984 L
268.743 76.984 L
269.486 76.967 L
269.497 76.967 L
270.236 76.951 L
270.246 76.951 L
270.989 76.935 L
270.999 76.935 L
271.74 76.92 L
271.751 76.919 L
272.486 76.904 L
272.496 76.904 L
273.242 76.889 L
273.252 76.888 L
273.993 76.873 L
274.003 76.873 L
274.738 76.858 L
274.748 76.858 L
275.487 76.844 L
275.497 76.843 L
276.237 76.828 L
276.247 76.828 L
276.992 76.814 L
277.002 76.813 L
277.738 76.799 L
277.749 76.799 L
278.498 76.785 L
278.508 76.785 L
279.241 76.772 L
279.251 76.771 L
279.995 76.758 L
280.006 76.758 L
280.747 76.744 L
280.757 76.743 L
281.499 76.73 L
281.51 76.73 L
282.244 76.717 L
282.254 76.717 L
283.002 76.704 L
283.012 76.703 L
283.748 76.691 L
283.759 76.691 L
284.494 76.678 L
284.504 76.678 L
285.245 76.666 L
285.256 76.665 L
285.996 76.653 L
286.007 76.652 L
286.755 76.641 L
286.765 76.64 L
287.5 76.628 L
287.511 76.628 L
288.257 76.616 L
288.268 76.616 L
289.006 76.604 L
289.016 76.604 L
289.758 76.592 L
289.769 76.592 L
290.499 76.581 L
290.51 76.581 L
291.251 76.569 L
291.262 76.569 L
292.007 76.558 L
292.017 76.557 L
292.76 76.546 L
292.77 76.546 L
293.505 76.535 L
293.517 76.535 L
294.26 76.525 L
294.272 76.524 L
295.013 76.514 L
295.024 76.513 L
295.757 76.503 L
295.768 76.503 L
296.509 76.492 L
296.519 76.492 L
297.264 76.482 L
297.275 76.481 L
298.01 76.471 L
298.021 76.471 L
298.766 76.461 L
298.777 76.461 L
299.513 76.451 L
299.524 76.451 L
300.258 76.441 L
300.269 76.441 L
301.01 76.431 L
301.021 76.431 L
301.759 76.422 L
301.769 76.422 L
302.512 76.412 L
302.524 76.412 L
303.267 76.403 L
303.279 76.403 L
304.017 76.393 L
304.029 76.393 L
304.765 76.384 L
304.776 76.384 L
305.517 76.375 L
305.528 76.375 L
306.268 76.366 L
306.278 76.366 L
307.022 76.357 L
307.033 76.357 L
307.774 76.348 L
307.785 76.348 L
308.52 76.34 L
308.531 76.339 L
309.269 76.331 L
309.28 76.331 L
310.024 76.323 L
310.036 76.323 L
310.775 76.314 L
310.786 76.314 L
311.527 76.306 L
311.539 76.306 L
312.277 76.297 L
312.288 76.297 L
313.024 76.29 L
313.035 76.29 L
313.77 76.282 L
313.781 76.282 L
314.52 76.274 L
314.532 76.274 L
315.275 76.267 L
315.286 76.267 L
316.029 76.259 L
316.04 76.258 L
316.776 76.252 L
316.789 76.251 L
317.529 76.244 L
317.541 76.243 L
318.281 76.237 L
318.293 76.237 L
319.034 76.229 L
319.046 76.229 L
319.781 76.221 L
319.792 76.221 L
320.536 76.215 L
320.546 76.215 L
321.279 76.208 L
321.291 76.208 L
322.037 76.201 L
322.048 76.201 L
322.781 76.194 L
322.793 76.194 L
323.529 76.187 L
323.541 76.187 L
324.279 76.181 L
324.291 76.181 L
325.035 76.174 L
325.047 76.174 L
325.787 76.168 L
325.799 76.167 L
326.531 76.161 L
326.543 76.161 L
327.286 76.155 L
327.298 76.155 L
328.037 76.149 L
328.05 76.149 L
328.783 76.143 L
328.796 76.142 L
329.534 76.136 L
329.546 76.136 L
330.292 76.13 L
330.304 76.13 L
331.037 76.125 L
331.049 76.125 L
331.785 76.119 L
331.797 76.119 L
332.542 76.113 L
332.555 76.113 L
333.288 76.107 L
333.301 76.107 L
334.042 76.102 L
334.054 76.101 L
334.789 76.096 L
334.801 76.096 L
335.544 76.09 L
335.556 76.09 L
336.299 76.085 L
336.311 76.085 L
337.047 76.08 L
337.058 76.08 L
337.797 76.075 L
337.809 76.075 L
338.55 76.07 L
338.562 76.07 L
339.292 76.065 L
339.305 76.065 L
340.044 76.06 L
340.056 76.06 L
340.795 76.054 L
340.807 76.054 L
341.549 76.049 L
341.562 76.049 L
342.294 76.044 L
342.307 76.044 L
343.045 76.039 L
343.058 76.039 L
343.799 76.035 L
343.811 76.035 L
344.552 76.03 L
344.564 76.03 L
345.3 76.026 L
345.312 76.026 L
346.055 76.021 L
346.069 76.021 L
346.802 76.017 L
346.814 76.017 L
347.559 76.012 L
347.572 76.012 L
348.304 76.008 L
348.317 76.008 L
349.052 76.004 L
349.064 76.004 L
349.801 75.999 L
349.814 75.999 L
350.557 75.995 L
350.57 75.995 L
351.309 75.991 L
351.321 75.991 L
352.063 75.987 L
352.076 75.987 L
352.813 75.983 L
352.825 75.983 L
353.558 75.979 L
353.571 75.979 L
354.305 75.975 L
354.318 75.975 L
355.063 75.971 L
355.075 75.971 L
355.813 75.968 L
355.826 75.968 L
356.558 75.963 L
356.571 75.963 L
357.316 75.96 L
357.329 75.96 L
358.068 75.956 L
358.081 75.956 L
358.82 75.953 L
358.834 75.953 L
359.569 75.949 L
359.583 75.949 L
360.311 75.946 L
360.325 75.945 L
361.06 75.942 L
361.076 75.942 L
361.822 75.938 L
361.836 75.938 L
362.565 75.935 L
362.58 75.935 L
363.311 75.932 L
363.325 75.932 L
364.063 75.928 L
364.076 75.928 L
364.821 75.925 L
364.836 75.925 L
365.569 75.923 L
365.585 75.923 L
366.322 75.919 L
366.334 75.919 L
367.068 75.916 L
367.082 75.916 L
367.826 75.913 L
367.841 75.913 L
368.573 75.91 L
368.586 75.91 L
369.327 75.907 L
369.34 75.907 L
370.067 75.904 L
370.081 75.904 L
370.827 75.901 L
370.841 75.901 L
371.576 75.898 L
371.59 75.898 L
372.328 75.896 L
372.341 75.895 L
373.083 75.893 L
373.097 75.893 L
373.833 75.89 L
373.848 75.89 L
374.578 75.887 L
374.593 75.887 L
375.326 75.885 L
375.342 75.884 L
376.077 75.882 L
376.091 75.882 L
376.831 75.879 L
376.844 75.879 L
377.585 75.877 L
377.598 75.877 L
378.337 75.874 L
378.351 75.874 L
379.083 75.872 L
379.096 75.872 L
379.829 75.869 L
379.844 75.869 L
380.577 75.867 L
380.59 75.867 L
381.329 75.865 L
381.343 75.865 L
382.085 75.862 L
382.099 75.862 L
382.838 75.86 L
382.853 75.86 L
383.585 75.857 L
383.598 75.857 L
384.334 75.856 L
384.349 75.856 L
385.085 75.853 L
385.1 75.853 L
385.842 75.851 L
385.857 75.851 L
386.586 75.849 L
386.6 75.849 L
387.344 75.847 L
387.36 75.847 L
388.089 75.845 L
388.104 75.845 L
388.845 75.842 L
388.858 75.842 L
389.59 75.841 L
389.603 75.841 L
390.344 75.839 L
390.359 75.839 L
391.093 75.837 L
391.108 75.837 L
391.847 75.835 L
391.862 75.835 L
392.598 75.833 L
392.613 75.833 L
393.349 75.832 L
393.367 75.831 L
394.092 75.829 L
394.106 75.829 L
394.847 75.827 L
394.861 75.827 L
395.598 75.826 L
395.612 75.826 L
396.343 75.824 L
396.358 75.824 L
397.091 75.822 L
397.106 75.822 L
397.851 75.821 L
397.865 75.821 L
398.597 75.819 L
398.61 75.819 L
399.35 75.817 L
399.367 75.817 L
400.102 75.816 L
400.116 75.816 L
400.857 75.814 L
400.871 75.814 L
401.607 75.812 L
401.62 75.812 L
402.356 75.811 L
402.37 75.811 L
403.109 75.809 L
403.123 75.809 L
403.849 75.808 L
403.864 75.808 L
404.603 75.807 L
404.619 75.807 L
405.361 75.805 L
405.375 75.805 L
406.11 75.803 L
406.123 75.803 L
406.852 75.802 L
406.869 75.802 L
407.6 75.801 L
407.615 75.801 L
408.364 75.799 L
408.378 75.799 L
409.101 75.798 L
409.119 75.798 L
409.856 75.796 L
409.873 75.796 L
410.609 75.796 L
410.626 75.796 L
411.356 75.794 L
411.371 75.794 L
412.115 75.793 L
412.134 75.793 L
412.866 75.791 L
412.885 75.791 L
413.617 75.791 L
413.631 75.791 L
414.368 75.789 L
414.384 75.789 L
415.109 75.788 L
415.123 75.788 L
415.864 75.786 L
415.879 75.786 L
416.612 75.786 L
416.628 75.786 L
417.357 75.785 L
417.374 75.785 L
418.109 75.783 L
418.125 75.783 L
418.873 75.782 L
418.89 75.782 L
419.618 75.781 L
419.632 75.781 L
420.371 75.781 L
420.384 75.781 L
421.115 75.779 L
421.132 75.779 L
421.87 75.778 L
421.885 75.778 L
422.625 75.777 L
422.642 75.777 L
423.376 75.776 L
423.39 75.776 L
424.124 75.776 L
424.14 75.776 L
424.87 75.774 L
424.886 75.774 L
425.625 75.773 L
425.641 75.773 L
426.375 75.772 L
426.39 75.772 L
427.127 75.771 L
427.141 75.771 L
427.878 75.771 L
427.894 75.771 L
428.617 75.77 L
428.634 75.77 L
429.38 75.769 L
429.395 75.769 L
430.121 75.768 L
430.138 75.768 L
430.884 75.767 L
430.899 75.767 L
431.629 75.766 L
431.646 75.766 L
432.383 75.766 L
432.4 75.766 L
433.129 75.765 L
433.147 75.765 L
433.886 75.764 L
433.899 75.764 L
434.637 75.763 L
434.651 75.763 L
435.374 75.763 L
435.393 75.763 L
436.135 75.762 L
436.151 75.762 L
436.882 75.761 L
436.902 75.761 L
437.627 75.761 L
437.642 75.761 L
438.385 75.76 L
438.402 75.76 L
439.129 75.759 L
439.149 75.759 L
439.889 75.759 L
439.906 75.759 L
440.63 75.758 L
440.645 75.758 L
441.384 75.757 L
441.406 75.757 L
442.14 75.756 L
442.156 75.756 L
442.892 75.756 L
442.91 75.756 L
443.645 75.756 L
443.659 75.756 L
444.396 75.755 L
444.415 75.755 L
445.135 75.755 L
445.154 75.755 L
445.889 75.754 L
445.905 75.754 L
446.647 75.753 L
446.665 75.753 L
447.393 75.753 L
447.411 75.753 L
448.141 75.752 L
448.156 75.752 L
448.886 75.751 L
448.902 75.751 L
449.635 75.751 L
449.652 75.751 L
450.388 75.751 L
450.403 75.751 L
451.141 75.751 L
451.155 75.751 L
451.9 75.75 L
451.916 75.75 L
452.643 75.75 L
452.66 75.749 L
453.394 75.749 L
453.409 75.749 L
454.14 75.748 L
454.158 75.748 L
454.892 75.748 L
454.908 75.748 L
455.651 75.747 L
455.669 75.747 L
456.407 75.747 L
456.43 75.747 L
457.154 75.746 L
457.168 75.746 L
457.902 75.746 L
457.92 75.746 L
458.658 75.746 L
458.673 75.746 L
459.397 75.746 L
459.414 75.746 L
460.15 75.746 L
460.167 75.746 L
460.909 75.745 L
460.929 75.745 L
461.657 75.745 L
461.672 75.745 L
462.402 75.744 L
462.417 75.744 L
463.159 75.744 L
463.173 75.744 L
463.903 75.744 L
463.92 75.744 L
464.646 75.743 L
464.669 75.743 L
465.409 75.743 L
465.425 75.743 L
466.155 75.742 L
466.17 75.742 L
466.901 75.742 L
466.919 75.742 L
467.657 75.742 L
467.673 75.742 L
468.409 75.741 L
468.425 75.741 L
469.163 75.741 L
469.18 75.741 L
469.9 75.741 L
469.92 75.741 L
470.662 75.741 L
470.681 75.741 L
471.42 75.741 L
471.438 75.741 L
472.161 75.741 L
472.177 75.741 L
472.91 75.741 L
472.925 75.741 L
473.669 75.74 L
473.688 75.74 L
474.418 75.74 L
474.434 75.74 L
475.172 75.74 L
475.186 75.74 L
475.91 75.74 L
475.926 75.74 L
476.672 75.739 L
476.694 75.739 L
477.421 75.739 L
477.443 75.739 L
478.168 75.739 L
478.185 75.739 L
478.921 75.739 L
478.937 75.739 L
479.67 75.738 L
479.688 75.738 L
480.424 75.738 L
480.444 75.738 L
481.173 75.738 L
481.19 75.738 L
481.914 75.738 L
481.935 75.738 L
482.671 75.738 L
482.7 75.738 L
483.419 75.737 L
483.44 75.737 L
484.175 75.737 L
484.191 75.737 L
484.916 75.737 L
484.934 75.737 L
485.68 75.737 L
485.699 75.737 L
486.419 75.737 L
486.435 75.737 L
487.184 75.737 L
487.202 75.737 L
487.919 75.737 L
487.946 75.737 L
488.682 75.736 L
488.707 75.736 L
489.425 75.736 L
489.442 75.736 L
490.168 75.736 L
490.189 75.736 L
490.928 75.736 L
490.948 75.736 L
491.689 75.736 L
491.707 75.736 L
492.44 75.736 L
492.464 75.736 L
493.188 75.736 L
493.206 75.736 L
493.941 75.736 L
493.955 75.736 L
494.684 75.736 L
494.704 75.736 L
495.425 75.736 L
495.449 75.736 L
496.185 75.736 L
496.204 75.736 L
496.941 75.736 L
496.961 75.736 L
497.69 75.736 L
497.709 75.736 L
498.443 75.736 L
498.46 75.736 L
499.192 75.736 L
499.207 75.736 L
499.939 75.736 L
499.957 75.736 L
500.692 75.736 L
500.714 75.736 L
501.439 75.736 L
501.454 75.736 L
502.192 75.736 L
502.211 75.736 L
502.944 75.736 L
502.959 75.736 L
503.698 75.736 L
503.718 75.736 L
504.437 75.736 L
504.451 75.736 L
505.201 75.736 L
505.217 75.736 L
505.937 75.736 L
505.964 75.736 L
506.692 75.736 L
506.707 75.736 L
507 75.736 L
S
GR
GS
0.851 0.325 0.098 RC
[12 12] 0 setdash
2 LJ
3 LW
N
73 373 M
73.565 373 L
73.566 373 L
74.316 373 L
74.317 373 L
75.067 373 L
75.068 373 L
75.818 373 L
75.819 373 L
76.568 372.999 L
76.569 372.999 L
77.318 372.998 L
77.32 372.998 L
78.07 372.997 L
78.071 372.997 L
78.82 372.994 L
78.822 372.994 L
79.57 372.99 L
79.572 372.99 L
80.32 372.983 L
80.322 372.983 L
81.072 372.974 L
81.074 372.974 L
81.822 372.962 L
81.824 372.962 L
82.573 372.947 L
82.576 372.947 L
83.324 372.927 L
83.327 372.927 L
84.074 372.901 L
84.076 372.901 L
84.825 372.871 L
84.828 372.871 L
85.575 372.836 L
85.578 372.836 L
86.325 372.793 L
86.327 372.793 L
87.077 372.744 L
87.08 372.743 L
87.828 372.686 L
87.829 372.686 L
88.579 372.621 L
88.58 372.621 L
89.33 372.547 L
89.331 372.547 L
90.079 372.466 L
90.081 372.466 L
90.83 372.375 L
90.832 372.374 L
91.581 372.274 L
91.583 372.274 L
92.331 372.165 L
92.333 372.165 L
93.082 372.046 L
93.084 372.046 L
93.833 371.92 L
93.835 371.92 L
94.584 371.784 L
94.586 371.784 L
95.334 371.642 L
95.337 371.641 L
96.085 371.49 L
96.088 371.49 L
96.835 371.332 L
96.838 371.331 L
97.586 371.166 L
97.59 371.166 L
98.335 370.995 L
98.339 370.994 L
99.088 370.818 L
99.092 370.817 L
99.836 370.637 L
99.84 370.635 L
100.589 370.449 L
100.593 370.448 L
101.337 370.26 L
101.341 370.259 L
102.089 370.065 L
102.093 370.064 L
102.838 369.869 L
102.842 369.867 L
103.592 369.669 L
103.596 369.668 L
104.341 369.467 L
104.345 369.466 L
105.093 369.264 L
105.097 369.264 L
105.844 369.061 L
105.848 369.06 L
106.594 368.856 L
106.598 368.855 L
107.345 368.652 L
107.349 368.65 L
108.096 368.446 L
108.1 368.445 L
108.847 368.242 L
108.851 368.241 L
109.596 368.038 L
109.6 368.037 L
110.346 367.835 L
110.35 367.834 L
111.098 367.633 L
111.102 367.631 L
111.849 367.432 L
111.853 367.431 L
112.598 367.233 L
112.602 367.232 L
113.35 367.035 L
113.354 367.033 L
114.101 366.839 L
114.105 366.837 L
114.851 366.644 L
114.856 366.643 L
115.601 366.452 L
115.606 366.451 L
116.351 366.262 L
116.355 366.261 L
117.1 366.074 L
117.105 366.072 L
117.854 365.887 L
117.858 365.885 L
118.603 365.702 L
118.608 365.702 L
119.353 365.521 L
119.357 365.52 L
120.107 365.34 L
120.111 365.339 L
120.856 365.162 L
120.86 365.161 L
121.606 364.987 L
121.61 364.986 L
122.357 364.813 L
122.361 364.812 L
123.107 364.641 L
123.112 364.64 L
123.858 364.472 L
123.863 364.471 L
124.61 364.304 L
124.614 364.303 L
125.361 364.139 L
125.366 364.138 L
126.109 363.976 L
126.113 363.975 L
126.861 363.814 L
126.866 363.813 L
127.61 363.654 L
127.614 363.653 L
128.363 363.496 L
128.367 363.495 L
129.112 363.34 L
129.116 363.34 L
129.865 363.186 L
129.87 363.185 L
130.614 363.034 L
130.619 363.033 L
131.363 362.884 L
131.368 362.883 L
132.118 362.734 L
132.123 362.732 L
132.867 362.587 L
132.872 362.586 L
133.617 362.441 L
133.622 362.44 L
134.367 362.297 L
134.372 362.297 L
135.121 362.155 L
135.126 362.154 L
135.871 362.014 L
135.876 362.013 L
136.62 361.875 L
136.625 361.874 L
137.37 361.737 L
137.375 361.736 L
138.12 361.601 L
138.125 361.6 L
138.874 361.466 L
138.879 361.465 L
139.622 361.332 L
139.627 361.331 L
140.371 361.201 L
140.376 361.2 L
141.124 361.07 L
141.129 361.069 L
141.872 360.941 L
141.877 360.94 L
142.625 360.813 L
142.63 360.812 L
143.377 360.686 L
143.383 360.685 L
144.124 360.562 L
144.129 360.561 L
144.875 360.437 L
144.88 360.436 L
145.625 360.315 L
145.63 360.314 L
146.376 360.193 L
146.381 360.193 L
147.131 360.072 L
147.137 360.071 L
147.881 359.954 L
147.886 359.953 L
148.629 359.837 L
148.635 359.836 L
149.382 359.72 L
149.388 359.719 L
150.13 359.605 L
150.135 359.604 L
150.882 359.491 L
150.888 359.49 L
151.634 359.378 L
151.64 359.377 L
152.386 359.266 L
152.391 359.265 L
153.131 359.156 L
153.137 359.156 L
153.886 359.046 L
153.892 359.045 L
154.636 358.938 L
154.641 358.938 L
155.383 358.832 L
155.389 358.831 L
156.137 358.725 L
156.143 358.725 L
156.889 358.62 L
156.895 358.619 L
157.635 358.517 L
157.641 358.516 L
158.387 358.414 L
158.393 358.413 L
159.137 358.313 L
159.143 358.312 L
159.892 358.212 L
159.898 358.211 L
160.64 358.113 L
160.646 358.112 L
161.388 358.015 L
161.394 358.014 L
162.141 357.916 L
162.148 357.916 L
162.893 357.82 L
162.9 357.82 L
163.645 357.725 L
163.651 357.724 L
164.395 357.631 L
164.401 357.63 L
165.144 357.537 L
165.151 357.537 L
165.893 357.446 L
165.899 357.445 L
166.648 357.354 L
166.654 357.353 L
167.395 357.263 L
167.402 357.263 L
168.148 357.174 L
168.155 357.173 L
168.899 357.086 L
168.906 357.085 L
169.651 356.998 L
169.657 356.997 L
170.4 356.912 L
170.407 356.911 L
171.148 356.826 L
171.155 356.825 L
171.897 356.742 L
171.904 356.741 L
172.649 356.658 L
172.656 356.657 L
173.403 356.575 L
173.41 356.574 L
174.148 356.493 L
174.156 356.492 L
174.9 356.412 L
174.908 356.411 L
175.654 356.332 L
175.661 356.331 L
176.405 356.252 L
176.412 356.252 L
177.155 356.174 L
177.162 356.173 L
177.905 356.096 L
177.912 356.095 L
178.659 356.019 L
178.667 356.018 L
179.408 355.943 L
179.416 355.942 L
180.157 355.868 L
180.164 355.867 L
180.91 355.793 L
180.918 355.792 L
181.657 355.72 L
181.665 355.72 L
182.412 355.647 L
182.42 355.646 L
183.157 355.575 L
183.165 355.575 L
183.909 355.504 L
183.917 355.503 L
184.664 355.433 L
184.672 355.432 L
185.408 355.365 L
185.416 355.364 L
186.163 355.296 L
186.171 355.295 L
186.91 355.227 L
186.919 355.226 L
187.664 355.159 L
187.673 355.159 L
188.411 355.093 L
188.42 355.093 L
189.164 355.027 L
189.173 355.027 L
189.918 354.962 L
189.926 354.961 L
190.663 354.897 L
190.673 354.897 L
191.417 354.834 L
191.426 354.833 L
192.165 354.77 L
192.174 354.77 L
192.916 354.708 L
192.926 354.708 L
193.67 354.646 L
193.679 354.646 L
194.417 354.586 L
194.427 354.585 L
195.168 354.525 L
195.178 354.524 L
195.923 354.465 L
195.933 354.465 L
196.672 354.406 L
196.682 354.405 L
197.422 354.348 L
197.433 354.347 L
198.174 354.29 L
198.185 354.289 L
198.923 354.233 L
198.934 354.232 L
199.674 354.177 L
199.686 354.176 L
200.425 354.121 L
200.438 354.12 L
201.168 354.066 L
201.18 354.065 L
201.923 354.01 L
201.936 354.01 L
202.669 353.957 L
202.684 353.956 L
203.429 353.903 L
203.444 353.902 L
204.177 353.85 L
204.193 353.849 L
204.93 353.798 L
204.945 353.797 L
205.674 353.747 L
205.688 353.746 L
206.425 353.696 L
206.439 353.695 L
207.178 353.645 L
207.191 353.644 L
207.934 353.595 L
207.945 353.594 L
208.676 353.545 L
208.688 353.545 L
209.435 353.496 L
209.447 353.495 L
210.181 353.449 L
210.192 353.448 L
210.93 353.4 L
210.941 353.4 L
211.68 353.353 L
211.691 353.353 L
212.437 353.306 L
212.448 353.306 L
213.185 353.26 L
213.196 353.259 L
213.931 353.215 L
213.942 353.214 L
214.686 353.169 L
214.697 353.169 L
215.44 353.125 L
215.45 353.124 L
216.186 353.08 L
216.197 353.079 L
216.935 353.037 L
216.945 353.036 L
217.684 352.993 L
217.695 352.993 L
218.44 352.951 L
218.451 352.95 L
219.195 352.908 L
219.205 352.908 L
219.939 352.867 L
219.95 352.866 L
220.689 352.826 L
220.699 352.825 L
221.443 352.785 L
221.452 352.784 L
222.189 352.745 L
222.199 352.744 L
222.943 352.704 L
222.953 352.704 L
223.698 352.665 L
223.708 352.664 L
224.447 352.625 L
224.457 352.625 L
225.197 352.587 L
225.207 352.586 L
225.943 352.549 L
225.953 352.548 L
226.7 352.511 L
226.71 352.51 L
227.45 352.473 L
227.46 352.473 L
228.195 352.437 L
228.205 352.437 L
228.948 352.401 L
228.958 352.4 L
229.705 352.364 L
229.715 352.364 L
230.45 352.329 L
230.46 352.328 L
231.201 352.294 L
231.21 352.293 L
231.957 352.259 L
231.967 352.258 L
232.706 352.224 L
232.716 352.224 L
233.449 352.19 L
233.459 352.19 L
234.201 352.157 L
234.211 352.156 L
234.954 352.123 L
234.964 352.123 L
235.709 352.09 L
235.718 352.09 L
236.46 352.057 L
236.47 352.057 L
237.21 352.026 L
237.22 352.025 L
237.954 351.994 L
237.963 351.993 L
238.706 351.962 L
238.715 351.962 L
239.456 351.931 L
239.465 351.931 L
240.205 351.901 L
240.215 351.901 L
240.96 351.87 L
240.969 351.87 L
241.709 351.84 L
241.719 351.84 L
242.465 351.81 L
242.475 351.81 L
243.209 351.781 L
243.218 351.781 L
243.961 351.752 L
243.971 351.752 L
244.714 351.724 L
244.724 351.723 L
245.467 351.695 L
245.477 351.694 L
246.211 351.668 L
246.221 351.667 L
246.969 351.639 L
246.978 351.639 L
247.712 351.612 L
247.722 351.612 L
248.465 351.585 L
248.475 351.585 L
249.218 351.558 L
249.227 351.557 L
249.972 351.531 L
249.982 351.531 L
250.717 351.506 L
250.727 351.506 L
251.475 351.48 L
251.484 351.479 L
252.222 351.454 L
252.231 351.454 L
252.974 351.429 L
252.983 351.429 L
253.722 351.404 L
253.732 351.404 L
254.477 351.38 L
254.487 351.379 L
255.22 351.355 L
255.23 351.354 L
255.972 351.331 L
255.982 351.33 L
256.724 351.307 L
256.734 351.307 L
257.474 351.284 L
257.485 351.284 L
258.228 351.26 L
258.237 351.26 L
258.979 351.237 L
258.99 351.237 L
259.725 351.214 L
259.735 351.214 L
260.477 351.192 L
260.487 351.192 L
261.227 351.17 L
261.237 351.169 L
261.975 351.148 L
261.985 351.147 L
262.732 351.126 L
262.741 351.126 L
263.481 351.105 L
263.491 351.104 L
264.228 351.084 L
264.238 351.083 L
264.984 351.062 L
264.994 351.062 L
265.731 351.042 L
265.741 351.041 L
266.488 351.021 L
266.498 351.021 L
267.234 351.001 L
267.245 351 L
267.98 350.981 L
267.99 350.981 L
268.733 350.961 L
268.743 350.961 L
269.486 350.942 L
269.497 350.942 L
270.236 350.923 L
270.246 350.922 L
270.989 350.904 L
270.999 350.904 L
271.74 350.884 L
271.751 350.884 L
272.486 350.866 L
272.496 350.866 L
273.242 350.848 L
273.252 350.848 L
273.993 350.829 L
274.003 350.829 L
274.738 350.812 L
274.748 350.812 L
275.487 350.794 L
275.497 350.793 L
276.237 350.777 L
276.247 350.776 L
276.992 350.759 L
277.002 350.758 L
277.738 350.742 L
277.749 350.742 L
278.498 350.725 L
278.508 350.725 L
279.241 350.708 L
279.251 350.708 L
279.995 350.692 L
280.006 350.692 L
280.747 350.676 L
280.757 350.675 L
281.499 350.659 L
281.51 350.659 L
282.244 350.643 L
282.254 350.643 L
283.002 350.627 L
283.012 350.627 L
283.748 350.612 L
283.759 350.611 L
284.494 350.596 L
284.504 350.596 L
285.245 350.581 L
285.256 350.581 L
285.996 350.566 L
286.007 350.566 L
286.755 350.551 L
286.765 350.551 L
287.5 350.537 L
287.511 350.536 L
288.257 350.522 L
288.268 350.522 L
289.006 350.508 L
289.016 350.508 L
289.758 350.494 L
289.769 350.494 L
290.499 350.48 L
290.51 350.479 L
291.251 350.466 L
291.262 350.466 L
292.007 350.453 L
292.017 350.452 L
292.76 350.439 L
292.77 350.439 L
293.505 350.426 L
293.517 350.425 L
294.26 350.413 L
294.272 350.412 L
295.013 350.399 L
295.024 350.399 L
295.757 350.387 L
295.768 350.387 L
296.509 350.374 L
296.519 350.373 L
297.264 350.362 L
297.275 350.361 L
298.01 350.349 L
298.021 350.349 L
298.766 350.337 L
298.777 350.337 L
299.513 350.325 L
299.524 350.324 L
300.258 350.312 L
300.269 350.312 L
301.01 350.301 L
301.021 350.301 L
301.759 350.289 L
301.769 350.289 L
302.512 350.278 L
302.524 350.277 L
303.267 350.267 L
303.279 350.267 L
304.017 350.255 L
304.029 350.255 L
304.765 350.244 L
304.776 350.244 L
305.517 350.233 L
305.528 350.233 L
306.268 350.222 L
306.278 350.222 L
307.022 350.211 L
307.033 350.211 L
307.774 350.201 L
307.785 350.201 L
308.52 350.191 L
308.531 350.191 L
309.269 350.181 L
309.28 350.181 L
310.024 350.171 L
310.036 350.17 L
310.775 350.16 L
310.786 350.16 L
311.527 350.15 L
311.539 350.15 L
312.277 350.14 L
312.288 350.14 L
313.024 350.13 L
313.035 350.13 L
313.77 350.121 L
313.781 350.121 L
314.52 350.112 L
314.532 350.112 L
315.275 350.103 L
315.286 350.102 L
316.029 350.093 L
316.04 350.093 L
316.776 350.085 L
316.789 350.084 L
317.529 350.075 L
317.541 350.075 L
318.281 350.066 L
318.293 350.066 L
319.034 350.058 L
319.046 350.057 L
319.781 350.049 L
319.792 350.049 L
320.536 350.04 L
320.546 350.04 L
321.279 350.032 L
321.291 350.032 L
322.037 350.024 L
322.048 350.024 L
322.781 350.015 L
322.793 350.015 L
323.529 350.007 L
323.541 350.007 L
324.279 349.999 L
324.291 349.999 L
325.035 349.991 L
325.047 349.991 L
325.787 349.983 L
325.799 349.983 L
326.531 349.976 L
326.543 349.976 L
327.286 349.968 L
327.298 349.968 L
328.037 349.961 L
328.05 349.96 L
328.783 349.953 L
328.796 349.953 L
329.534 349.946 L
329.546 349.946 L
330.292 349.938 L
330.304 349.938 L
331.037 349.932 L
331.049 349.931 L
331.785 349.924 L
331.797 349.924 L
332.542 349.918 L
332.555 349.918 L
333.288 349.911 L
333.301 349.91 L
334.042 349.903 L
334.054 349.903 L
334.789 349.897 L
334.801 349.897 L
335.544 349.89 L
335.556 349.89 L
336.299 349.883 L
336.311 349.883 L
337.047 349.877 L
337.058 349.877 L
337.797 349.871 L
337.809 349.871 L
338.55 349.865 L
338.562 349.864 L
339.292 349.858 L
339.305 349.858 L
340.044 349.852 L
340.056 349.852 L
340.795 349.847 L
340.807 349.846 L
341.549 349.84 L
341.562 349.84 L
342.294 349.834 L
342.307 349.834 L
343.045 349.828 L
343.058 349.828 L
343.799 349.822 L
343.811 349.822 L
344.552 349.817 L
344.564 349.816 L
345.3 349.811 L
345.312 349.811 L
346.055 349.806 L
346.069 349.806 L
346.802 349.801 L
346.814 349.801 L
347.559 349.795 L
347.572 349.795 L
348.304 349.79 L
348.317 349.79 L
349.052 349.785 L
349.064 349.785 L
349.801 349.779 L
349.814 349.779 L
350.557 349.774 L
350.57 349.774 L
351.309 349.769 L
351.321 349.769 L
352.063 349.764 L
352.076 349.764 L
352.813 349.759 L
352.825 349.759 L
353.558 349.755 L
353.571 349.754 L
354.305 349.75 L
354.318 349.75 L
355.063 349.745 L
355.075 349.745 L
355.813 349.74 L
355.826 349.74 L
356.558 349.735 L
356.571 349.735 L
357.316 349.731 L
357.329 349.73 L
358.068 349.726 L
358.081 349.726 L
358.82 349.722 L
358.834 349.722 L
359.569 349.718 L
359.583 349.718 L
360.311 349.714 L
360.325 349.714 L
361.06 349.71 L
361.076 349.709 L
361.822 349.705 L
361.836 349.705 L
362.565 349.701 L
362.58 349.7 L
363.311 349.697 L
363.325 349.697 L
364.063 349.693 L
364.076 349.693 L
364.821 349.689 L
364.836 349.689 L
365.569 349.685 L
365.585 349.685 L
366.322 349.681 L
366.334 349.681 L
367.068 349.677 L
367.082 349.677 L
367.826 349.674 L
367.841 349.674 L
368.573 349.67 L
368.586 349.67 L
369.327 349.666 L
369.34 349.666 L
370.067 349.663 L
370.081 349.662 L
370.827 349.659 L
370.841 349.659 L
371.576 349.655 L
371.59 349.655 L
372.328 349.652 L
372.341 349.652 L
373.083 349.649 L
373.097 349.649 L
373.833 349.645 L
373.848 349.645 L
374.578 349.642 L
374.593 349.642 L
375.326 349.639 L
375.342 349.639 L
376.077 349.635 L
376.091 349.635 L
376.831 349.632 L
376.844 349.632 L
377.585 349.629 L
377.598 349.629 L
378.337 349.626 L
378.351 349.626 L
379.083 349.623 L
379.096 349.623 L
379.829 349.619 L
379.844 349.619 L
380.577 349.617 L
380.59 349.617 L
381.329 349.614 L
381.343 349.614 L
382.085 349.611 L
382.099 349.611 L
382.838 349.609 L
382.853 349.608 L
383.585 349.605 L
383.598 349.605 L
384.334 349.603 L
384.349 349.603 L
385.085 349.6 L
385.1 349.6 L
385.842 349.597 L
385.857 349.597 L
386.586 349.594 L
386.6 349.594 L
387.344 349.592 L
387.36 349.592 L
388.089 349.589 L
388.104 349.589 L
388.845 349.587 L
388.858 349.587 L
389.59 349.584 L
389.603 349.584 L
390.344 349.582 L
390.359 349.582 L
391.093 349.579 L
391.108 349.579 L
391.847 349.577 L
391.862 349.577 L
392.598 349.574 L
392.613 349.574 L
393.349 349.573 L
393.367 349.573 L
394.092 349.57 L
394.106 349.57 L
394.847 349.568 L
394.861 349.568 L
395.598 349.565 L
395.612 349.565 L
396.343 349.563 L
396.358 349.563 L
397.091 349.561 L
397.106 349.561 L
397.851 349.559 L
397.865 349.559 L
398.597 349.557 L
398.61 349.557 L
399.35 349.555 L
399.367 349.555 L
400.102 349.553 L
400.116 349.553 L
400.857 349.551 L
400.871 349.551 L
401.607 349.548 L
401.62 349.548 L
402.356 349.547 L
402.37 349.547 L
403.109 349.545 L
403.123 349.545 L
403.849 349.543 L
403.864 349.543 L
404.603 349.541 L
404.619 349.541 L
405.361 349.539 L
405.375 349.539 L
406.11 349.538 L
406.123 349.538 L
406.852 349.536 L
406.869 349.536 L
407.6 349.534 L
407.615 349.534 L
408.364 349.533 L
408.378 349.533 L
409.101 349.531 L
409.119 349.531 L
409.856 349.529 L
409.873 349.529 L
410.609 349.528 L
410.626 349.528 L
411.356 349.526 L
411.371 349.526 L
412.115 349.524 L
412.134 349.524 L
412.866 349.523 L
412.885 349.523 L
413.617 349.521 L
413.631 349.521 L
414.368 349.519 L
414.384 349.519 L
415.109 349.518 L
415.123 349.518 L
415.864 349.517 L
415.879 349.517 L
416.612 349.515 L
416.628 349.515 L
417.357 349.513 L
417.374 349.513 L
418.109 349.513 L
418.125 349.513 L
418.873 349.511 L
418.89 349.511 L
419.618 349.509 L
419.632 349.509 L
420.371 349.508 L
420.384 349.508 L
421.115 349.507 L
421.132 349.507 L
421.87 349.505 L
421.885 349.505 L
422.625 349.504 L
422.642 349.504 L
423.376 349.503 L
423.39 349.503 L
424.124 349.502 L
424.14 349.502 L
424.87 349.501 L
424.886 349.5 L
425.625 349.499 L
425.641 349.499 L
426.375 349.498 L
426.39 349.498 L
427.127 349.497 L
427.141 349.497 L
427.878 349.496 L
427.894 349.496 L
428.617 349.495 L
428.634 349.495 L
429.38 349.493 L
429.395 349.493 L
430.121 349.493 L
430.138 349.493 L
430.884 349.492 L
430.899 349.492 L
431.629 349.49 L
431.646 349.49 L
432.383 349.489 L
432.4 349.489 L
433.129 349.488 L
433.147 349.488 L
433.886 349.487 L
433.899 349.487 L
434.637 349.487 L
434.651 349.487 L
435.374 349.485 L
435.393 349.485 L
436.135 349.484 L
436.151 349.484 L
436.882 349.483 L
436.902 349.483 L
437.627 349.482 L
437.642 349.482 L
438.385 349.482 L
438.402 349.482 L
439.129 349.481 L
439.149 349.481 L
439.889 349.48 L
439.906 349.48 L
440.63 349.479 L
440.645 349.479 L
441.384 349.478 L
441.406 349.478 L
442.14 349.477 L
442.156 349.477 L
442.892 349.477 L
442.91 349.477 L
443.645 349.476 L
443.659 349.476 L
444.396 349.475 L
444.415 349.475 L
445.135 349.474 L
445.154 349.474 L
445.889 349.473 L
445.905 349.473 L
446.647 349.472 L
446.665 349.472 L
447.393 349.472 L
447.411 349.472 L
448.141 349.472 L
448.156 349.472 L
448.886 349.471 L
448.902 349.471 L
449.635 349.47 L
449.652 349.47 L
450.388 349.469 L
450.403 349.469 L
451.141 349.469 L
451.155 349.469 L
451.9 349.468 L
451.916 349.468 L
452.643 349.467 L
452.66 349.467 L
453.394 349.467 L
453.409 349.467 L
454.14 349.467 L
454.158 349.467 L
454.892 349.466 L
454.908 349.466 L
455.651 349.465 L
455.669 349.465 L
456.407 349.464 L
456.43 349.464 L
457.154 349.464 L
457.168 349.464 L
457.902 349.463 L
457.92 349.463 L
458.658 349.462 L
458.673 349.462 L
459.397 349.462 L
459.414 349.462 L
460.15 349.462 L
460.167 349.462 L
460.909 349.462 L
460.929 349.462 L
461.657 349.461 L
461.672 349.461 L
462.402 349.46 L
462.417 349.46 L
463.159 349.46 L
463.173 349.46 L
463.903 349.459 L
463.92 349.459 L
464.646 349.459 L
464.669 349.459 L
465.409 349.458 L
465.425 349.458 L
466.155 349.458 L
466.17 349.458 L
466.901 349.457 L
466.919 349.457 L
467.657 349.457 L
467.673 349.457 L
468.409 349.457 L
468.425 349.457 L
469.163 349.457 L
469.18 349.457 L
469.9 349.456 L
469.92 349.456 L
470.662 349.456 L
470.681 349.456 L
471.42 349.455 L
471.438 349.455 L
472.161 349.455 L
472.177 349.455 L
472.91 349.455 L
472.925 349.455 L
473.669 349.454 L
473.688 349.454 L
474.418 349.454 L
474.434 349.454 L
475.172 349.453 L
475.186 349.453 L
475.91 349.453 L
475.926 349.453 L
476.672 349.453 L
476.694 349.453 L
477.421 349.452 L
477.443 349.452 L
478.168 349.452 L
478.185 349.452 L
478.921 349.452 L
478.937 349.452 L
479.67 349.452 L
479.688 349.452 L
480.424 349.452 L
480.444 349.452 L
481.173 349.452 L
481.19 349.452 L
481.914 349.451 L
481.935 349.451 L
482.671 349.451 L
482.7 349.451 L
483.419 349.451 L
483.44 349.451 L
484.175 349.45 L
484.191 349.45 L
484.916 349.45 L
484.934 349.45 L
485.68 349.45 L
485.699 349.45 L
486.419 349.45 L
486.435 349.45 L
487.184 349.449 L
487.202 349.449 L
487.919 349.449 L
487.946 349.449 L
488.682 349.449 L
488.707 349.449 L
489.425 349.449 L
489.442 349.449 L
490.168 349.448 L
490.189 349.448 L
490.928 349.448 L
490.948 349.448 L
491.689 349.448 L
491.707 349.448 L
492.44 349.448 L
492.464 349.448 L
493.188 349.448 L
493.206 349.448 L
493.941 349.447 L
493.955 349.447 L
494.684 349.447 L
494.704 349.447 L
495.425 349.447 L
495.449 349.447 L
496.185 349.447 L
496.204 349.447 L
496.941 349.447 L
496.961 349.447 L
497.69 349.447 L
497.709 349.447 L
498.443 349.447 L
498.46 349.447 L
499.192 349.447 L
499.207 349.447 L
499.939 349.447 L
499.957 349.447 L
500.692 349.447 L
500.714 349.447 L
501.439 349.447 L
501.454 349.447 L
502.192 349.447 L
502.211 349.447 L
502.944 349.447 L
502.959 349.447 L
503.698 349.447 L
503.718 349.447 L
504.437 349.447 L
504.451 349.447 L
505.201 349.446 L
505.217 349.446 L
505.937 349.446 L
505.964 349.446 L
506.692 349.446 L
506.707 349.446 L
507 349.446 L
S
GR
GS
1 GC
N
496 194 M
496 153 L
431 153 L
431 194 L
cp
f
GR
GS
[1 0 0 1 468 164.1358] CT
/Helvetica 14.4 F
GS
[1 0 0 1 0 0] CT
0 5 moveto 
1 -1 scale
(Tav) t 
GR
GR
GS
0 0.447 0.741 RC
1 LJ
3 LW
N
435 164.136 M
465 164.136 L
S
GR
GS
[1 0 0 1 468 182.8642] CT
/Helvetica 14.4 F
GS
[1 0 0 1 0 0] CT
0 5 moveto 
1 -1 scale
(Tin) t 
GR
GR
GS
0.851 0.325 0.098 RC
[12 12] 0 setdash
2 LJ
3 LW
N
435 182.864 M
465 182.864 L
S
GR
GS
0.149 GC
10.0 ML
0.5 LW
N
431 194 M
431 153 L
496 153 L
496 194 L
cp
S
GR
%%Trailer
%%Pages: 1
%%EOF
