%!PS-Adobe-3.0 EPSF-3.0
%%Creator: (MATLAB, The Mathworks, Inc. Version 9.3.0.713579 \(R2017b\). Operating System: Mac OS X)
%%Title: ./tf.eps
%%CreationDate: 2018-04-26T20:30:34
%%Pages: (atend)
%%BoundingBox:    20     0   520   395
%%LanguageLevel: 3
%%EndComments
%%BeginProlog
%%BeginResource: procset (Apache XML Graphics Std ProcSet) 1.2 0
%%Version: 1.2 0
%%Copyright: (Copyright 2001-2003,2010 The Apache Software Foundation. License terms: http://www.apache.org/licenses/LICENSE-2.0)
/bd{bind def}bind def
/ld{load def}bd
/GR/grestore ld
/GS/gsave ld
/RM/rmoveto ld
/C/curveto ld
/t/show ld
/L/lineto ld
/ML/setmiterlimit ld
/CT/concat ld
/f/fill ld
/N/newpath ld
/S/stroke ld
/CC/setcmykcolor ld
/A/ashow ld
/cp/closepath ld
/RC/setrgbcolor ld
/LJ/setlinejoin ld
/GC/setgray ld
/LW/setlinewidth ld
/M/moveto ld
/re {4 2 roll M
1 index 0 rlineto
0 exch rlineto
neg 0 rlineto
cp } bd
/_ctm matrix def
/_tm matrix def
/BT { _ctm currentmatrix pop matrix _tm copy pop 0 0 moveto } bd
/ET { _ctm setmatrix } bd
/iTm { _ctm setmatrix _tm concat } bd
/Tm { _tm astore pop iTm 0 0 moveto } bd
/ux 0.0 def
/uy 0.0 def
/F {
  /Tp exch def
  /Tf exch def
  Tf findfont Tp scalefont setfont
  /cf Tf def  /cs Tp def
} bd
/ULS {currentpoint /uy exch def /ux exch def} bd
/ULE {
  /Tcx currentpoint pop def
  gsave
  newpath
  cf findfont cs scalefont dup
  /FontMatrix get 0 get /Ts exch def /FontInfo get dup
  /UnderlinePosition get Ts mul /To exch def
  /UnderlineThickness get Ts mul /Tt exch def
  ux uy To add moveto  Tcx uy To add lineto
  Tt setlinewidth stroke
  grestore
} bd
/OLE {
  /Tcx currentpoint pop def
  gsave
  newpath
  cf findfont cs scalefont dup
  /FontMatrix get 0 get /Ts exch def /FontInfo get dup
  /UnderlinePosition get Ts mul /To exch def
  /UnderlineThickness get Ts mul /Tt exch def
  ux uy To add cs add moveto Tcx uy To add cs add lineto
  Tt setlinewidth stroke
  grestore
} bd
/SOE {
  /Tcx currentpoint pop def
  gsave
  newpath
  cf findfont cs scalefont dup
  /FontMatrix get 0 get /Ts exch def /FontInfo get dup
  /UnderlinePosition get Ts mul /To exch def
  /UnderlineThickness get Ts mul /Tt exch def
  ux uy To add cs 10 mul 26 idiv add moveto Tcx uy To add cs 10 mul 26 idiv add lineto
  Tt setlinewidth stroke
  grestore
} bd
/QT {
/Y22 exch store
/X22 exch store
/Y21 exch store
/X21 exch store
currentpoint
/Y21 load 2 mul add 3 div exch
/X21 load 2 mul add 3 div exch
/X21 load 2 mul /X22 load add 3 div
/Y21 load 2 mul /Y22 load add 3 div
/X22 load /Y22 load curveto
} bd
/SSPD {
dup length /d exch dict def
{
/v exch def
/k exch def
currentpagedevice k known {
/cpdv currentpagedevice k get def
v cpdv ne {
/upd false def
/nullv v type /nulltype eq def
/nullcpdv cpdv type /nulltype eq def
nullv nullcpdv or
{
/upd true def
} {
/sametype v type cpdv type eq def
sametype {
v type /arraytype eq {
/vlen v length def
/cpdvlen cpdv length def
vlen cpdvlen eq {
0 1 vlen 1 sub {
/i exch def
/obj v i get def
/cpdobj cpdv i get def
obj cpdobj ne {
/upd true def
exit
} if
} for
} {
/upd true def
} ifelse
} {
v type /dicttype eq {
v {
/dv exch def
/dk exch def
/cpddv cpdv dk get def
dv cpddv ne {
/upd true def
exit
} if
} forall
} {
/upd true def
} ifelse
} ifelse
} if
} ifelse
upd true eq {
d k v put
} if
} if
} if
} forall
d length 0 gt {
d setpagedevice
} if
} bd
/RE { % /NewFontName [NewEncodingArray] /FontName RE -
  findfont dup length dict begin
  {
    1 index /FID ne
    {def} {pop pop} ifelse
  } forall
  /Encoding exch def
  /FontName 1 index def
  currentdict definefont pop
  end
} bind def
%%EndResource
%%BeginResource: procset (Apache XML Graphics EPS ProcSet) 1.0 0
%%Version: 1.0 0
%%Copyright: (Copyright 2002-2003 The Apache Software Foundation. License terms: http://www.apache.org/licenses/LICENSE-2.0)
/BeginEPSF { %def
/b4_Inc_state save def         % Save state for cleanup
/dict_count countdictstack def % Count objects on dict stack
/op_count count 1 sub def      % Count objects on operand stack
userdict begin                 % Push userdict on dict stack
/showpage { } def              % Redefine showpage, { } = null proc
0 setgray 0 setlinecap         % Prepare graphics state
1 setlinewidth 0 setlinejoin
10 setmiterlimit [ ] 0 setdash newpath
/languagelevel where           % If level not equal to 1 then
{pop languagelevel             % set strokeadjust and
1 ne                           % overprint to their defaults.
{false setstrokeadjust false setoverprint
} if
} if
} bd
/EndEPSF { %def
count op_count sub {pop} repeat            % Clean up stacks
countdictstack dict_count sub {end} repeat
b4_Inc_state restore
} bd
%%EndResource
%FOPBeginFontDict
%%IncludeResource: font Courier-Oblique
%%IncludeResource: font Courier-BoldOblique
%%IncludeResource: font Courier-Bold
%%IncludeResource: font ZapfDingbats
%%IncludeResource: font Symbol
%%IncludeResource: font Helvetica
%%IncludeResource: font Helvetica-Oblique
%%IncludeResource: font Helvetica-Bold
%%IncludeResource: font Helvetica-BoldOblique
%%IncludeResource: font Times-Roman
%%IncludeResource: font Times-Italic
%%IncludeResource: font Times-Bold
%%IncludeResource: font Times-BoldItalic
%%IncludeResource: font Courier
%FOPEndFontDict
%%BeginResource: encoding WinAnsiEncoding
/WinAnsiEncoding [
/.notdef /.notdef /.notdef /.notdef /.notdef
/.notdef /.notdef /.notdef /.notdef /.notdef
/.notdef /.notdef /.notdef /.notdef /.notdef
/.notdef /.notdef /.notdef /.notdef /.notdef
/.notdef /.notdef /.notdef /.notdef /.notdef
/.notdef /.notdef /.notdef /.notdef /.notdef
/.notdef /.notdef /space /exclam /quotedbl
/numbersign /dollar /percent /ampersand /quotesingle
/parenleft /parenright /asterisk /plus /comma
/hyphen /period /slash /zero /one
/two /three /four /five /six
/seven /eight /nine /colon /semicolon
/less /equal /greater /question /at
/A /B /C /D /E
/F /G /H /I /J
/K /L /M /N /O
/P /Q /R /S /T
/U /V /W /X /Y
/Z /bracketleft /backslash /bracketright /asciicircum
/underscore /quoteleft /a /b /c
/d /e /f /g /h
/i /j /k /l /m
/n /o /p /q /r
/s /t /u /v /w
/x /y /z /braceleft /bar
/braceright /asciitilde /bullet /Euro /bullet
/quotesinglbase /florin /quotedblbase /ellipsis /dagger
/daggerdbl /circumflex /perthousand /Scaron /guilsinglleft
/OE /bullet /Zcaron /bullet /bullet
/quoteleft /quoteright /quotedblleft /quotedblright /bullet
/endash /emdash /asciitilde /trademark /scaron
/guilsinglright /oe /bullet /zcaron /Ydieresis
/space /exclamdown /cent /sterling /currency
/yen /brokenbar /section /dieresis /copyright
/ordfeminine /guillemotleft /logicalnot /sfthyphen /registered
/macron /degree /plusminus /twosuperior /threesuperior
/acute /mu /paragraph /middot /cedilla
/onesuperior /ordmasculine /guillemotright /onequarter /onehalf
/threequarters /questiondown /Agrave /Aacute /Acircumflex
/Atilde /Adieresis /Aring /AE /Ccedilla
/Egrave /Eacute /Ecircumflex /Edieresis /Igrave
/Iacute /Icircumflex /Idieresis /Eth /Ntilde
/Ograve /Oacute /Ocircumflex /Otilde /Odieresis
/multiply /Oslash /Ugrave /Uacute /Ucircumflex
/Udieresis /Yacute /Thorn /germandbls /agrave
/aacute /acircumflex /atilde /adieresis /aring
/ae /ccedilla /egrave /eacute /ecircumflex
/edieresis /igrave /iacute /icircumflex /idieresis
/eth /ntilde /ograve /oacute /ocircumflex
/otilde /odieresis /divide /oslash /ugrave
/uacute /ucircumflex /udieresis /yacute /thorn
/ydieresis
] def
%%EndResource
%FOPBeginFontReencode
/Courier-Oblique findfont
dup length dict begin
  {1 index /FID ne {def} {pop pop} ifelse} forall
  /Encoding WinAnsiEncoding def
  currentdict
end
/Courier-Oblique exch definefont pop
/Courier-BoldOblique findfont
dup length dict begin
  {1 index /FID ne {def} {pop pop} ifelse} forall
  /Encoding WinAnsiEncoding def
  currentdict
end
/Courier-BoldOblique exch definefont pop
/Courier-Bold findfont
dup length dict begin
  {1 index /FID ne {def} {pop pop} ifelse} forall
  /Encoding WinAnsiEncoding def
  currentdict
end
/Courier-Bold exch definefont pop
/Helvetica findfont
dup length dict begin
  {1 index /FID ne {def} {pop pop} ifelse} forall
  /Encoding WinAnsiEncoding def
  currentdict
end
/Helvetica exch definefont pop
/Helvetica-Oblique findfont
dup length dict begin
  {1 index /FID ne {def} {pop pop} ifelse} forall
  /Encoding WinAnsiEncoding def
  currentdict
end
/Helvetica-Oblique exch definefont pop
/Helvetica-Bold findfont
dup length dict begin
  {1 index /FID ne {def} {pop pop} ifelse} forall
  /Encoding WinAnsiEncoding def
  currentdict
end
/Helvetica-Bold exch definefont pop
/Helvetica-BoldOblique findfont
dup length dict begin
  {1 index /FID ne {def} {pop pop} ifelse} forall
  /Encoding WinAnsiEncoding def
  currentdict
end
/Helvetica-BoldOblique exch definefont pop
/Times-Roman findfont
dup length dict begin
  {1 index /FID ne {def} {pop pop} ifelse} forall
  /Encoding WinAnsiEncoding def
  currentdict
end
/Times-Roman exch definefont pop
/Times-Italic findfont
dup length dict begin
  {1 index /FID ne {def} {pop pop} ifelse} forall
  /Encoding WinAnsiEncoding def
  currentdict
end
/Times-Italic exch definefont pop
/Times-Bold findfont
dup length dict begin
  {1 index /FID ne {def} {pop pop} ifelse} forall
  /Encoding WinAnsiEncoding def
  currentdict
end
/Times-Bold exch definefont pop
/Times-BoldItalic findfont
dup length dict begin
  {1 index /FID ne {def} {pop pop} ifelse} forall
  /Encoding WinAnsiEncoding def
  currentdict
end
/Times-BoldItalic exch definefont pop
/Courier findfont
dup length dict begin
  {1 index /FID ne {def} {pop pop} ifelse} forall
  /Encoding WinAnsiEncoding def
  currentdict
end
/Courier exch definefont pop
%FOPEndFontReencode
%%EndProlog
%%Page: 1 1
%%PageBoundingBox: 0 0 560 420
%%BeginPageSetup
[1 0 0 -1 0 420] CT
%%EndPageSetup
GS
1 GC
N
0 0 560 420 re
f
GR
GS
1 GC
N
0 0 560 420 re
f
GR
GS
1 GC
N
73 373 M
507 373 L
507 31 L
73 31 L
cp
f
GR
GS
0.873 GC
1 LJ
0.5 LW
N
73 373 M
73 31 L
S
GR
GS
0.873 GC
1 LJ
0.5 LW
N
145.333 373 M
145.333 31 L
S
GR
GS
0.873 GC
1 LJ
0.5 LW
N
217.667 373 M
217.667 31 L
S
GR
GS
0.873 GC
1 LJ
0.5 LW
N
290 373 M
290 31 L
S
GR
GS
0.873 GC
1 LJ
0.5 LW
N
362.333 373 M
362.333 31 L
S
GR
GS
0.873 GC
1 LJ
0.5 LW
N
434.667 373 M
434.667 31 L
S
GR
GS
0.873 GC
1 LJ
0.5 LW
N
507 373 M
507 31 L
S
GR
GS
0.873 GC
1 LJ
0.5 LW
N
507 373 M
73 373 L
S
GR
GS
0.873 GC
1 LJ
0.5 LW
N
507 316 M
73 316 L
S
GR
GS
0.873 GC
1 LJ
0.5 LW
N
507 259 M
73 259 L
S
GR
GS
0.873 GC
1 LJ
0.5 LW
N
507 202 M
73 202 L
S
GR
GS
0.873 GC
1 LJ
0.5 LW
N
507 145 M
73 145 L
S
GR
GS
0.873 GC
1 LJ
0.5 LW
N
507 88 M
73 88 L
S
GR
GS
0.873 GC
1 LJ
0.5 LW
N
507 31 M
73 31 L
S
GR
GS
0.149 GC
2 setlinecap
1 LJ
0.5 LW
N
73 373 M
507 373 L
S
GR
GS
0.149 GC
2 setlinecap
1 LJ
0.5 LW
N
73 373 M
73 368.66 L
S
GR
GS
0.149 GC
2 setlinecap
1 LJ
0.5 LW
N
145.333 373 M
145.333 368.66 L
S
GR
GS
0.149 GC
2 setlinecap
1 LJ
0.5 LW
N
217.667 373 M
217.667 368.66 L
S
GR
GS
0.149 GC
2 setlinecap
1 LJ
0.5 LW
N
290 373 M
290 368.66 L
S
GR
GS
0.149 GC
2 setlinecap
1 LJ
0.5 LW
N
362.333 373 M
362.333 368.66 L
S
GR
GS
0.149 GC
2 setlinecap
1 LJ
0.5 LW
N
434.667 373 M
434.667 368.66 L
S
GR
GS
0.149 GC
2 setlinecap
1 LJ
0.5 LW
N
507 373 M
507 368.66 L
S
GR
GS
[1 0 0 1 73 378.19937] CT
0.149 GC
/Helvetica 16 F
GS
[1 0 0 1 0 0] CT
-4.5 16 moveto 
1 -1 scale
(0) t 
GR
GR
GS
[1 0 0 1 145.33333 378.19937] CT
0.149 GC
/Helvetica 16 F
GS
[1 0 0 1 0 0] CT
-9 16 moveto 
1 -1 scale
(20) t 
GR
GR
GS
[1 0 0 1 217.66667 378.19937] CT
0.149 GC
/Helvetica 16 F
GS
[1 0 0 1 0 0] CT
-9 16 moveto 
1 -1 scale
(40) t 
GR
GR
GS
[1 0 0 1 290 378.19937] CT
0.149 GC
/Helvetica 16 F
GS
[1 0 0 1 0 0] CT
-9 16 moveto 
1 -1 scale
(60) t 
GR
GR
GS
[1 0 0 1 362.33334 378.19937] CT
0.149 GC
/Helvetica 16 F
GS
[1 0 0 1 0 0] CT
-9 16 moveto 
1 -1 scale
(80) t 
GR
GR
GS
[1 0 0 1 434.66666 378.19937] CT
0.149 GC
/Helvetica 16 F
GS
[1 0 0 1 0 0] CT
-13.5 16 moveto 
1 -1 scale
(100) t 
GR
GR
GS
[1 0 0 1 507 378.19937] CT
0.149 GC
/Helvetica 16 F
GS
[1 0 0 1 0 0] CT
-13.5 16 moveto 
1 -1 scale
(120) t 
GR
GR
GS
[1 0 0 1 290.00021 399.00034] CT
0.149 GC
/Helvetica 17.6 F
GS
[1 0 0 1 0 0] CT
-41 17 moveto 
1 -1 scale
(Tiempo \(s\)) t 
GR
GR
GS
0.149 GC
2 setlinecap
1 LJ
0.5 LW
N
73 373 M
73 31 L
S
GR
GS
0.149 GC
2 setlinecap
1 LJ
0.5 LW
N
73 373 M
77.34 373 L
S
GR
GS
0.149 GC
2 setlinecap
1 LJ
0.5 LW
N
73 316 M
77.34 316 L
S
GR
GS
0.149 GC
2 setlinecap
1 LJ
0.5 LW
N
73 259 M
77.34 259 L
S
GR
GS
0.149 GC
2 setlinecap
1 LJ
0.5 LW
N
73 202 M
77.34 202 L
S
GR
GS
0.149 GC
2 setlinecap
1 LJ
0.5 LW
N
73 145 M
77.34 145 L
S
GR
GS
0.149 GC
2 setlinecap
1 LJ
0.5 LW
N
73 88 M
77.34 88 L
S
GR
GS
0.149 GC
2 setlinecap
1 LJ
0.5 LW
N
73 31 M
77.34 31 L
S
GR
GS
[1 0 0 1 67.8 373] CT
0.149 GC
/Helvetica 16 F
GS
[1 0 0 1 0 0] CT
-27 6 moveto 
1 -1 scale
(820) t 
GR
GR
GS
[1 0 0 1 67.8 316] CT
0.149 GC
/Helvetica 16 F
GS
[1 0 0 1 0 0] CT
-27 6 moveto 
1 -1 scale
(822) t 
GR
GR
GS
[1 0 0 1 67.8 259] CT
0.149 GC
/Helvetica 16 F
GS
[1 0 0 1 0 0] CT
-27 6 moveto 
1 -1 scale
(824) t 
GR
GR
GS
[1 0 0 1 67.8 202] CT
0.149 GC
/Helvetica 16 F
GS
[1 0 0 1 0 0] CT
-27 6 moveto 
1 -1 scale
(826) t 
GR
GR
GS
[1 0 0 1 67.8 145] CT
0.149 GC
/Helvetica 16 F
GS
[1 0 0 1 0 0] CT
-27 6 moveto 
1 -1 scale
(828) t 
GR
GR
GS
[1 0 0 1 67.8 88] CT
0.149 GC
/Helvetica 16 F
GS
[1 0 0 1 0 0] CT
-27 6 moveto 
1 -1 scale
(830) t 
GR
GR
GS
[1 0 0 1 67.8 31] CT
0.149 GC
/Helvetica 16 F
GS
[1 0 0 1 0 0] CT
-27 6 moveto 
1 -1 scale
(832) t 
GR
GR
GS
[0 -1 1 0 37.8 202] CT
0.149 GC
/Helvetica 17.6 F
GS
[1 0 0 1 0 0] CT
-63.5 -4 moveto 
1 -1 scale
(Temperatura \(K\)) t 
GR
GR
GS
0 0.447 0.741 RC
1 LJ
3 LW
N
73 373 M
73.565 371.772 L
73.566 371.767 L
74.316 366.512 L
74.317 366.501 L
75.067 357.922 L
75.068 357.906 L
75.818 346.782 L
75.819 346.763 L
76.568 333.745 L
76.569 333.719 L
77.318 319.312 L
77.32 319.282 L
78.07 303.874 L
78.071 303.839 L
78.82 287.784 L
78.822 287.745 L
79.57 271.251 L
79.572 271.21 L
80.32 254.456 L
80.322 254.409 L
81.072 237.5 L
81.074 237.451 L
81.822 220.529 L
81.824 220.479 L
82.573 203.562 L
82.576 203.508 L
83.324 186.668 L
83.327 186.612 L
84.074 169.911 L
84.076 169.856 L
84.825 153.228 L
84.828 153.17 L
85.575 136.716 L
85.578 136.659 L
86.325 120.346 L
86.327 120.289 L
87.077 104.05 L
87.08 103.993 L
87.828 88.482 L
87.829 88.464 L
88.579 77.062 L
88.58 77.048 L
89.33 69.478 L
89.331 69.467 L
90.079 64.765 L
90.081 64.76 L
90.83 62.175 L
90.832 62.172 L
91.581 61.144 L
91.583 61.142 L
91.87 61.067 L
92.331 61.241 L
92.333 61.243 L
93.082 62.142 L
93.084 62.146 L
93.833 63.607 L
93.835 63.612 L
94.584 65.453 L
94.586 65.46 L
95.334 67.552 L
95.337 67.561 L
96.085 69.812 L
96.088 69.822 L
96.835 72.16 L
96.838 72.171 L
97.586 74.557 L
97.59 74.569 L
98.335 76.963 L
98.339 76.975 L
99.088 79.372 L
99.092 79.384 L
99.836 81.743 L
99.84 81.755 L
100.589 84.104 L
100.593 84.116 L
101.337 86.417 L
101.341 86.429 L
102.089 88.708 L
102.093 88.72 L
102.838 90.957 L
102.842 90.969 L
103.592 93.189 L
103.596 93.201 L
104.341 95.374 L
104.345 95.386 L
105.093 97.541 L
105.097 97.552 L
105.844 99.676 L
105.848 99.688 L
106.594 101.787 L
106.598 101.798 L
107.345 103.878 L
107.349 103.889 L
108.096 105.948 L
108.1 105.959 L
108.847 107.999 L
108.851 108.011 L
109.596 110.027 L
109.6 110.038 L
110.346 112.042 L
110.35 112.054 L
111.098 114.049 L
111.102 114.059 L
111.849 116.034 L
111.853 116.044 L
112.598 118.003 L
112.602 118.013 L
113.35 119.963 L
113.354 119.976 L
114.101 121.91 L
114.105 121.92 L
114.851 123.841 L
114.856 123.851 L
115.601 125.758 L
115.606 125.768 L
116.351 127.661 L
116.355 127.671 L
117.1 129.551 L
117.105 129.562 L
117.854 131.439 L
117.858 131.449 L
118.603 133.304 L
118.608 133.314 L
119.353 135.154 L
119.357 135.165 L
120.107 137.004 L
120.111 137.014 L
120.856 138.828 L
120.86 138.839 L
121.606 140.643 L
121.61 140.653 L
122.357 142.443 L
122.361 142.453 L
123.107 144.231 L
123.112 144.242 L
123.858 146.007 L
123.863 146.018 L
124.61 147.768 L
124.614 147.78 L
125.361 149.517 L
125.366 149.528 L
126.109 151.243 L
126.113 151.254 L
126.861 152.965 L
126.866 152.976 L
127.61 154.665 L
127.614 154.675 L
128.363 156.359 L
128.367 156.369 L
129.112 158.032 L
129.116 158.043 L
129.865 159.699 L
129.87 159.709 L
130.614 161.343 L
130.619 161.353 L
131.363 162.973 L
131.368 162.983 L
132.118 164.599 L
132.123 164.609 L
132.867 166.199 L
132.872 166.21 L
133.617 167.787 L
133.622 167.798 L
134.367 169.36 L
134.372 169.37 L
135.121 170.927 L
135.126 170.938 L
135.871 172.472 L
135.876 172.482 L
136.62 174.001 L
136.625 174.011 L
137.37 175.518 L
137.375 175.528 L
138.12 177.019 L
138.125 177.029 L
138.874 178.517 L
138.879 178.527 L
139.622 179.987 L
139.627 179.997 L
140.371 181.444 L
140.376 181.455 L
141.124 182.899 L
141.129 182.907 L
141.872 184.327 L
141.877 184.337 L
142.625 185.751 L
142.63 185.76 L
143.377 187.16 L
143.383 187.171 L
144.124 188.547 L
144.129 188.557 L
144.875 189.928 L
144.88 189.937 L
145.625 191.293 L
145.63 191.302 L
146.376 192.647 L
146.381 192.657 L
147.131 193.997 L
147.137 194.005 L
147.881 195.322 L
147.886 195.331 L
148.629 196.632 L
148.635 196.642 L
149.382 197.938 L
149.388 197.949 L
150.13 199.222 L
150.135 199.232 L
150.882 200.502 L
150.888 200.511 L
151.634 201.769 L
151.64 201.777 L
152.386 203.021 L
152.391 203.032 L
153.131 204.253 L
153.137 204.263 L
153.886 205.488 L
153.892 205.498 L
154.636 206.702 L
154.641 206.711 L
155.383 207.9 L
155.389 207.909 L
156.137 209.097 L
156.143 209.108 L
156.889 210.282 L
156.895 210.29 L
157.635 211.442 L
157.641 211.452 L
158.387 212.602 L
158.393 212.611 L
159.137 213.747 L
159.143 213.756 L
159.892 214.888 L
159.898 214.897 L
160.64 216.008 L
160.646 216.017 L
161.388 217.116 L
161.394 217.125 L
162.141 218.221 L
162.148 218.231 L
162.893 219.313 L
162.9 219.324 L
163.645 220.395 L
163.651 220.404 L
164.395 221.463 L
164.401 221.474 L
165.144 222.521 L
165.151 222.53 L
165.893 223.566 L
165.899 223.575 L
166.648 224.608 L
166.654 224.619 L
167.395 225.633 L
167.402 225.642 L
168.148 226.652 L
168.155 226.661 L
168.899 227.659 L
168.906 227.668 L
169.651 228.658 L
169.657 228.667 L
170.4 229.642 L
170.407 229.653 L
171.148 230.618 L
171.155 230.627 L
171.897 231.582 L
171.904 231.591 L
172.649 232.542 L
172.656 232.551 L
173.403 233.494 L
173.41 233.502 L
174.148 234.426 L
174.156 234.435 L
174.9 235.357 L
174.908 235.365 L
175.654 236.28 L
175.661 236.289 L
176.405 237.19 L
176.412 237.201 L
177.155 238.091 L
177.162 238.1 L
177.905 238.984 L
177.912 238.992 L
178.659 239.871 L
178.667 239.879 L
179.408 240.742 L
179.416 240.753 L
180.157 241.607 L
180.164 241.615 L
180.91 242.466 L
180.918 242.475 L
181.657 243.31 L
181.665 243.318 L
182.412 244.155 L
182.42 244.164 L
183.157 244.978 L
183.165 244.987 L
183.909 245.802 L
183.917 245.811 L
184.664 246.62 L
184.672 246.63 L
185.408 247.42 L
185.416 247.429 L
186.163 248.222 L
186.171 248.231 L
186.91 249.008 L
186.919 249.017 L
187.664 249.793 L
187.673 249.802 L
188.411 250.562 L
188.42 250.57 L
189.164 251.329 L
189.173 251.339 L
189.918 252.091 L
189.926 252.099 L
190.663 252.835 L
190.673 252.844 L
191.417 253.58 L
191.426 253.59 L
192.165 254.312 L
192.174 254.321 L
192.916 255.039 L
192.926 255.05 L
193.67 255.763 L
193.679 255.771 L
194.417 256.471 L
194.427 256.479 L
195.168 257.175 L
195.178 257.186 L
195.923 257.876 L
195.933 257.887 L
196.672 258.565 L
196.682 258.576 L
197.422 259.249 L
197.433 259.257 L
198.174 259.925 L
198.185 259.936 L
198.923 260.593 L
198.934 260.604 L
199.674 261.256 L
199.686 261.267 L
200.425 261.912 L
200.438 261.922 L
201.168 262.552 L
201.18 262.564 L
201.923 263.199 L
201.936 263.21 L
202.669 263.829 L
202.684 263.843 L
203.429 264.466 L
203.444 264.479 L
204.177 265.087 L
204.193 265.099 L
204.93 265.702 L
204.945 265.714 L
205.674 266.306 L
205.688 266.318 L
206.425 266.91 L
206.439 266.92 L
207.178 267.508 L
207.191 267.518 L
207.934 268.103 L
207.945 268.112 L
208.676 268.679 L
208.688 268.689 L
209.435 269.263 L
209.447 269.273 L
210.181 269.832 L
210.192 269.841 L
210.93 270.397 L
210.941 270.404 L
211.68 270.956 L
211.691 270.964 L
212.437 271.516 L
212.448 271.523 L
213.185 272.062 L
213.196 272.069 L
213.931 272.601 L
213.942 272.608 L
214.686 273.14 L
214.697 273.147 L
215.44 273.674 L
215.45 273.681 L
216.186 274.196 L
216.197 274.203 L
216.935 274.715 L
216.945 274.722 L
217.684 275.228 L
217.695 275.237 L
218.44 275.741 L
218.451 275.748 L
219.195 276.247 L
219.205 276.254 L
219.939 276.743 L
219.95 276.748 L
220.689 277.235 L
220.699 277.242 L
221.443 277.724 L
221.452 277.731 L
222.189 278.204 L
222.199 278.211 L
222.943 278.684 L
222.953 278.691 L
223.698 279.159 L
223.708 279.166 L
224.447 279.627 L
224.457 279.632 L
225.197 280.088 L
225.207 280.095 L
225.943 280.544 L
225.953 280.549 L
226.7 280.999 L
226.71 281.006 L
227.45 281.448 L
227.46 281.453 L
228.195 281.888 L
228.205 281.894 L
228.948 282.328 L
228.958 282.334 L
229.705 282.765 L
229.715 282.772 L
230.45 283.191 L
230.46 283.198 L
231.201 283.617 L
231.21 283.623 L
231.957 284.04 L
231.967 284.045 L
232.706 284.454 L
232.716 284.461 L
233.449 284.861 L
233.459 284.866 L
234.201 285.27 L
234.211 285.275 L
234.954 285.674 L
234.964 285.679 L
235.709 286.074 L
235.718 286.079 L
236.46 286.468 L
236.47 286.474 L
237.21 286.858 L
237.22 286.863 L
237.954 287.239 L
237.963 287.244 L
238.706 287.622 L
238.715 287.627 L
239.456 287.999 L
239.465 288.004 L
240.205 288.371 L
240.215 288.377 L
240.96 288.744 L
240.969 288.747 L
241.709 289.107 L
241.719 289.113 L
242.465 289.471 L
242.475 289.476 L
243.209 289.826 L
243.218 289.831 L
243.961 290.181 L
243.971 290.186 L
244.714 290.532 L
244.724 290.537 L
245.467 290.878 L
245.477 290.883 L
246.211 291.219 L
246.221 291.223 L
246.969 291.56 L
246.978 291.565 L
247.712 291.892 L
247.722 291.896 L
248.465 292.224 L
248.475 292.23 L
249.218 292.553 L
249.227 292.557 L
249.972 292.879 L
249.982 292.884 L
250.717 293.199 L
250.727 293.202 L
251.475 293.519 L
251.484 293.522 L
252.222 293.83 L
252.231 293.835 L
252.974 294.141 L
252.983 294.145 L
253.722 294.448 L
253.732 294.451 L
254.477 294.754 L
254.487 294.757 L
255.22 295.051 L
255.23 295.055 L
255.972 295.349 L
255.982 295.352 L
256.724 295.643 L
256.734 295.648 L
257.474 295.935 L
257.485 295.938 L
258.228 296.224 L
258.237 296.227 L
258.979 296.509 L
258.99 296.512 L
259.725 296.787 L
259.735 296.791 L
260.477 297.067 L
260.487 297.071 L
261.227 297.342 L
261.237 297.346 L
261.975 297.613 L
261.985 297.617 L
262.732 297.885 L
262.741 297.888 L
263.481 298.151 L
263.491 298.154 L
264.228 298.414 L
264.238 298.417 L
264.984 298.676 L
264.994 298.68 L
265.731 298.932 L
265.741 298.935 L
266.488 299.189 L
266.498 299.193 L
267.234 299.44 L
267.245 299.443 L
267.98 299.689 L
267.99 299.692 L
268.733 299.936 L
268.743 299.939 L
269.486 300.181 L
269.497 300.184 L
270.236 300.423 L
270.246 300.426 L
270.989 300.661 L
270.999 300.665 L
271.74 300.898 L
271.751 300.901 L
272.486 301.131 L
272.496 301.134 L
273.242 301.362 L
273.252 301.366 L
273.993 301.592 L
274.003 301.595 L
274.738 301.816 L
274.748 301.82 L
275.487 302.039 L
275.497 302.042 L
276.237 302.26 L
276.247 302.263 L
276.992 302.479 L
277.002 302.482 L
277.738 302.695 L
277.749 302.698 L
278.498 302.91 L
278.508 302.914 L
279.241 303.121 L
279.251 303.122 L
279.995 303.329 L
280.006 303.333 L
280.747 303.538 L
280.757 303.54 L
281.499 303.742 L
281.51 303.745 L
282.244 303.944 L
282.254 303.945 L
283.002 304.145 L
283.012 304.147 L
283.748 304.342 L
283.759 304.345 L
284.494 304.537 L
284.504 304.538 L
285.245 304.73 L
285.256 304.733 L
285.996 304.921 L
286.007 304.925 L
286.755 305.112 L
286.765 305.116 L
287.5 305.299 L
287.511 305.3 L
288.257 305.485 L
288.268 305.488 L
289.006 305.667 L
289.016 305.671 L
289.758 305.848 L
289.769 305.852 L
290.499 306.026 L
290.51 306.027 L
291.251 306.203 L
291.262 306.205 L
292.007 306.379 L
292.017 306.382 L
292.76 306.553 L
292.77 306.555 L
293.505 306.723 L
293.517 306.725 L
294.26 306.894 L
294.272 306.895 L
295.013 307.061 L
295.024 307.062 L
295.757 307.224 L
295.768 307.228 L
296.509 307.389 L
296.519 307.391 L
297.264 307.551 L
297.275 307.555 L
298.01 307.711 L
298.021 307.713 L
298.766 307.87 L
298.777 307.873 L
299.513 308.026 L
299.524 308.028 L
300.258 308.179 L
300.269 308.181 L
301.01 308.332 L
301.021 308.334 L
301.759 308.484 L
301.769 308.485 L
302.512 308.633 L
302.524 308.637 L
303.267 308.783 L
303.279 308.785 L
304.017 308.929 L
304.029 308.931 L
304.765 309.073 L
304.776 309.075 L
305.517 309.216 L
305.528 309.218 L
306.268 309.357 L
306.278 309.359 L
307.022 309.498 L
307.033 309.499 L
307.774 309.637 L
307.785 309.639 L
308.52 309.773 L
308.531 309.774 L
309.269 309.907 L
309.28 309.908 L
310.024 310.042 L
310.036 310.044 L
310.775 310.174 L
310.786 310.176 L
311.527 310.305 L
311.539 310.307 L
312.277 310.434 L
312.288 310.435 L
313.024 310.561 L
313.035 310.562 L
313.77 310.686 L
313.781 310.688 L
314.52 310.811 L
314.532 310.813 L
315.275 310.935 L
315.286 310.936 L
316.029 311.058 L
316.04 311.06 L
316.776 311.178 L
316.789 311.18 L
317.529 311.298 L
317.541 311.3 L
318.281 311.416 L
318.293 311.418 L
319.034 311.533 L
319.046 311.535 L
319.781 311.648 L
319.792 311.65 L
320.536 311.763 L
320.546 311.764 L
321.279 311.874 L
321.291 311.876 L
322.037 311.987 L
322.048 311.989 L
322.781 312.095 L
322.793 312.097 L
323.529 312.204 L
323.541 312.206 L
324.279 312.312 L
324.291 312.314 L
325.035 312.418 L
325.047 312.42 L
325.787 312.524 L
325.799 312.526 L
326.531 312.627 L
326.543 312.629 L
327.286 312.731 L
327.298 312.733 L
328.037 312.832 L
328.05 312.834 L
328.783 312.933 L
328.796 312.935 L
329.534 313.032 L
329.546 313.034 L
330.292 313.132 L
330.304 313.133 L
331.037 313.227 L
331.049 313.229 L
331.785 313.323 L
331.797 313.325 L
332.542 313.419 L
332.555 313.42 L
333.288 313.513 L
333.301 313.514 L
334.042 313.606 L
334.054 313.606 L
334.789 313.697 L
334.801 313.699 L
335.544 313.787 L
335.556 313.789 L
336.299 313.878 L
336.311 313.88 L
337.047 313.967 L
337.058 313.968 L
337.797 314.053 L
337.809 314.055 L
338.55 314.14 L
338.562 314.142 L
339.292 314.226 L
339.305 314.227 L
340.044 314.311 L
340.056 314.311 L
340.795 314.394 L
340.807 314.394 L
341.549 314.476 L
341.562 314.478 L
342.294 314.558 L
342.307 314.56 L
343.045 314.64 L
343.058 314.64 L
343.799 314.72 L
343.811 314.72 L
344.552 314.798 L
344.564 314.8 L
345.3 314.876 L
345.312 314.878 L
346.055 314.953 L
346.069 314.955 L
346.802 315.029 L
346.814 315.031 L
347.559 315.106 L
347.572 315.106 L
348.304 315.179 L
348.317 315.181 L
349.052 315.252 L
349.064 315.254 L
349.801 315.325 L
349.814 315.327 L
350.557 315.398 L
350.57 315.398 L
351.309 315.469 L
351.321 315.469 L
352.063 315.539 L
352.076 315.541 L
352.813 315.609 L
352.825 315.61 L
353.558 315.676 L
353.571 315.678 L
354.305 315.744 L
354.318 315.746 L
355.063 315.812 L
355.075 315.814 L
355.813 315.878 L
355.826 315.88 L
356.558 315.943 L
356.571 315.944 L
357.316 316.009 L
357.329 316.01 L
358.068 316.073 L
358.081 316.075 L
358.82 316.136 L
358.834 316.137 L
359.569 316.198 L
359.583 316.2 L
360.311 316.259 L
360.325 316.261 L
361.06 316.32 L
361.076 316.322 L
361.822 316.381 L
361.836 316.383 L
362.565 316.44 L
362.58 316.442 L
363.311 316.499 L
363.325 316.501 L
364.063 316.558 L
364.076 316.558 L
364.821 316.616 L
364.836 316.618 L
365.569 316.673 L
365.585 316.673 L
366.322 316.729 L
366.334 316.731 L
367.068 316.785 L
367.082 316.785 L
367.826 316.84 L
367.841 316.84 L
368.573 316.894 L
368.586 316.894 L
369.327 316.948 L
369.34 316.948 L
370.067 317 L
370.081 317 L
370.827 317.052 L
370.841 317.054 L
371.576 317.105 L
371.59 317.105 L
372.328 317.155 L
372.341 317.157 L
373.083 317.205 L
373.097 317.207 L
373.833 317.256 L
373.848 317.258 L
374.578 317.305 L
374.593 317.306 L
375.326 317.353 L
375.342 317.355 L
376.077 317.402 L
376.091 317.402 L
376.831 317.449 L
376.844 317.451 L
377.585 317.498 L
377.598 317.498 L
378.337 317.543 L
378.351 317.545 L
379.083 317.59 L
379.096 317.59 L
379.829 317.633 L
379.844 317.635 L
380.577 317.679 L
380.59 317.68 L
381.329 317.724 L
381.343 317.724 L
382.085 317.767 L
382.099 317.767 L
382.838 317.811 L
382.853 317.811 L
383.585 317.853 L
383.598 317.854 L
384.334 317.896 L
384.349 317.896 L
385.085 317.938 L
385.1 317.938 L
385.842 317.98 L
385.857 317.98 L
386.586 318.02 L
386.6 318.02 L
387.344 318.06 L
387.36 318.061 L
388.089 318.1 L
388.104 318.1 L
388.845 318.14 L
388.858 318.14 L
389.59 318.178 L
389.603 318.178 L
390.344 318.216 L
390.359 318.216 L
391.093 318.254 L
391.108 318.254 L
391.847 318.291 L
391.862 318.293 L
392.598 318.327 L
392.613 318.329 L
393.349 318.364 L
393.367 318.366 L
394.092 318.401 L
394.106 318.401 L
394.847 318.437 L
394.861 318.437 L
395.598 318.472 L
395.612 318.472 L
396.343 318.507 L
396.358 318.507 L
397.091 318.54 L
397.106 318.541 L
397.851 318.574 L
397.865 318.576 L
398.597 318.608 L
398.61 318.609 L
399.35 318.641 L
399.367 318.642 L
400.102 318.674 L
400.116 318.675 L
400.857 318.707 L
400.871 318.707 L
401.607 318.738 L
401.62 318.74 L
402.356 318.769 L
402.37 318.771 L
403.109 318.801 L
403.123 318.802 L
403.849 318.832 L
403.864 318.832 L
404.603 318.861 L
404.619 318.863 L
405.361 318.893 L
405.375 318.893 L
406.11 318.922 L
406.123 318.922 L
406.852 318.952 L
406.869 318.952 L
407.6 318.98 L
407.615 318.982 L
408.364 319.009 L
408.378 319.009 L
409.101 319.037 L
409.119 319.037 L
409.856 319.065 L
409.873 319.065 L
410.609 319.093 L
410.626 319.093 L
411.356 319.119 L
411.371 319.121 L
412.115 319.147 L
412.134 319.147 L
412.866 319.173 L
412.885 319.175 L
413.617 319.199 L
413.631 319.201 L
414.368 319.225 L
414.384 319.227 L
415.109 319.251 L
415.123 319.251 L
415.864 319.275 L
415.879 319.277 L
416.612 319.302 L
416.628 319.302 L
417.357 319.326 L
417.374 319.326 L
418.109 319.35 L
418.125 319.35 L
418.873 319.375 L
418.89 319.375 L
419.618 319.397 L
419.632 319.399 L
420.371 319.422 L
420.384 319.422 L
421.115 319.444 L
421.132 319.444 L
421.87 319.467 L
421.885 319.469 L
422.625 319.489 L
422.642 319.491 L
423.376 319.512 L
423.39 319.512 L
424.124 319.535 L
424.14 319.535 L
424.87 319.556 L
424.886 319.557 L
425.625 319.578 L
425.641 319.578 L
426.375 319.599 L
426.39 319.599 L
427.127 319.62 L
427.141 319.62 L
427.878 319.641 L
427.894 319.641 L
428.617 319.66 L
428.634 319.662 L
429.38 319.681 L
429.395 319.681 L
430.121 319.7 L
430.138 319.702 L
430.884 319.721 L
430.899 319.721 L
431.629 319.74 L
431.646 319.74 L
432.383 319.759 L
432.4 319.759 L
433.129 319.778 L
433.147 319.778 L
433.886 319.797 L
433.899 319.797 L
434.637 319.815 L
434.651 319.815 L
435.374 319.834 L
435.393 319.834 L
436.135 319.851 L
436.151 319.851 L
436.882 319.869 L
436.902 319.869 L
437.627 319.886 L
437.642 319.886 L
438.385 319.903 L
438.402 319.903 L
439.129 319.921 L
439.149 319.921 L
439.889 319.938 L
439.906 319.938 L
440.63 319.954 L
440.645 319.954 L
441.384 319.971 L
441.406 319.971 L
442.14 319.987 L
442.156 319.987 L
442.892 320.003 L
442.91 320.003 L
443.645 320.018 L
443.659 320.018 L
444.396 320.034 L
444.415 320.034 L
445.135 320.05 L
445.154 320.05 L
445.889 320.065 L
445.905 320.065 L
446.647 320.079 L
446.665 320.081 L
447.393 320.095 L
447.411 320.095 L
448.141 320.109 L
448.156 320.109 L
448.886 320.123 L
448.902 320.124 L
449.635 320.138 L
449.652 320.138 L
450.388 320.152 L
450.403 320.152 L
451.141 320.166 L
451.155 320.166 L
451.9 320.18 L
451.916 320.18 L
452.643 320.192 L
452.66 320.194 L
453.394 320.206 L
453.409 320.206 L
454.14 320.22 L
454.158 320.22 L
454.892 320.232 L
454.908 320.232 L
455.651 320.244 L
455.669 320.246 L
456.407 320.258 L
456.43 320.258 L
457.154 320.27 L
457.168 320.27 L
457.902 320.283 L
457.92 320.283 L
458.658 320.295 L
458.673 320.295 L
459.397 320.307 L
459.414 320.307 L
460.15 320.319 L
460.167 320.319 L
460.909 320.33 L
460.929 320.33 L
461.657 320.342 L
461.672 320.342 L
462.402 320.352 L
462.417 320.354 L
463.159 320.364 L
463.173 320.364 L
463.903 320.375 L
463.92 320.375 L
464.646 320.385 L
464.669 320.387 L
465.409 320.397 L
465.425 320.397 L
466.155 320.408 L
466.17 320.408 L
466.901 320.418 L
466.919 320.418 L
467.657 320.429 L
467.673 320.429 L
468.409 320.439 L
468.425 320.439 L
469.163 320.448 L
469.18 320.448 L
469.9 320.458 L
469.92 320.458 L
470.662 320.469 L
470.681 320.469 L
471.42 320.477 L
471.438 320.477 L
472.161 320.488 L
472.177 320.488 L
472.91 320.497 L
472.925 320.497 L
473.669 320.505 L
473.688 320.507 L
474.418 320.516 L
474.434 320.516 L
475.172 320.524 L
475.186 320.524 L
475.91 320.533 L
475.926 320.533 L
476.672 320.542 L
476.694 320.542 L
477.421 320.551 L
477.443 320.551 L
478.168 320.559 L
478.185 320.559 L
478.921 320.568 L
478.937 320.568 L
479.67 320.575 L
479.688 320.577 L
480.424 320.584 L
480.444 320.584 L
481.173 320.592 L
481.19 320.592 L
481.914 320.599 L
481.935 320.599 L
482.671 320.608 L
482.7 320.608 L
483.419 320.615 L
483.44 320.615 L
484.175 320.624 L
484.191 320.624 L
484.916 320.631 L
484.934 320.631 L
485.68 320.638 L
485.699 320.638 L
486.419 320.644 L
486.435 320.644 L
487.184 320.653 L
487.202 320.653 L
487.919 320.66 L
487.946 320.66 L
488.682 320.667 L
488.707 320.667 L
489.425 320.674 L
489.442 320.674 L
490.168 320.679 L
490.189 320.681 L
490.928 320.686 L
490.948 320.686 L
491.689 320.693 L
491.707 320.693 L
492.44 320.7 L
492.464 320.7 L
493.188 320.707 L
493.206 320.707 L
493.941 320.712 L
493.955 320.712 L
494.684 320.719 L
494.704 320.719 L
495.425 320.724 L
495.449 320.724 L
496.185 320.731 L
496.204 320.731 L
496.941 320.737 L
496.961 320.737 L
497.69 320.744 L
497.709 320.744 L
498.443 320.749 L
498.46 320.749 L
499.192 320.754 L
499.207 320.754 L
499.939 320.759 L
499.957 320.761 L
500.692 320.766 L
500.714 320.766 L
501.439 320.771 L
501.454 320.771 L
502.192 320.777 L
502.211 320.777 L
502.944 320.782 L
502.959 320.782 L
503.698 320.787 L
503.718 320.787 L
504.437 320.792 L
504.451 320.792 L
505.201 320.798 L
505.217 320.798 L
505.937 320.803 L
505.964 320.803 L
506.692 320.808 L
506.707 320.808 L
507 320.81 L
S
GR
GS
1 GC
N
498 60 M
498 38 L
444 38 L
444 60 L
cp
f
GR
GS
[1 0 0 1 481 49] CT
/Helvetica 14.4 F
GS
[1 0 0 1 0 0] CT
0 5 moveto 
1 -1 scale
(Tf) t 
GR
GR
GS
0 0.447 0.741 RC
1 LJ
3 LW
N
448 49 M
478 49 L
S
GR
GS
0.149 GC
10.0 ML
0.5 LW
N
444 60 M
444 38 L
498 38 L
498 60 L
cp
S
GR
%%Trailer
%%Pages: 1
%%EOF
